56.5299 71.8579 1.06952 2.82158 7 6 25 19 17 59 105 25 4 17 12 11 17 50 66 12 3 13 34 98 53 5 14 5 2 0 22 84 23 1 7 15 50 13 0 0 0 18 124 31 124 124 80 9 3 15 22 29 8 46 111 99 107 34 3 5 0 0 5 48 124 27 0 0 73 22 7 1 1 2 3 30 124 34 6 2 4 29 54 124 9 5 7 17 85 124 59 32 0 0 0 13 64 90 5 0 14 41 21 0 0 3 2 8 20 14 5 1 3 17 25 79 2 0 0 16 39 60 19 24 4 2 2 14 13 15 1 0 
117.801 74.762 0.998323 2.18482 2 11 0 0 0 0 0 0 11 121 44 8 0 0 0 0 0 26 59 93 28 0 0 0 0 0 0 12 13 0 0 0 49 32 1 0 0 0 0 9 139 139 52 31 16 8 9 49 15 50 58 139 139 47 9 9 0 0 0 23 70 5 0 0 39 6 7 1 0 0 0 27 139 23 2 3 8 34 110 139 8 4 2 15 139 139 113 36 0 0 0 1 47 25 0 0 14 8 4 7 3 0 0 1 39 61 13 8 2 3 12 20 3 14 15 55 65 21 13 4 0 0 0 6 19 2 0 0 
117.801 74.762 0.998323 5.35945 22 2 0 0 0 0 0 9 60 19 13 4 5 17 17 59 1 2 12 21 42 58 11 6 3 0 0 1 12 7 5 7 48 24 0 0 0 0 0 1 140 140 113 36 8 4 3 17 8 33 111 140 139 22 2 3 0 0 0 29 38 5 7 1 66 5 0 0 0 0 0 24 140 46 9 9 14 47 55 140 16 8 10 50 140 140 52 35 0 0 0 9 50 34 1 0 11 0 0 0 0 0 0 12 28 0 0 0 0 24 56 97 0 0 0 0 13 121 45 10 0 0 0 0 3 12 0 0 
199.35 85.841 1.0176 0.412798 25 7 0 0 0 0 0 5 114 72 11 11 7 2 1 23 9 16 11 65 130 7 1 3 0 0 1 12 30 1 0 0 63 25 0 0 0 0 0 5 140 140 25 35 17 2 1 27 16 35 24 140 140 10 1 6 0 0 0 19 80 3 0 0 54 12 0 0 0 0 1 26 140 17 2 4 10 21 48 140 10 2 1 26 140 140 66 53 0 0 0 3 86 22 0 0 9 5 0 0 0 0 2 10 24 0 0 0 0 11 28 88 1 0 0 0 17 96 44 19 0 0 2 5 17 12 2 0 
199.35 85.841 1.0176 3.38378 14 10 0 0 0 0 2 3 20 99 45 10 0 0 0 0 0 21 43 74 33 0 0 0 0 1 2 10 14 6 0 0 72 30 0 0 0 0 0 0 144 144 59 42 12 3 1 12 12 29 51 144 144 23 1 3 0 0 1 27 60 11 1 0 101 7 0 0 0 0 0 11 144 15 1 5 16 56 31 108 16 3 1 21 144 144 26 22 0 0 0 3 50 36 1 0 64 9 0 0 0 0 0 8 111 21 1 6 27 37 17 38 0 0 0 8 96 100 9 3 0 0 0 2 11 7 0 0 
137.289 117.438 0.966268 3.15758 16 37 1 0 0 0 0 0 16 81 26 0 0 0 0 0 77 95 27 1 0 0 0 6 126 94 8 0 0 0 3 101 77 74 1 0 0 0 0 0 82 126 81 4 2 0 0 3 13 63 91 49 66 2 0 9 40 1 1 5 19 1 19 126 126 20 0 0 0 0 0 13 126 32 5 3 7 2 1 77 25 10 15 72 126 8 2 16 0 0 2 39 40 7 12 24 84 13 0 0 0 0 0 5 126 22 2 0 0 0 1 30 61 22 25 79 45 18 15 19 0 0 1 45 111 44 4 0 
137.289 117.438 0.966268 4.19792 29 0 0 0 0 0 4 101 32 9 7 3 0 13 113 113 0 1 12 13 1 74 113 4 0 1 5 9 12 50 25 0 84 4 0 0 0 0 1 37 113 68 31 13 0 0 3 23 9 25 98 102 3 2 6 5 1 38 113 60 5 2 0 0 69 1 0 0 0 0 0 67 113 11 2 1 0 0 55 113 13 11 20 21 3 4 113 113 18 34 47 24 13 18 48 82 13 0 0 0 0 0 2 42 4 0 0 0 0 0 38 113 0 0 0 0 0 0 79 113 0 0 0 0 0 12 83 106 
133.027 119.186 0.936433 2.43361 0 20 89 30 0 0 0 0 0 30 70 25 0 0 0 0 2 102 83 0 0 0 0 0 0 48 115 11 0 0 0 0 11 28 43 34 21 40 2 0 42 25 27 32 27 29 0 1 124 124 62 2 0 0 0 9 22 68 124 94 83 12 0 3 3 3 2 10 66 60 2 0 64 2 0 0 11 29 2 15 124 19 1 0 0 2 18 124 36 9 4 12 124 108 55 66 0 0 0 5 44 72 18 1 25 0 0 0 5 10 14 33 38 0 0 0 0 4 69 96 1 0 0 0 20 62 124 30 
75.5356 123.552 1.06529 2.90156 12 6 1 8 71 78 3 1 37 79 65 12 7 2 1 2 1 14 80 125 15 0 0 0 0 0 2 60 22 0 0 0 67 4 0 2 56 69 4 8 125 107 22 9 10 3 2 18 18 33 36 97 125 29 2 4 0 0 0 37 125 14 0 0 50 2 1 3 7 19 1 24 125 9 0 0 7 10 31 125 10 2 1 45 125 49 42 68 0 0 0 74 117 8 0 0 2 1 1 5 8 2 0 7 8 0 0 0 2 2 21 125 6 0 0 4 17 17 62 125 5 2 13 46 51 15 7 8 
85.378 130.246 1.00656 2.85702 69 18 0 0 0 0 0 45 72 32 21 22 15 7 2 59 19 17 22 50 43 15 2 7 30 43 107 58 8 2 1 8 86 8 0 0 0 0 0 34 126 61 19 34 12 4 1 45 41 15 16 126 97 12 8 41 55 17 15 22 29 28 99 126 107 9 0 0 0 0 0 6 126 19 3 7 10 8 9 73 19 3 3 63 126 68 19 26 0 1 1 19 78 23 68 32 48 61 12 4 0 0 0 3 95 98 18 15 17 12 10 34 3 2 4 18 97 117 16 9 17 20 8 3 25 30 1 1 
85.378 130.246 1.00656 5.63338 18 13 14 20 4 6 17 4 50 118 47 2 2 2 2 0 62 78 43 16 22 26 23 18 3 4 6 17 45 123 38 6 33 30 75 123 42 3 0 2 123 104 21 23 18 6 2 18 21 27 22 29 123 90 6 5 0 0 0 0 89 95 15 1 19 11 8 43 101 62 55 44 123 37 5 12 43 33 16 66 11 1 0 7 123 123 16 17 0 0 0 0 49 52 0 0 28 8 3 0 2 9 30 37 45 28 3 9 28 19 18 41 0 1 1 31 123 55 6 1 0 0 1 11 26 6 0 0 
82.2903 131.169 0.972768 1.72546 5 116 74 2 0 0 0 0 4 116 116 16 25 23 2 0 12 32 20 11 32 47 38 6 0 1 2 12 39 41 9 1 28 59 19 9 6 29 62 50 16 25 11 4 28 116 80 15 62 114 34 13 29 80 20 7 4 30 43 91 86 11 4 1 0 3 3 1 1 37 107 41 43 2 1 2 1 106 75 29 116 51 8 5 6 27 53 116 10 12 9 28 116 104 48 18 0 22 62 27 3 1 4 2 12 5 12 41 13 8 5 7 22 2 0 0 0 16 83 56 0 0 0 0 8 44 89 9 
82.2903 131.169 0.972768 5.80031 9 3 0 2 1 6 29 37 16 11 2 2 9 30 37 5 50 110 23 1 4 3 0 1 56 47 19 11 16 29 17 20 25 80 52 17 1 0 0 0 55 25 95 92 3 1 1 2 116 95 23 14 4 0 0 11 20 26 20 38 116 25 2 3 115 99 37 10 1 1 10 72 30 28 75 116 98 29 23 28 116 16 6 32 41 12 9 86 19 3 0 6 116 93 14 29 22 1 0 0 0 1 40 116 10 2 0 4 34 46 102 68 49 31 3 6 19 11 11 35 7 7 2 40 87 28 7 9 
84.0613 132.741 0.950284 5.52626 10 90 62 29 1 0 0 0 23 24 46 114 9 1 1 0 81 116 41 7 1 0 0 0 19 45 45 20 37 16 9 6 114 77 37 30 13 10 16 90 34 22 30 116 116 41 15 12 116 75 6 13 23 18 7 35 14 12 5 9 116 116 6 6 35 7 0 0 2 11 50 116 33 21 4 3 49 59 61 42 75 47 9 9 39 37 14 36 2 0 0 5 102 116 10 6 19 21 6 0 0 1 4 10 50 8 2 0 0 1 11 43 24 11 2 6 40 41 34 39 0 0 0 10 101 46 3 0 
81.1109 134.016 1.05397 1.73056 5 106 103 13 26 36 5 1 11 36 25 14 42 67 43 6 0 4 8 26 51 50 13 3 1 0 7 9 12 20 12 4 22 16 4 1 16 119 91 23 119 119 44 23 28 80 22 24 8 37 50 119 119 32 9 5 0 0 0 5 48 41 26 1 35 3 5 11 2 58 49 25 119 25 3 3 8 39 105 119 8 5 3 17 119 119 101 23 0 0 0 16 68 13 2 0 3 3 14 49 40 8 2 2 7 1 0 0 5 25 74 22 0 0 0 0 2 24 94 12 0 0 0 2 17 14 23 3 
81.1109 134.016 1.05397 4.97112 10 14 31 3 0 0 0 1 1 33 94 6 0 0 0 0 9 30 58 24 9 2 1 3 23 5 1 2 4 6 27 55 63 12 4 0 0 0 0 24 121 121 106 24 8 5 2 22 9 43 97 121 121 22 3 4 2 94 58 27 28 2 3 5 50 39 16 0 0 0 0 11 121 29 8 4 8 34 48 121 37 71 17 26 121 121 43 28 34 121 55 16 20 25 8 4 13 29 14 4 1 0 6 6 50 38 9 4 0 3 9 31 47 60 40 5 13 30 16 15 31 24 3 1 9 119 89 14 
87.7628 134.165 1.01146 2.55379 4 15 1 0 1 3 1 4 34 80 10 0 0 0 0 16 13 27 36 21 8 4 0 3 3 20 18 10 8 4 4 9 45 31 0 0 1 2 3 15 125 125 38 9 1 0 0 22 8 36 73 106 49 6 0 3 0 6 19 35 32 15 9 0 68 25 0 0 0 0 0 20 125 110 12 14 8 8 3 59 44 24 17 60 92 68 8 15 50 61 115 90 22 7 2 6 95 62 0 0 0 0 0 0 125 125 14 24 28 7 2 7 42 18 10 71 125 32 7 29 95 28 18 23 29 25 54 125 
191.85 158.093 1.06381 2.09422 58 3 0 0 0 0 0 16 92 32 9 10 8 3 0 13 3 3 5 23 43 29 12 8 10 0 0 5 17 5 6 26 99 4 0 0 0 0 0 7 142 89 33 46 10 0 0 4 16 17 26 142 123 2 0 3 31 8 8 28 13 0 0 20 95 1 0 0 0 0 0 11 142 11 2 12 12 0 0 74 52 4 6 142 142 6 2 21 8 6 22 71 48 9 2 1 45 2 0 0 0 0 0 12 142 0 0 0 0 0 21 142 21 0 0 15 67 75 83 80 1 2 5 10 61 43 12 3 
191.85 158.093 1.06381 4.75311 10 14 7 7 5 8 6 11 102 113 26 4 1 0 1 15 20 43 57 120 111 11 0 0 0 0 0 63 97 14 0 0 35 1 0 1 25 24 10 22 140 37 0 0 10 12 5 40 57 16 1 9 140 140 2 4 0 0 0 1 124 86 0 0 38 22 8 8 38 2 0 1 140 23 1 0 9 55 34 72 14 1 0 0 136 140 25 17 0 0 0 0 44 52 0 0 3 19 38 12 6 2 1 0 13 17 4 0 29 54 16 11 0 0 0 0 66 97 7 1 0 0 0 0 13 8 0 0 
208.15 160.11 1.15602 1.8237 19 3 0 0 0 0 2 37 115 26 3 0 0 0 4 50 31 21 46 11 3 40 71 40 0 0 23 56 29 66 19 0 44 5 0 0 0 0 1 19 121 121 13 0 0 2 4 36 30 94 121 20 2 15 33 19 0 1 56 121 86 3 8 7 38 0 0 0 0 0 0 17 121 11 0 0 0 5 79 121 58 7 2 1 1 34 121 121 53 6 7 74 85 5 16 57 10 0 0 0 0 0 0 8 10 2 0 0 0 1 31 34 81 15 0 0 0 0 38 105 81 3 0 15 25 8 12 121 
216.089 161.127 0.870152 1.62832 35 29 0 0 0 0 0 1 25 83 5 0 0 0 0 1 11 86 118 4 0 0 0 0 2 10 128 35 0 0 0 1 53 18 0 0 0 0 0 11 128 30 0 0 0 0 0 37 128 128 73 1 0 0 1 23 22 38 128 112 27 11 6 10 36 13 0 0 0 0 0 23 128 39 0 0 0 0 0 15 128 16 1 0 0 2 59 122 19 5 5 13 27 104 128 52 39 8 0 0 0 0 0 30 108 64 7 0 0 0 0 16 33 27 47 6 1 5 35 30 0 0 19 35 11 38 67 3 
207.956 164.173 1.08062 4.32968 33 25 0 0 0 0 0 2 111 81 0 0 0 0 0 1 65 37 5 11 98 38 2 4 0 0 0 6 111 60 11 0 59 71 0 0 0 0 0 1 111 111 2 4 2 0 0 16 32 23 20 71 97 45 4 9 0 0 20 111 89 19 0 0 63 42 20 0 0 0 0 9 111 17 9 2 1 0 12 111 9 3 25 44 14 23 73 80 0 0 20 76 107 103 21 1 23 91 101 16 1 0 0 3 9 9 84 67 24 6 7 23 0 0 2 7 28 67 75 25 0 0 0 0 24 111 29 0 
54.0361 173.594 1.12082 4.03598 5 0 0 0 0 0 0 16 26 6 0 0 0 0 1 33 56 107 30 9 1 0 0 4 3 29 49 107 45 0 0 0 1 0 1 0 0 0 0 4 99 7 0 0 0 0 0 22 148 147 13 11 2 0 0 7 22 44 22 148 142 0 0 1 0 0 2 0 1 3 0 0 106 1 0 0 0 0 0 18 148 23 1 2 2 2 1 108 47 8 3 47 148 30 3 28 0 0 0 0 0 2 0 0 56 3 0 0 0 0 0 7 148 3 0 0 0 0 1 79 62 3 0 34 120 17 9 35 
247.44 199.884 0.904109 2.9183 89 2 0 0 0 0 0 14 132 8 0 0 0 0 2 98 44 2 0 4 14 34 36 40 0 0 0 32 60 28 18 1 96 12 0 0 0 0 0 3 132 28 0 0 0 5 4 47 48 2 0 0 16 112 60 29 0 0 0 0 16 64 97 21 65 97 0 0 0 0 0 0 132 104 19 5 2 10 6 22 13 3 29 44 39 93 16 11 0 0 14 21 12 29 36 12 101 112 0 0 0 0 0 3 69 132 57 12 0 0 0 2 1 9 100 132 5 0 0 0 0 0 35 106 22 0 0 0 
245.87 214.071 0.956949 0.71642 1 0 0 0 0 3 101 112 0 0 0 47 33 7 37 128 0 0 4 128 107 5 9 4 0 0 19 128 9 0 0 0 11 4 5 0 0 5 34 63 16 0 0 1 2 3 105 128 65 13 21 86 9 3 34 81 6 8 109 128 0 0 0 0 0 1 2 0 5 29 34 2 111 10 0 0 0 3 38 38 128 68 5 0 0 0 2 22 28 22 38 60 2 3 2 1 4 3 3 1 5 8 5 3 114 21 3 0 0 0 0 9 128 10 0 0 0 0 21 71 11 1 0 1 1 46 70 16 
194.717 228.824 1.08973 0.0385341 15 20 4 2 1 0 6 12 111 75 0 0 0 0 4 22 133 32 0 0 0 0 0 33 133 38 6 0 0 0 10 53 64 25 2 0 0 0 0 26 133 110 4 1 0 1 5 25 88 46 9 5 6 21 34 42 103 1 0 0 0 2 94 133 49 36 1 0 0 0 1 17 96 10 0 0 0 14 93 86 6 1 0 1 3 74 133 31 2 0 0 0 0 12 132 133 12 2 0 0 0 2 27 49 1 0 0 0 0 45 78 8 7 0 0 0 0 25 75 15 8 0 0 0 0 9 45 51 
194.717 228.824 1.08973 4.6995 32 45 11 1 0 0 0 3 2 17 47 36 2 0 0 0 0 22 65 25 2 0 0 0 3 10 12 20 5 2 1 0 84 7 1 0 0 0 0 39 98 82 96 11 0 0 0 12 5 22 133 117 4 1 0 1 3 20 95 87 0 0 0 0 80 18 9 0 0 0 0 17 133 38 7 2 0 1 2 59 29 37 87 54 10 5 5 18 0 25 133 44 0 0 0 0 50 61 9 0 0 0 0 7 117 133 4 0 0 0 0 8 71 133 133 6 0 0 0 1 4 35 133 51 8 0 0 0 
205.623 232.598 0.986675 4.59496 12 10 4 0 0 0 0 8 80 21 2 0 0 0 0 8 85 142 5 0 0 0 0 0 30 142 20 0 0 0 0 0 10 52 21 1 0 0 0 0 95 26 16 7 2 0 0 5 142 112 1 0 0 0 0 8 78 139 30 0 0 0 0 3 30 29 4 2 2 2 13 16 64 8 6 11 12 7 12 15 142 12 0 0 0 0 0 120 122 26 4 0 0 0 0 87 3 0 0 0 0 0 34 30 13 0 0 0 0 3 31 51 142 0 0 0 0 0 1 131 142 37 1 0 1 0 0 41 
281.173 266.29 0.915356 2.20125 72 37 7 2 0 0 0 9 12 18 56 64 17 6 0 3 2 81 83 24 9 2 0 0 2 46 94 48 4 0 0 0 110 6 1 0 0 0 0 73 115 42 88 42 0 0 0 37 15 82 115 100 4 1 1 1 8 86 42 64 42 0 0 0 95 107 1 0 0 0 0 14 115 84 10 6 6 9 19 33 49 26 20 30 12 26 51 54 40 36 16 64 68 0 0 19 92 115 7 0 0 0 0 2 18 90 29 19 71 24 5 2 52 5 1 3 43 24 15 64 105 4 5 34 15 2 0 58 
156.952 323.916 1.0213 0.432389 8 38 6 0 0 1 0 1 13 76 61 25 1 0 2 4 0 3 28 89 13 4 17 3 5 5 2 6 0 1 10 16 45 52 15 0 0 1 8 11 131 131 88 50 8 5 8 36 10 27 74 131 129 21 8 6 9 31 12 60 24 0 0 1 23 1 0 0 4 13 22 39 131 19 3 5 7 20 131 131 24 11 14 53 116 119 131 49 3 16 48 41 46 9 0 0 1 0 0 1 14 14 5 5 55 7 0 0 2 2 27 39 118 31 8 1 0 2 20 22 12 16 24 44 50 1 0 0 
156.952 323.916 1.0213 3.02677 22 26 0 0 0 9 15 17 31 29 11 6 5 22 27 43 0 1 7 22 51 116 11 1 1 1 0 1 17 55 8 0 71 8 0 0 0 22 27 22 134 134 93 49 10 9 11 32 7 21 81 134 134 52 6 3 0 16 8 36 40 10 0 0 82 1 1 9 3 1 3 25 134 24 7 6 8 51 90 134 8 5 8 45 134 134 76 22 0 6 12 31 41 14 3 0 15 3 21 37 5 4 1 6 21 1 2 3 5 21 76 56 0 0 0 0 5 65 82 6 0 0 1 5 5 14 40 3 
156.952 323.916 1.0213 5.48624 10 4 4 1 1 0 14 8 22 33 26 18 0 0 1 10 0 10 77 66 2 0 0 0 3 11 18 30 2 0 0 0 49 29 8 0 0 1 16 7 131 131 117 14 3 6 6 31 7 46 131 131 129 61 6 6 8 3 7 39 70 41 2 8 36 66 82 2 0 0 0 3 131 55 29 9 7 47 79 131 7 6 9 21 118 131 77 30 10 2 1 2 42 64 0 3 0 25 95 27 13 16 2 0 2 5 17 31 40 39 28 8 0 0 22 26 30 56 18 1 8 9 17 19 8 8 0 0 
332.63 327.33 1.11218 2.73673 22 27 10 0 2 8 1 4 128 72 20 2 0 0 0 1 55 61 128 35 19 33 0 1 0 0 43 100 86 72 0 0 42 6 0 0 0 0 9 53 128 54 0 0 0 7 5 40 79 25 0 3 65 128 8 11 0 0 0 25 96 128 0 0 23 0 0 0 3 3 6 55 102 5 0 0 0 9 65 128 9 1 1 29 44 82 77 87 0 0 12 114 28 12 2 5 1 0 0 0 1 5 6 12 2 0 0 0 0 0 28 79 1 0 0 2 0 0 38 128 11 3 19 24 1 0 11 89 
362.836 328.116 1.0014 1.03831 3 10 2 2 1 1 1 1 5 52 59 2 0 0 0 0 37 29 59 15 1 1 1 7 23 3 0 1 2 20 45 32 54 33 4 0 0 0 0 3 124 124 108 23 7 3 3 24 8 41 124 124 124 17 4 6 3 7 2 21 65 17 5 0 61 48 10 0 0 0 0 9 124 61 8 4 9 22 42 124 10 8 18 42 124 124 51 41 4 7 30 52 53 5 0 0 26 82 47 0 0 0 0 1 24 105 37 2 0 2 4 12 2 30 120 36 9 12 5 4 0 5 107 67 1 0 0 0 
362.836 328.116 1.0014 4.10894 1 0 0 0 0 2 84 81 10 14 5 3 1 17 115 52 1 2 4 10 18 103 47 4 0 0 0 1 23 73 60 0 58 7 0 0 4 9 21 46 124 124 49 37 11 7 17 42 9 25 43 124 124 67 10 5 0 0 0 7 56 59 19 0 62 22 10 0 2 6 2 18 124 19 4 5 8 42 124 124 7 3 3 22 124 124 110 22 0 0 0 3 51 35 4 0 1 12 35 35 37 6 1 1 0 0 0 4 34 28 67 16 0 0 0 0 4 52 58 3 1 1 1 2 3 9 2 1 
181.128 328.353 1.04659 2.09052 1 0 0 2 22 25 87 60 2 17 34 17 77 26 14 2 0 45 46 17 8 0 0 0 0 7 20 23 8 1 0 0 58 12 0 0 0 2 25 32 121 121 112 26 6 5 7 18 9 31 121 121 59 19 2 3 6 79 82 27 10 2 0 0 92 6 0 0 0 0 0 17 121 33 9 7 5 20 28 121 27 22 50 69 90 111 30 25 112 110 37 10 10 7 3 17 50 3 0 0 0 0 0 12 121 22 7 1 0 0 4 73 40 23 67 54 11 13 23 40 22 14 30 13 23 29 24 22 
181.128 328.353 1.04659 4.10225 20 3 0 0 0 0 28 118 12 7 10 1 3 36 118 103 71 14 24 4 7 28 43 54 24 8 21 28 63 21 2 6 38 22 4 1 0 0 4 33 118 118 68 13 3 8 13 47 62 37 91 58 40 65 35 31 19 2 1 4 41 118 79 17 24 24 8 0 0 0 17 51 111 25 8 4 3 32 107 118 6 4 4 11 32 118 118 19 0 0 0 0 3 118 50 0 3 97 57 15 7 0 0 1 2 9 23 41 66 17 25 10 0 0 1 2 14 45 43 0 0 0 2 0 0 15 8 0 
343.159 334.163 0.991497 5.37142 9 13 14 6 33 77 37 27 6 38 19 0 5 92 31 4 1 42 68 1 1 7 14 5 0 15 44 52 7 2 0 0 33 7 1 1 18 75 70 13 129 129 51 0 2 11 3 8 21 91 129 10 0 0 0 4 0 23 118 129 31 0 0 0 48 27 40 2 0 1 9 3 129 30 7 0 0 0 2 124 60 34 46 3 1 3 32 129 8 11 31 70 114 51 35 24 14 19 48 12 4 4 2 7 37 5 8 6 5 5 3 79 35 3 0 0 0 1 42 129 20 10 2 10 30 27 38 30 
334.416 335.362 1.00495 4.46252 1 3 1 2 1 2 2 1 46 23 0 0 0 0 2 9 95 136 61 11 0 0 0 0 3 36 136 125 0 0 0 0 9 23 24 5 3 2 1 0 99 42 64 14 0 0 0 2 136 92 19 4 0 0 4 64 44 24 85 103 0 5 48 35 89 36 16 1 0 0 3 34 54 42 71 53 10 19 31 32 136 24 8 7 2 6 82 111 14 0 0 1 0 23 136 49 20 5 4 8 1 0 9 44 8 18 17 2 2 18 77 44 5 3 15 7 0 5 96 53 5 0 0 0 0 11 81 35 
351.204 335.366 0.954431 4.30448 9 8 1 0 2 14 17 5 56 67 3 0 0 1 7 3 124 103 3 0 0 0 0 8 108 57 21 41 17 11 10 23 18 76 46 2 1 1 1 3 92 124 45 0 0 0 0 10 94 100 82 7 7 16 9 27 49 6 2 2 10 110 119 68 29 39 21 14 29 15 2 9 124 37 9 3 5 8 9 104 30 9 11 4 23 124 27 37 0 0 0 0 15 124 26 1 18 17 13 38 21 11 4 4 70 16 6 8 4 7 21 43 14 0 0 0 28 124 31 23 0 0 0 1 24 124 2 0 
351.204 335.366 0.954431 4.95987 55 4 3 6 5 11 4 23 123 7 0 0 0 0 1 123 42 10 5 6 26 64 72 123 0 0 0 11 123 113 13 0 60 7 0 0 0 6 3 21 123 97 3 0 0 0 2 61 31 54 12 11 68 37 21 33 0 0 0 2 123 56 3 0 66 57 3 1 2 1 2 10 107 32 3 4 7 4 38 123 14 5 1 7 52 29 63 121 0 0 0 14 123 29 5 2 90 19 1 5 4 0 0 39 18 13 28 32 16 2 8 32 22 6 9 4 5 16 35 73 0 0 0 0 81 55 21 4 
358.596 337.889 1.00606 4.01871 21 34 0 0 0 0 1 2 81 125 2 0 0 0 0 0 35 117 49 10 20 21 2 1 105 81 38 7 7 11 4 15 108 18 0 0 0 0 0 12 125 125 9 3 1 3 4 23 33 61 26 62 59 33 12 8 125 52 10 13 10 10 9 33 104 13 0 0 0 0 0 14 125 9 0 0 1 9 88 125 13 4 2 5 15 55 125 71 22 6 1 0 1 29 93 84 23 28 16 4 0 0 0 11 14 1 3 3 1 0 51 66 2 0 0 0 0 0 74 78 1 2 0 0 0 20 71 34 
95.9885 361.32 0.990636 3.35097 57 12 0 0 0 0 0 7 109 78 13 0 0 0 0 14 63 21 17 6 20 21 5 25 0 0 0 40 64 35 0 0 118 12 0 0 0 0 1 15 127 127 49 11 6 3 3 23 16 53 67 71 127 31 4 6 0 0 0 4 88 54 0 0 99 3 0 0 0 0 1 37 127 19 1 2 5 17 60 127 11 5 2 14 127 111 94 45 0 0 0 26 109 37 1 0 29 2 5 2 0 0 1 18 51 1 0 0 0 0 34 118 24 13 2 2 3 10 62 64 7 6 9 50 43 2 1 7 
343.994 370.723 0.925711 2.30394 11 24 11 0 0 0 1 2 2 111 71 4 0 2 3 0 0 20 120 100 5 0 0 0 0 10 20 49 7 0 0 0 71 48 5 0 0 0 0 5 127 127 49 13 6 5 5 32 8 44 74 127 127 55 6 6 0 1 2 39 106 34 3 1 45 7 1 1 1 2 15 46 118 13 0 1 4 30 107 127 5 3 1 4 97 127 111 24 0 0 0 0 45 92 8 0 4 0 0 0 0 2 18 33 6 1 0 0 1 13 57 55 0 0 0 0 13 82 39 2 0 0 0 0 3 28 4 0 
343.994 370.723 0.925711 6.04388 28 7 0 0 0 0 0 12 10 44 64 10 3 0 0 1 0 14 85 32 1 0 0 0 11 8 8 9 10 3 13 15 95 40 0 0 0 0 0 3 126 126 97 28 4 1 1 13 5 25 107 126 93 6 1 2 0 0 1 55 62 8 1 0 108 18 0 0 0 0 0 22 126 31 6 5 6 13 54 126 8 5 6 40 126 126 73 34 0 1 1 6 95 57 1 0 18 6 13 6 1 0 0 16 17 0 0 0 1 10 96 91 1 0 0 0 11 96 122 12 15 29 7 0 11 31 5 1 
352.113 375.743 1.19354 4.96399 4 1 0 2 4 25 20 7 46 21 12 0 0 0 23 123 19 6 19 6 2 65 123 118 1 0 0 1 20 107 72 6 21 8 0 3 10 9 2 3 123 123 73 22 10 4 4 26 16 43 101 118 123 21 13 9 1 15 21 9 32 28 8 2 25 5 2 0 1 5 2 10 123 25 5 5 12 25 59 123 31 20 23 25 123 106 78 58 5 68 59 14 23 16 8 1 7 3 1 1 1 2 3 6 10 1 0 1 3 5 28 55 75 8 2 0 1 13 39 69 15 7 3 0 17 70 19 10 
82.562 382.541 1.01361 1.33608 23 0 0 0 0 0 40 126 16 10 4 2 3 4 87 75 3 5 11 43 26 9 17 13 3 2 66 65 4 0 0 2 54 16 0 0 0 0 20 43 126 126 33 11 0 0 12 33 19 41 62 126 15 0 2 11 22 45 48 39 8 0 0 8 71 11 0 0 0 0 1 57 126 28 3 4 1 0 0 126 52 17 21 98 33 20 10 72 19 60 46 37 14 19 47 40 14 0 0 0 0 0 1 41 76 0 0 0 0 0 4 126 29 0 0 3 10 93 80 126 11 0 0 0 7 74 97 55 
176.511 385.396 1.0075 0.361131 26 8 0 0 0 0 20 80 29 47 19 1 0 11 44 57 32 27 42 9 0 4 9 19 40 38 19 12 3 0 0 13 104 28 0 0 0 0 1 11 125 125 56 12 1 0 1 22 25 69 125 125 25 4 2 4 58 98 34 12 1 0 0 9 91 8 0 0 0 0 1 38 125 21 2 2 2 2 35 125 32 10 14 42 31 18 67 101 47 65 21 11 2 1 7 29 15 3 0 0 0 0 1 31 124 9 0 0 0 0 9 125 125 37 2 4 10 8 15 58 17 8 1 2 18 34 90 53 
82.1333 388.44 1.07323 3.90147 59 12 0 1 7 0 1 108 9 10 27 31 53 14 1 22 0 7 20 49 58 20 0 0 0 2 14 41 47 6 0 0 92 21 0 0 0 0 0 117 117 47 46 57 7 1 3 56 5 22 81 117 59 13 3 3 0 30 117 89 49 3 0 0 117 83 0 0 0 0 0 10 117 38 2 5 6 13 58 64 57 21 29 43 31 24 78 46 23 20 42 40 117 19 0 5 67 6 0 0 0 0 0 73 32 3 0 1 12 13 20 74 87 1 0 2 11 17 34 58 20 1 0 1 92 117 25 15 
82.1333 388.44 1.07323 6.26144 72 123 2 0 0 0 3 22 21 123 34 4 11 36 18 23 2 17 30 37 63 103 3 0 8 9 4 7 29 32 6 3 79 40 6 0 0 0 27 105 123 49 15 22 13 22 43 106 9 19 29 114 65 59 6 2 0 8 11 14 93 52 6 0 55 73 22 0 0 0 5 15 123 35 6 2 11 47 28 72 9 2 1 13 60 123 67 11 0 0 0 0 23 123 75 0 27 46 24 0 0 0 4 9 25 48 10 1 52 25 11 24 0 0 0 0 123 87 12 1 0 0 0 0 9 35 32 1 
175.392 393.658 0.978583 0.143156 44 4 0 0 0 0 0 29 132 61 0 0 0 0 3 90 59 33 2 2 5 12 21 48 35 38 15 2 4 12 47 72 87 6 0 0 1 5 1 11 132 131 7 6 6 6 9 38 28 43 10 20 117 128 35 13 3 0 0 0 15 66 132 81 49 1 2 2 0 1 1 25 132 7 0 0 2 23 116 132 9 4 3 2 45 132 132 35 31 14 3 0 7 50 33 18 2 1 0 0 0 0 3 9 6 0 0 0 0 1 26 46 12 4 5 1 0 12 25 31 25 7 3 1 0 3 1 16 
175.392 393.658 0.978583 4.16913 0 4 15 1 0 0 0 0 0 20 48 8 1 0 0 0 1 3 38 34 1 2 2 0 5 3 3 7 1 0 1 1 21 20 29 9 4 6 1 1 105 133 133 29 2 0 0 10 7 31 133 133 33 1 1 3 2 0 22 108 10 0 0 1 45 14 13 37 11 6 1 5 133 58 11 7 4 2 12 133 30 11 14 133 103 12 22 56 0 4 101 133 40 0 0 0 24 53 13 15 8 4 5 2 67 133 63 4 1 0 0 22 26 45 53 34 16 2 2 14 6 33 92 39 6 2 8 10 
129.642 395.56 1.00242 1.7026 7 9 0 0 0 0 0 0 16 108 31 0 0 0 0 0 5 85 89 5 0 0 0 0 0 4 18 1 0 0 0 0 65 40 0 0 0 0 0 1 138 138 110 13 3 3 4 29 12 76 138 138 60 32 7 8 0 1 17 23 11 6 1 0 97 12 0 0 0 0 0 16 138 34 4 3 3 16 74 138 13 8 7 25 58 138 138 54 0 0 0 3 10 33 17 0 51 11 0 0 0 0 0 7 100 16 1 0 0 1 15 53 12 38 40 0 0 14 43 13 0 12 33 2 0 3 5 0 
120.951 397.316 0.883886 1.77635 65 14 3 0 0 3 24 48 4 58 57 0 0 15 30 3 0 25 54 2 0 1 3 0 0 0 0 0 0 0 0 0 136 26 1 0 0 0 0 48 136 136 82 11 2 1 0 12 6 30 97 63 39 11 0 1 0 0 0 1 2 0 0 0 136 3 0 0 0 0 0 81 136 25 4 3 10 21 8 98 13 4 4 14 107 136 9 14 0 0 0 0 8 18 0 0 136 19 0 0 0 0 0 19 136 89 13 21 28 6 1 25 6 9 8 43 136 62 1 2 0 0 0 0 34 17 0 0 
193.857 35.5473 1.26444 0.0972126 27 6 9 15 3 2 32 69 15 16 45 86 7 4 21 17 2 9 64 120 25 0 0 0 0 0 1 18 16 0 0 0 33 3 0 0 0 1 39 44 136 136 23 16 9 1 17 43 22 52 37 136 136 3 1 4 0 0 0 24 92 0 0 0 42 1 0 0 0 0 2 17 136 23 1 2 9 6 12 136 26 6 1 43 136 45 25 74 0 0 0 30 127 5 0 0 8 0 0 0 0 0 0 4 68 1 0 0 0 0 14 116 11 0 0 3 50 78 70 63 0 0 0 3 62 32 1 0 
193.857 35.5473 1.26444 3.10374 53 23 0 0 0 0 0 1 68 97 61 41 8 0 0 1 0 3 24 107 87 3 0 0 0 0 0 5 18 1 0 0 124 4 0 0 0 0 0 8 140 61 19 51 26 8 2 11 11 10 11 140 140 32 1 1 0 0 0 14 51 2 0 0 111 4 0 0 0 0 0 14 140 8 1 3 20 66 44 100 8 1 12 38 140 140 20 10 0 0 20 31 35 6 0 0 17 0 0 0 0 0 2 26 20 0 0 0 3 11 51 136 15 4 29 37 19 17 21 67 1 0 22 76 37 3 2 3 
135.904 112.294 1.09391 0.413103 60 45 0 0 0 0 0 0 38 92 30 7 0 0 0 0 0 8 44 88 16 0 0 0 0 0 0 56 47 0 0 0 116 47 0 0 0 0 0 0 116 116 52 13 1 0 1 12 5 24 64 116 85 2 1 3 0 0 0 98 101 0 0 0 104 70 1 0 0 0 0 7 116 25 3 2 2 2 27 116 14 3 4 90 80 12 37 67 0 0 0 116 116 3 0 0 26 94 36 1 0 0 0 0 21 15 63 15 0 0 6 45 28 1 6 14 8 23 26 87 0 0 0 24 92 94 12 5 
135.904 112.294 1.09391 3.03215 123 46 0 0 0 0 0 2 124 66 27 12 22 1 0 10 7 4 15 34 91 6 2 21 12 0 0 1 5 5 54 124 124 34 0 0 0 0 0 2 124 48 9 22 14 4 4 22 7 7 7 96 124 41 5 3 0 0 0 5 38 51 56 20 124 17 0 0 0 0 0 24 104 8 0 1 4 30 86 108 2 0 0 6 87 124 62 10 0 0 0 0 27 124 25 0 40 1 0 0 0 0 5 45 6 0 0 0 0 51 65 34 0 0 0 0 12 124 30 0 0 0 0 0 9 60 5 0 
130.194 121.311 1.41952 5.78807 5 45 30 0 0 0 0 0 6 105 100 4 0 0 0 0 0 30 110 43 4 0 0 0 32 72 35 7 1 0 0 3 57 33 13 1 3 7 4 18 126 126 87 38 10 4 3 28 17 26 67 126 126 19 4 5 61 30 2 15 24 9 8 14 92 31 0 0 2 11 5 8 126 36 2 5 8 43 91 92 13 3 2 25 117 126 103 23 10 4 0 2 19 57 89 19 71 27 0 0 0 2 1 8 29 17 21 20 9 36 40 18 0 0 2 19 25 86 31 0 0 0 0 0 9 40 17 0 
134.269 132.353 1.22522 3.02039 20 26 4 0 0 0 0 0 41 121 39 14 0 0 0 0 0 16 46 128 8 0 0 0 0 0 8 57 5 0 0 0 81 36 4 4 0 0 0 2 128 128 49 32 6 3 3 24 9 31 50 128 128 14 3 5 0 0 0 85 55 0 0 0 82 9 0 0 0 0 1 26 128 18 2 3 6 17 65 128 9 4 3 35 128 121 82 43 0 0 1 39 113 10 0 0 39 13 0 0 0 0 0 4 47 29 0 0 0 1 18 61 23 70 23 14 6 12 25 20 0 7 13 58 82 1 0 0 
134.269 132.353 1.22522 5.78794 67 31 0 0 0 4 0 3 60 30 18 7 2 13 21 27 0 2 15 40 29 73 38 2 0 0 0 3 17 57 9 0 114 21 0 0 0 0 0 11 129 129 70 29 9 5 3 16 6 23 63 129 129 35 2 2 0 0 0 14 79 42 0 0 102 1 0 0 0 0 0 57 129 19 3 3 8 56 71 129 6 3 3 16 129 129 53 17 1 0 0 4 56 49 1 3 29 0 0 0 0 0 2 58 20 0 0 0 0 57 75 67 0 0 0 0 8 129 30 1 1 0 0 0 3 15 11 5 
88.5523 147.823 1.21182 3.17367 2 15 1 0 0 0 5 4 5 80 45 9 0 1 4 1 0 9 44 75 7 0 0 0 1 0 0 11 4 0 0 0 38 70 6 0 0 0 0 0 134 134 85 42 4 0 0 14 10 30 77 134 106 1 0 4 0 0 0 72 46 1 0 0 60 57 5 0 0 0 0 8 134 41 5 9 6 6 44 134 16 4 5 107 134 78 90 54 0 0 0 59 134 12 1 0 35 5 0 0 0 0 3 50 29 3 0 0 1 16 65 56 2 3 1 2 21 50 115 14 0 0 1 28 59 16 4 0 
88.5523 147.823 1.21182 5.7556 34 22 0 0 0 0 0 1 68 124 40 15 0 0 0 0 3 19 72 91 5 2 3 1 1 2 15 21 31 4 2 1 99 22 1 0 0 0 0 4 134 134 32 24 13 7 5 21 21 29 50 126 134 74 6 5 0 0 6 18 76 54 6 0 87 1 0 0 0 0 0 22 134 6 0 1 7 44 115 134 10 1 0 3 88 134 112 22 0 0 0 0 15 64 43 0 11 2 2 1 0 0 3 17 6 0 2 2 0 18 79 37 0 0 0 1 0 49 65 1 0 0 0 0 0 7 24 3 
68.5924 148.998 1.26726 2.68076 1 1 3 0 0 0 0 0 20 23 4 0 0 0 0 0 91 141 4 0 0 0 0 0 55 141 11 4 14 30 2 0 5 0 0 0 0 0 0 4 109 30 1 0 0 0 0 6 141 141 9 4 6 9 6 44 26 58 16 15 135 125 8 12 3 1 1 0 0 0 0 1 131 21 0 0 0 0 0 7 141 15 0 0 4 31 30 115 10 0 0 0 87 141 32 27 5 2 0 0 0 2 0 0 103 16 0 0 0 0 0 9 98 7 0 0 4 16 17 55 1 0 0 3 60 50 10 4 
191.404 154.198 1.27479 1.96845 1 0 0 0 0 0 0 2 72 9 0 0 0 0 0 7 139 84 16 20 8 1 0 1 6 9 9 44 48 16 9 6 2 1 0 0 0 0 0 0 139 17 0 0 0 0 0 0 139 102 16 41 28 0 0 8 19 14 13 139 139 0 0 2 4 0 0 0 0 0 0 1 130 6 0 0 0 0 0 22 139 4 0 5 16 10 31 139 17 0 1 47 137 73 43 32 1 0 0 0 0 0 0 0 18 0 0 0 0 0 4 35 20 0 0 0 0 3 76 139 4 0 0 0 6 39 112 51 
191.404 154.198 1.27479 1.96845 1 0 0 0 0 0 0 2 72 9 0 0 0 0 0 7 139 84 16 20 8 1 0 1 6 9 9 44 48 16 9 6 2 1 0 0 0 0 0 0 139 17 0 0 0 0 0 0 139 102 16 41 28 0 0 8 19 14 13 139 139 0 0 2 4 0 0 0 0 0 0 1 130 6 0 0 0 0 0 22 139 4 0 5 16 10 31 139 17 0 1 47 137 73 43 32 1 0 0 0 0 0 0 0 18 0 0 0 0 0 4 35 20 0 0 0 0 3 76 139 4 0 0 0 6 39 112 51 
191.115 161.295 1.33644 4.70382 30 2 0 0 0 4 11 56 13 13 3 6 6 23 41 11 31 92 69 37 12 7 8 3 1 13 62 137 49 0 0 0 80 3 0 0 2 6 3 31 69 9 1 4 17 35 11 29 137 90 15 11 29 25 4 27 20 18 15 58 137 117 0 1 63 40 2 2 4 1 0 5 76 28 16 16 34 7 1 7 137 22 2 0 25 120 43 66 6 0 0 0 129 137 13 5 53 73 16 4 0 0 0 0 8 30 56 31 16 12 1 0 11 9 5 1 37 124 20 10 0 0 0 0 44 80 3 0 
227.126 165.925 1.27066 1.84583 2 4 3 1 0 0 1 1 36 38 0 0 0 0 0 0 49 132 56 3 0 0 0 0 15 19 91 44 0 0 2 35 7 6 2 1 0 0 3 4 132 39 0 0 0 0 0 1 138 138 61 9 1 3 5 26 23 42 112 138 83 52 9 9 9 13 11 5 0 0 0 2 123 18 4 0 0 0 0 18 138 9 0 0 0 18 79 138 13 2 1 6 50 138 110 36 14 23 4 2 0 1 1 0 20 52 38 0 0 0 0 6 22 21 54 10 0 6 37 55 0 0 6 15 16 59 41 5 
55.4596 166.823 1.38074 0.819552 90 2 0 0 0 0 0 17 66 15 9 24 11 8 6 9 0 0 3 46 72 47 9 0 0 0 0 1 28 31 0 0 99 0 0 0 0 0 0 48 150 40 21 41 14 0 0 28 9 8 13 134 150 1 0 0 0 0 0 7 71 7 0 0 103 1 0 0 0 0 0 19 150 27 2 11 28 1 0 29 30 7 2 61 150 5 0 3 0 0 0 8 100 2 0 0 58 0 0 0 0 0 0 17 150 7 0 2 10 15 9 104 16 2 0 14 150 89 10 20 0 0 0 5 75 7 0 0 
55.4596 166.823 1.38074 3.76558 30 7 0 0 0 0 0 0 144 121 5 2 2 1 0 2 34 54 18 55 144 18 0 1 0 0 0 14 121 4 0 0 64 19 0 0 0 0 0 0 144 60 0 0 14 8 1 13 50 8 0 3 144 97 2 7 0 0 0 1 128 25 0 0 75 21 0 0 0 0 0 2 144 14 0 0 9 15 13 85 15 1 0 4 144 72 15 25 0 0 0 14 105 4 0 0 23 67 11 0 0 0 0 0 60 39 23 2 2 3 4 31 5 2 1 3 97 36 6 10 0 0 0 8 68 7 0 0 
86.8862 176.683 1.33459 6.16368 2 2 2 0 1 9 6 4 57 32 5 0 0 1 2 8 50 99 111 45 2 0 0 0 0 3 42 129 28 0 0 0 14 26 18 0 0 1 2 3 141 34 27 4 0 0 0 6 142 73 29 51 29 0 0 14 14 7 13 142 142 0 0 0 47 9 3 0 0 0 0 22 101 29 8 5 1 1 1 13 142 17 0 9 19 16 36 113 16 2 0 55 142 92 36 21 38 5 0 0 0 0 0 12 76 26 0 0 0 0 0 12 40 12 4 4 7 18 50 58 0 0 0 0 29 108 48 8 
233.327 177.587 1.39219 1.40565 4 67 8 0 0 0 0 0 9 120 26 1 0 0 0 0 1 26 43 69 16 0 0 0 4 2 3 34 19 2 1 1 40 66 17 3 0 0 0 3 120 120 46 11 9 6 2 19 11 49 68 87 120 55 2 4 0 0 0 13 84 38 1 0 20 24 83 120 25 0 0 5 120 16 3 22 19 47 69 120 11 4 1 3 116 120 60 24 0 0 0 0 38 80 1 0 4 7 12 66 94 106 38 5 1 0 0 11 54 90 45 13 0 0 0 0 1 93 47 2 0 0 0 0 1 33 4 0 
233.327 177.587 1.39219 4.95532 10 34 0 0 0 0 0 0 52 96 22 4 0 0 0 4 87 31 15 13 2 1 44 122 11 6 2 5 57 96 114 57 69 55 0 0 0 0 0 0 122 122 65 41 9 2 0 11 12 25 53 122 106 11 20 18 0 0 0 16 47 47 47 8 98 17 0 0 0 0 0 10 122 17 3 6 11 30 41 122 15 3 3 36 122 122 41 27 0 0 0 6 80 58 0 0 27 5 7 5 0 0 1 10 25 0 0 0 0 7 48 83 0 0 0 0 32 63 40 20 0 0 0 0 51 44 0 0 
275.055 192.278 1.07387 0.924564 3 10 0 0 0 0 0 0 8 93 25 0 0 0 0 0 0 35 124 4 0 0 0 0 0 4 124 20 0 0 0 0 44 18 0 0 0 0 0 1 124 124 26 0 0 0 1 13 23 82 124 11 0 1 6 8 17 54 124 48 3 0 0 3 46 1 0 0 0 0 0 16 124 11 0 0 0 0 34 124 33 8 5 1 0 2 119 124 101 14 7 16 4 0 7 79 4 0 1 1 0 0 0 8 5 0 0 0 0 0 35 76 20 0 0 0 0 0 71 124 115 1 0 1 0 0 4 124 
244.502 198.876 1.28233 5.10253 3 34 17 1 0 0 0 0 9 87 25 0 0 0 0 0 18 120 76 0 0 0 0 0 1 38 120 36 2 0 0 0 2 99 101 12 0 0 0 0 32 53 70 46 3 0 0 1 120 83 12 2 0 0 2 21 32 34 40 18 30 55 7 9 29 120 46 34 3 1 0 0 5 8 74 114 20 34 3 0 68 11 24 10 4 55 91 53 10 0 0 0 12 120 120 27 12 52 7 5 6 71 38 0 0 0 5 14 30 120 30 0 0 0 0 1 2 120 101 2 0 0 0 0 0 35 99 3 
184.373 201.857 1.18931 2.45661 9 2 0 0 0 0 0 0 145 5 0 0 0 0 0 8 145 0 0 0 19 4 0 19 9 0 0 7 143 31 0 1 12 7 1 0 0 0 0 0 145 11 0 0 0 0 0 10 145 2 0 4 18 0 0 40 18 0 0 36 145 10 0 3 16 11 0 0 0 0 0 0 145 30 0 0 0 0 0 2 145 21 0 0 17 3 0 10 23 0 0 1 145 44 0 1 10 7 0 0 0 0 0 4 116 4 0 0 0 0 0 21 145 2 0 0 12 16 6 46 9 0 0 0 133 78 4 5 
176.606 204.221 1.32898 5.80363 4 4 0 0 0 0 0 0 85 28 0 0 0 0 0 0 122 106 26 31 7 0 0 0 2 11 17 120 69 0 0 0 9 4 0 0 0 0 0 4 143 17 0 0 0 0 0 4 143 42 3 18 22 0 0 16 20 5 2 90 143 0 0 1 13 0 0 0 0 0 0 3 143 14 0 0 0 0 0 9 143 9 0 5 11 0 0 55 36 0 0 85 143 0 0 13 12 1 0 0 0 0 0 0 106 3 0 0 0 0 0 17 143 0 0 0 0 0 0 93 66 0 0 55 95 0 0 26 
244.413 209.031 1.1859 5.8475 4 36 43 1 0 0 0 0 123 75 11 1 0 0 0 6 89 75 66 4 0 0 0 8 2 24 59 26 82 7 0 0 16 18 12 5 0 0 4 9 116 12 6 7 0 0 0 43 127 23 4 0 3 4 0 69 24 6 7 13 127 77 0 3 9 2 2 1 0 0 20 32 121 40 1 1 0 0 2 28 127 62 0 0 11 47 7 16 13 2 0 0 127 127 3 1 4 59 53 1 0 0 1 3 66 114 82 1 0 0 0 5 70 32 13 4 63 96 8 10 0 0 0 0 64 127 4 0 
214.375 222.095 1.35382 1.78883 7 4 0 0 0 0 1 4 120 10 0 0 0 0 0 22 85 36 37 114 20 0 0 7 0 0 4 123 43 0 0 0 13 12 0 0 0 0 0 0 135 19 0 0 0 0 0 20 135 23 11 69 30 0 0 47 9 1 2 135 135 0 0 1 26 15 0 0 0 0 0 1 106 79 0 0 0 0 0 2 135 49 0 11 10 0 0 15 28 0 0 135 134 2 0 3 36 12 0 0 0 0 0 0 130 44 0 0 0 0 0 0 135 34 0 0 2 1 0 6 16 2 1 46 47 5 0 3 
223.688 224.527 1.14785 1.63146 39 0 0 0 0 0 0 24 44 13 3 4 5 8 12 49 1 2 2 10 101 46 7 2 0 0 0 0 55 11 0 0 45 1 0 0 0 0 2 40 137 45 11 19 13 0 0 17 8 9 9 75 137 1 0 0 0 0 0 8 70 2 0 0 58 6 0 0 0 0 1 22 137 27 6 10 10 0 0 31 33 18 18 137 137 0 0 2 0 0 0 66 75 0 0 0 42 25 1 0 0 0 0 0 137 86 11 2 0 0 0 1 82 75 61 137 91 0 0 0 0 0 0 137 132 0 0 0 
223.688 224.527 1.14785 4.48418 70 1 0 0 0 0 0 14 138 0 0 0 1 15 23 138 35 0 0 0 138 138 45 58 0 0 0 0 91 88 2 0 70 11 0 0 0 0 0 3 138 22 0 0 10 12 7 51 32 1 0 0 138 126 12 18 0 0 0 2 70 55 2 0 68 43 0 0 0 0 0 0 138 34 0 0 8 24 11 24 12 0 0 3 138 96 9 8 0 0 0 24 53 7 0 0 47 88 2 0 0 0 0 0 29 51 21 21 15 10 4 5 0 0 0 17 76 29 2 1 0 0 0 11 26 4 0 0 
205.465 229.234 1.19388 4.58723 42 18 0 0 0 0 0 4 57 133 1 0 0 0 0 0 24 133 31 0 0 0 0 0 3 35 126 34 4 0 0 0 63 28 9 1 0 0 0 0 133 113 1 0 0 0 0 6 80 133 7 0 0 0 0 5 25 31 22 19 41 33 3 3 39 5 3 2 0 2 14 22 133 9 0 0 0 0 0 106 133 30 1 1 4 2 1 45 8 3 0 1 68 83 4 3 10 0 0 0 0 0 16 36 133 1 0 0 0 0 0 87 133 24 1 1 25 13 0 20 1 2 0 1 97 120 0 0 
215.909 228.98 1.15033 4.43987 1 0 0 0 0 0 7 18 93 0 0 0 0 0 2 41 151 35 0 0 0 0 0 15 38 23 2 1 31 43 0 0 4 0 0 0 0 0 1 3 151 2 0 0 0 0 0 13 151 19 0 0 7 9 0 6 40 3 0 0 97 149 0 2 5 1 0 0 0 0 0 0 151 6 0 0 0 0 0 11 151 10 0 0 15 31 13 63 15 0 0 0 150 151 8 7 3 0 0 0 0 0 0 0 86 3 0 0 0 0 0 15 119 2 0 0 8 32 20 77 0 0 0 0 62 103 11 6 
273.768 267.68 1.31077 5.19932 24 18 2 0 0 0 0 2 57 120 22 0 0 0 0 0 17 69 83 11 0 0 0 0 2 12 43 54 6 0 0 0 88 15 1 0 0 0 0 2 132 132 36 6 4 0 0 11 21 66 105 59 91 15 0 3 19 36 36 38 22 11 1 1 78 58 0 0 0 0 0 4 132 48 1 2 9 1 1 95 63 12 10 54 132 17 7 43 49 38 15 23 41 62 16 8 46 20 0 0 0 0 0 30 132 7 0 0 0 3 15 114 37 0 5 11 19 44 96 62 1 1 8 12 108 67 36 18 
288.885 279.192 1.17173 0.757871 12 5 3 0 0 4 50 82 41 17 17 14 0 0 10 127 10 12 50 86 2 0 4 16 0 1 20 105 37 1 0 0 59 5 2 2 8 1 15 56 127 119 17 3 1 1 4 63 27 58 51 43 18 14 10 13 0 2 5 117 81 1 2 2 54 13 27 8 5 1 4 10 127 17 2 1 1 9 92 127 15 4 3 8 12 70 127 70 1 0 0 22 61 16 83 70 2 0 3 1 0 10 35 6 4 0 0 0 0 2 95 47 2 0 0 0 0 11 127 43 27 0 0 2 5 2 40 127 
297.116 300.211 1.29754 2.66121 11 7 0 0 0 0 0 3 31 118 31 4 0 0 0 1 16 34 63 48 1 4 10 6 11 1 28 15 0 5 16 19 63 28 0 0 0 0 0 2 135 135 63 29 6 3 4 32 17 51 119 135 81 18 6 8 1 5 103 54 9 12 9 1 69 8 3 0 0 0 0 15 135 23 2 4 5 14 84 135 14 5 4 29 77 128 135 59 0 1 5 7 20 111 61 4 30 22 1 1 0 0 0 4 45 59 22 14 3 1 21 34 0 2 14 32 11 12 79 12 1 5 15 7 10 27 22 4 
283.764 312.398 1.19302 2.32097 7 7 16 26 20 27 21 7 5 13 36 48 31 4 3 2 0 4 90 49 6 0 0 0 4 3 30 28 1 0 1 18 35 10 10 27 9 33 35 11 113 113 78 32 3 5 7 26 9 21 113 113 44 19 3 6 1 0 31 71 61 24 0 1 23 13 68 103 4 0 1 6 113 24 37 31 12 12 67 113 8 3 4 31 75 113 113 41 0 0 6 8 70 101 2 0 6 6 37 22 3 6 103 89 1 1 26 42 66 100 84 21 0 0 0 0 19 51 113 27 14 15 16 3 15 11 24 28 
283.764 312.398 1.19302 4.39821 21 35 21 1 6 13 5 2 9 40 112 16 0 0 0 2 3 18 68 53 37 2 1 4 0 0 13 67 55 1 0 0 112 17 2 0 0 0 0 37 112 99 89 24 7 7 6 27 11 29 81 112 112 36 6 3 24 50 99 107 37 2 0 4 86 21 2 0 0 0 0 42 112 17 1 2 7 51 110 112 32 10 2 11 62 112 112 26 102 26 9 19 55 17 9 58 17 54 12 0 0 0 1 3 16 22 22 39 10 16 24 9 46 23 10 32 9 19 25 10 78 21 0 3 17 15 4 23 
270.04 315.532 1.17132 0.809454 9 17 0 0 0 0 0 0 51 141 22 4 0 0 0 0 11 66 47 58 43 2 4 1 0 0 0 8 25 3 23 23 71 31 0 0 0 0 0 2 141 141 23 22 11 2 1 19 24 48 31 140 141 12 2 5 8 10 4 26 80 1 1 2 92 2 0 0 0 0 0 15 141 13 0 2 7 16 29 141 22 4 2 40 141 87 40 50 3 14 10 36 69 2 1 2 47 21 0 0 0 0 0 3 115 27 2 0 0 0 4 67 30 3 4 22 40 19 22 61 1 0 1 22 64 19 11 3 
329.209 329.276 1.15597 0.0784313 0 0 82 56 3 9 20 0 1 2 122 41 0 2 7 4 4 18 123 32 0 0 0 1 0 2 70 93 5 0 0 0 0 0 2 5 2 19 123 15 34 3 14 3 0 3 78 77 123 57 53 28 11 0 3 27 6 8 25 123 94 0 0 0 1 0 0 0 0 6 52 19 123 6 0 0 0 0 24 67 123 35 1 7 12 12 20 43 11 3 1 58 121 59 22 3 4 0 0 0 0 0 6 9 82 0 0 0 0 0 9 60 56 1 0 0 0 27 123 100 6 0 0 0 10 89 115 14 
145.595 337.07 1.18661 1.60768 75 0 0 0 0 0 0 77 108 6 2 1 4 14 8 104 3 3 8 43 115 39 5 6 0 0 0 34 106 1 0 0 87 8 3 0 0 0 0 26 124 83 19 4 1 2 2 48 23 36 48 124 94 41 3 5 0 0 0 97 124 25 0 0 62 27 7 0 0 0 0 9 124 21 1 0 1 11 31 124 18 4 2 6 87 124 53 46 0 0 0 5 97 103 0 0 49 16 0 0 0 0 0 8 61 47 9 2 0 1 10 37 2 4 16 29 37 40 22 14 0 0 0 14 76 25 0 0 
104.387 370.022 1.13336 0.854151 50 9 1 0 0 0 0 8 125 26 8 18 18 0 0 22 5 3 10 86 81 0 0 0 0 1 25 40 7 0 0 0 58 7 3 16 4 0 0 4 125 92 23 25 4 3 5 27 18 24 57 125 43 27 12 5 0 5 85 56 16 12 5 0 32 4 7 59 13 0 0 7 125 12 2 4 2 15 84 125 16 23 11 22 22 114 125 31 0 21 60 13 14 36 43 0 0 0 27 125 23 0 0 1 20 3 0 31 12 1 24 28 125 110 20 0 0 4 25 14 36 97 125 38 0 0 1 2 
65.6241 151.661 1.50532 2.91036 24 7 0 0 0 0 0 1 130 122 1 0 0 0 0 0 55 93 33 26 40 30 0 0 1 3 12 28 37 60 6 0 61 20 0 0 0 0 0 3 130 130 4 3 8 3 1 22 40 49 7 12 130 98 2 5 0 0 0 0 59 130 4 0 60 1 0 0 0 0 0 18 130 10 0 0 5 17 20 130 19 2 0 3 130 130 27 41 0 0 0 6 90 47 0 0 31 0 0 0 0 0 0 6 108 0 0 0 0 4 9 77 8 0 0 2 62 41 17 27 0 0 0 9 70 5 0 0 
69.6138 154.871 1.56598 3.21477 3 2 0 0 1 1 1 1 73 20 1 0 0 0 0 6 102 134 63 8 2 0 0 0 8 32 81 44 26 7 0 0 3 0 0 0 0 2 5 3 150 4 0 0 0 0 0 12 150 64 7 10 23 3 0 4 18 10 7 29 150 52 0 0 2 3 0 0 0 0 0 1 138 5 0 0 0 0 0 30 150 39 4 13 28 9 11 138 13 6 2 35 150 34 11 19 1 0 0 0 0 0 0 3 24 0 0 0 0 0 0 35 86 0 0 0 3 7 19 150 7 0 0 10 85 38 29 56 
64.996 158.685 1.7237 3.39817 2 14 8 0 0 0 0 0 4 69 40 0 0 0 0 0 98 84 26 0 0 2 3 10 42 11 0 0 44 101 14 15 46 16 2 0 0 0 0 12 129 129 62 8 3 0 0 10 21 50 89 54 66 17 1 3 3 1 1 2 75 98 3 2 49 0 0 0 0 0 1 22 129 20 4 7 10 0 0 70 59 12 7 73 129 16 0 9 0 0 0 14 127 36 0 0 17 2 0 0 0 0 0 11 129 4 1 2 1 0 8 129 43 5 2 54 129 28 37 93 0 0 0 61 93 3 0 0 
203.256 160.453 1.58696 1.13601 6 6 0 0 0 0 0 0 69 90 1 0 0 0 0 4 61 122 66 13 2 0 0 11 31 25 22 30 30 24 45 28 19 9 0 0 0 0 0 0 122 39 2 0 0 0 0 63 122 52 16 13 19 11 1 122 7 1 6 30 122 88 4 7 7 82 22 0 0 0 0 0 65 122 51 0 0 0 0 9 122 77 3 0 36 53 16 33 6 1 0 0 122 122 3 1 1 122 86 14 24 11 0 0 10 36 31 8 22 22 18 20 22 7 0 0 7 86 58 35 0 0 0 0 53 96 7 0 
202.651 164.718 1.65265 1.26035 80 44 0 0 0 0 0 17 98 124 42 16 4 1 0 71 7 9 23 62 111 44 25 16 0 0 0 2 55 100 14 0 65 33 4 0 0 0 0 38 124 37 2 2 18 9 1 124 33 3 0 9 124 107 2 13 0 0 0 0 92 59 0 0 14 124 37 3 2 1 2 1 124 58 8 0 10 41 37 45 13 0 0 0 124 124 21 10 0 0 0 1 77 17 0 0 1 42 32 17 73 33 6 3 4 2 0 0 11 54 35 23 0 0 0 0 27 99 8 0 0 0 0 1 36 11 0 0 
202.651 164.718 1.65265 4.69683 30 13 0 0 0 0 0 9 52 71 16 4 0 0 0 0 34 25 34 14 8 19 6 9 19 2 0 0 32 132 20 13 82 7 0 0 0 0 0 18 132 100 22 21 13 0 0 11 13 21 25 78 132 53 0 0 0 0 0 13 50 84 0 0 86 5 0 0 0 0 0 15 132 10 1 11 14 0 0 42 47 3 22 132 132 7 3 12 0 0 9 127 84 8 0 0 54 25 0 0 0 0 0 1 132 41 8 2 0 0 6 72 22 6 15 45 48 74 51 47 0 0 1 26 127 70 2 0 
215.999 164.744 1.45822 1.67351 11 33 8 1 0 0 1 0 39 54 48 1 0 0 0 12 48 6 20 10 3 24 77 86 0 0 0 1 15 112 60 5 99 44 1 0 0 0 0 2 102 112 112 19 3 3 3 13 3 13 85 112 91 26 8 4 0 0 0 16 83 35 3 0 112 13 0 0 0 0 0 17 112 34 14 9 5 26 44 76 3 2 7 36 112 112 39 10 0 0 0 3 86 52 0 0 112 55 0 0 0 0 0 16 46 73 49 31 6 3 11 26 0 0 14 106 112 15 3 1 0 0 0 12 83 8 0 0 
215.999 164.744 1.45822 3.41259 0 2 40 92 10 0 0 0 0 21 98 17 0 0 0 0 0 15 105 28 0 0 0 0 0 62 93 0 0 0 0 0 17 14 8 69 91 54 13 3 85 110 98 25 5 3 3 15 11 47 110 110 34 12 3 4 40 110 57 9 7 5 0 8 31 1 0 0 8 48 55 45 109 17 3 3 3 18 89 110 10 5 5 24 40 106 110 27 31 7 1 2 10 29 103 83 8 0 0 0 0 0 11 36 2 0 0 0 0 8 89 46 0 0 0 0 0 41 110 3 0 0 0 0 0 25 99 14 
215.999 164.744 1.45822 5.37519 14 1 9 5 0 1 30 116 3 5 28 25 58 55 53 22 0 0 6 112 116 13 0 0 0 0 6 52 11 0 0 0 63 2 0 0 0 0 22 116 116 85 35 23 7 12 36 51 4 18 39 116 105 26 5 3 0 0 0 78 73 4 0 0 94 0 0 0 0 0 0 52 114 16 3 2 2 19 88 116 4 4 5 25 74 116 90 17 0 0 0 10 72 60 0 0 43 0 0 0 0 0 0 24 59 63 11 0 0 2 18 40 6 53 87 86 16 21 16 3 0 0 4 69 45 15 0 0 
56.9295 171.484 1.63604 3.89921 0 0 1 1 3 3 1 1 51 10 0 0 0 0 0 17 94 129 38 29 7 0 0 4 1 17 29 112 84 0 0 0 1 0 0 0 0 2 2 0 135 11 0 0 0 0 0 2 159 89 9 19 45 6 0 13 16 11 6 64 159 15 0 2 1 1 0 0 0 0 1 0 137 10 0 0 0 0 0 5 159 2 0 0 44 17 8 83 14 0 0 14 159 32 6 13 2 6 1 0 0 0 0 0 61 42 0 0 0 0 0 4 121 35 6 0 6 8 9 77 4 1 1 11 124 24 9 15 
230.991 173.918 1.51384 1.31702 0 22 8 1 0 0 0 0 6 87 11 0 0 0 0 0 7 114 42 3 0 0 0 0 0 20 39 56 21 0 0 0 4 114 60 5 0 0 0 0 36 70 80 44 1 0 0 1 114 112 28 12 12 17 14 36 6 17 25 39 114 85 9 4 93 114 51 18 5 7 14 21 12 23 62 114 104 56 15 7 40 2 1 14 31 73 98 64 1 0 0 0 25 114 57 6 45 9 0 2 3 26 95 64 1 0 0 3 37 114 94 4 0 0 0 0 14 104 27 0 0 0 0 0 0 34 21 0 
230.991 173.918 1.51384 3.66042 0 53 89 2 0 0 0 0 0 11 108 68 4 0 0 0 0 5 84 41 2 0 0 0 0 2 68 17 0 0 0 0 54 100 49 3 1 8 31 43 8 23 72 73 74 96 34 9 58 99 89 34 23 14 1 4 9 35 108 108 16 3 1 1 12 0 0 0 0 9 108 57 10 0 0 0 5 92 108 24 108 30 5 0 1 12 67 108 20 14 17 37 37 95 108 37 0 0 0 0 0 0 60 13 0 0 0 0 0 3 74 14 1 0 0 0 0 1 94 51 0 0 0 0 0 30 108 9 
94.1425 174.461 1.44331 2.68192 20 4 0 0 0 2 4 2 23 42 0 0 0 0 0 2 20 135 55 4 0 0 0 0 12 43 61 31 11 3 2 2 25 2 0 0 0 0 0 11 135 31 0 0 0 0 0 21 135 135 40 15 18 8 0 4 12 23 41 66 135 61 0 1 7 2 1 0 0 0 0 7 135 1 0 0 0 0 0 49 135 8 0 0 25 53 36 120 9 0 0 0 135 135 20 9 3 6 7 5 0 0 0 0 29 0 1 5 1 0 2 49 29 0 0 0 2 30 89 135 0 0 0 0 33 101 41 6 
91.0227 177.757 1.55974 2.88091 8 9 0 0 0 0 13 9 27 77 16 0 0 0 9 4 53 39 18 7 7 17 10 9 3 1 0 1 42 85 9 2 61 34 0 0 0 0 0 8 138 138 66 20 9 0 0 7 11 36 70 101 138 22 1 1 0 0 0 6 92 34 0 0 74 2 0 0 0 0 0 49 138 23 4 5 28 18 10 127 28 5 4 18 138 108 12 22 0 0 0 2 67 42 18 0 20 1 1 0 0 0 0 26 68 0 0 0 3 17 60 138 3 0 0 0 86 129 71 30 0 1 2 2 28 25 9 0 
91.0227 177.757 1.55974 6.05656 33 26 7 0 0 1 2 2 87 123 77 35 3 0 0 0 2 13 56 138 66 0 0 0 0 0 0 26 17 1 1 0 72 41 18 0 0 0 0 2 138 94 13 26 29 5 4 19 26 15 9 138 138 22 4 5 0 0 1 51 69 2 0 0 95 28 0 0 0 0 0 7 138 19 0 1 11 35 68 104 8 0 0 8 138 138 65 21 0 0 0 8 61 33 0 0 48 81 7 1 1 1 0 1 9 22 11 10 52 33 17 8 0 1 9 4 32 76 15 0 0 0 16 8 8 9 0 0 
170.579 190.913 1.58964 2.21798 55 2 0 0 0 0 1 13 148 5 0 0 1 6 17 76 51 0 0 0 47 148 90 68 0 0 0 0 46 148 2 0 91 3 0 0 0 0 0 3 148 26 1 4 20 5 2 10 23 6 0 12 148 82 5 5 0 0 0 2 52 43 0 0 87 11 0 0 0 0 0 1 148 10 0 0 19 10 3 24 16 0 0 24 148 26 3 8 0 0 0 32 60 1 0 0 58 40 0 0 0 0 0 0 114 39 0 0 11 12 1 4 5 0 0 4 124 33 0 1 0 0 0 15 60 1 0 0 
170.579 190.913 1.58964 5.38703 62 1 0 0 0 0 0 16 123 30 0 2 6 0 0 5 9 10 1 4 124 37 0 0 0 0 0 0 57 34 0 0 59 0 0 0 0 0 0 37 147 23 3 9 16 0 0 29 18 9 3 30 147 7 0 1 0 0 0 2 87 8 0 0 53 36 0 0 0 0 0 3 147 73 4 5 21 5 0 16 22 6 2 14 147 20 1 4 0 0 0 4 94 1 0 0 49 147 1 0 0 0 0 0 59 147 81 62 40 0 0 0 1 9 22 90 147 2 0 0 0 0 1 15 60 1 0 0 
252.082 212.914 1.72984 3.12501 14 3 1 2 1 4 14 17 94 18 1 2 2 8 12 25 135 89 89 13 2 6 3 31 2 11 78 53 53 45 3 2 0 0 0 1 0 1 14 7 121 6 0 0 0 2 10 43 135 17 2 7 17 40 17 118 3 1 3 19 77 135 11 7 1 2 0 4 5 0 0 0 124 40 0 0 0 0 0 8 135 82 5 35 39 2 0 11 5 5 5 104 120 9 0 0 1 0 0 4 9 1 0 1 96 2 0 0 0 0 0 35 135 6 0 15 12 5 5 87 8 0 0 88 84 26 8 8 
196.148 213.417 1.54374 2.49504 4 0 0 0 0 0 9 64 20 0 0 0 0 0 26 149 37 12 9 17 15 32 30 59 0 1 4 39 41 55 5 0 4 0 0 0 0 0 6 23 121 2 0 0 0 0 2 61 149 57 26 46 6 0 0 17 10 9 17 149 95 1 0 0 10 0 0 0 0 0 0 4 149 6 0 0 0 0 0 15 149 16 1 7 13 0 0 23 33 3 1 76 149 0 0 2 4 0 0 0 0 0 0 2 78 0 0 0 0 0 0 39 149 0 0 0 5 0 0 102 37 0 0 19 145 13 0 15 
243.975 214.273 1.70076 0.586358 59 11 0 0 0 0 23 117 11 7 9 55 14 1 71 126 0 0 1 126 126 4 10 24 0 0 1 67 42 0 0 0 44 11 0 0 0 2 17 48 19 2 0 0 1 7 62 126 82 27 22 108 44 5 19 96 3 6 34 126 26 0 0 0 12 0 0 0 0 3 22 57 93 12 0 0 0 9 21 30 126 41 8 10 1 14 34 70 9 6 10 104 79 108 46 8 13 17 0 0 0 0 1 12 69 51 0 0 0 0 0 16 51 26 3 2 20 39 33 46 0 0 0 0 20 126 45 3 
238.545 224.772 1.39995 4.66841 55 11 0 0 0 0 0 0 123 74 7 7 1 0 0 0 7 18 11 65 77 0 0 0 0 0 0 26 51 0 0 0 97 16 0 0 0 0 0 0 123 86 8 13 5 0 0 8 18 21 10 113 123 1 0 2 0 0 19 70 48 0 0 0 96 6 0 0 0 0 0 13 123 11 0 1 3 2 5 123 28 13 30 67 78 8 11 55 0 4 78 123 13 0 0 0 37 1 0 0 0 0 0 14 111 2 0 0 0 0 0 97 123 86 37 6 0 0 1 37 14 42 101 123 6 1 0 0 
216.707 225.583 1.52544 1.80446 49 2 0 0 0 0 1 30 43 8 8 64 33 0 0 9 0 0 2 75 41 0 0 0 0 0 0 5 2 0 0 0 81 6 0 0 0 0 0 15 145 49 33 70 6 0 0 16 10 10 23 145 78 0 0 0 0 0 0 43 21 0 0 0 66 21 0 0 0 0 0 3 145 31 4 18 3 0 0 31 71 9 5 145 141 0 0 4 0 0 9 145 57 0 0 0 59 35 0 0 0 0 0 0 145 62 0 0 0 0 0 2 81 5 0 89 81 0 0 3 0 0 3 145 75 0 0 0 
216.707 225.583 1.52544 4.32225 26 0 0 0 0 0 2 23 154 43 0 0 0 0 0 13 119 47 0 0 17 79 1 1 0 0 0 0 26 154 6 0 58 8 0 0 0 0 0 1 154 59 0 0 3 14 4 13 86 14 0 0 77 154 10 8 0 0 0 0 14 154 29 0 68 8 0 0 0 0 0 1 154 11 0 0 5 44 24 67 16 0 0 0 80 154 23 17 0 0 0 0 12 68 10 0 42 30 0 0 0 0 0 0 79 19 0 0 18 37 7 11 0 0 0 1 55 79 3 1 0 0 0 1 4 12 4 0 
256.108 230.29 1.58857 5.31149 28 0 0 0 0 0 3 43 133 31 0 1 0 0 8 108 49 12 1 5 16 86 133 133 6 7 14 26 27 133 114 8 69 4 0 0 0 0 0 4 133 83 4 7 6 1 2 20 33 29 7 49 133 21 10 7 27 10 8 15 40 40 34 22 47 12 1 0 0 0 0 9 133 11 0 0 2 3 21 133 21 2 0 10 117 38 42 67 0 0 3 10 100 46 20 3 4 27 18 2 1 0 0 1 71 12 3 0 0 0 3 42 43 1 0 0 33 15 12 41 0 0 7 16 56 14 3 0 
322.38 324.445 1.50325 1.75658 50 10 0 0 0 0 0 0 140 25 0 1 4 3 5 20 39 4 0 3 63 94 109 23 0 0 0 0 28 121 138 0 82 5 0 0 0 0 0 6 140 68 3 11 16 1 0 9 30 19 4 64 140 20 1 2 0 0 0 18 95 23 6 0 78 10 0 0 0 0 0 7 140 13 0 1 8 9 15 95 19 2 0 26 140 57 23 31 0 0 0 19 134 6 0 0 50 16 0 0 0 0 0 9 84 12 0 0 0 4 20 59 3 0 0 0 46 76 27 15 0 0 0 6 75 21 0 0 
328.592 329.962 1.39764 6.2316 5 12 68 33 1 3 45 15 1 0 85 88 3 5 23 5 3 9 121 67 0 0 0 2 0 2 67 88 2 0 0 0 0 0 0 0 0 2 121 30 46 3 6 5 1 3 98 97 121 70 63 36 11 0 3 29 4 10 33 121 102 0 0 0 3 0 0 0 0 0 39 16 121 6 0 0 0 0 13 70 121 36 1 5 14 21 65 86 6 3 1 26 121 76 45 4 3 0 0 0 0 0 2 8 40 0 0 0 0 0 12 63 18 0 0 0 0 10 121 92 4 0 0 0 15 42 91 36 
339.073 332.41 1.65131 3.18501 5 5 39 19 11 3 0 1 5 20 20 33 41 7 0 0 8 32 51 38 5 1 0 1 0 4 49 26 3 1 0 0 5 30 118 48 17 10 4 8 29 15 45 118 77 20 0 1 118 98 76 32 6 0 0 6 16 63 118 91 54 1 0 2 6 8 9 5 16 59 118 64 22 2 1 9 75 107 36 9 118 30 4 0 5 2 8 118 66 22 17 29 118 37 25 69 5 0 0 0 0 6 59 30 2 0 0 0 2 23 44 11 18 0 0 0 0 4 53 118 8 0 0 3 12 19 118 90 
94.1859 351.396 1.41619 3.51309 64 3 0 1 6 12 49 124 9 7 7 33 84 34 41 26 0 1 7 124 67 3 0 0 0 0 0 50 17 0 0 0 85 6 0 0 0 0 11 79 124 91 39 31 3 2 11 41 10 22 48 124 76 6 2 3 0 0 1 124 61 1 0 0 90 66 0 0 0 0 0 4 124 63 5 3 3 8 24 93 12 4 3 42 124 99 42 31 0 0 4 48 122 21 0 0 74 76 1 0 0 0 2 7 34 49 5 0 1 13 46 19 0 0 0 8 39 56 35 3 0 0 0 28 51 43 3 0 
102.036 378.497 1.45805 0.398173 14 4 0 30 59 0 0 9 42 29 9 2 4 5 35 65 1 5 19 32 26 19 34 7 0 0 1 23 50 11 0 0 20 14 0 15 122 3 0 1 118 122 52 9 2 0 2 9 11 37 103 122 28 2 3 2 0 0 5 93 68 4 0 0 31 3 0 2 88 27 1 11 122 33 5 4 1 0 0 122 60 10 13 122 51 1 1 61 0 5 12 122 94 0 0 0 6 0 0 10 71 9 1 8 102 0 0 1 2 1 1 122 64 2 1 12 26 8 12 122 1 2 21 65 78 8 4 5 
189.373 157.315 1.84816 1.86968 24 4 0 0 0 0 0 6 125 85 5 3 0 0 0 8 36 27 7 16 25 35 23 19 0 0 0 9 75 33 5 0 63 12 0 0 0 0 0 1 125 125 16 19 10 2 1 18 26 32 22 120 121 14 3 5 0 0 10 70 33 3 0 0 49 1 0 0 0 0 0 21 125 8 0 2 5 9 59 125 30 17 6 20 75 67 96 71 10 46 73 58 16 2 0 1 2 0 0 0 0 0 0 9 5 0 0 0 0 0 31 87 125 22 1 0 0 2 41 107 125 99 63 78 20 0 0 12 
50.6387 164.648 1.88789 0.73074 5 0 0 0 0 0 0 11 115 1 0 0 0 0 0 27 145 21 5 12 12 11 11 30 1 1 2 19 81 91 13 4 3 0 0 0 0 0 0 3 150 2 0 0 0 0 0 24 150 58 12 32 47 0 0 8 6 7 6 59 150 6 0 0 2 0 0 0 0 0 0 1 150 2 0 0 0 0 0 19 150 19 1 3 64 28 12 71 9 2 0 5 150 63 5 5 0 0 0 0 0 0 0 0 49 1 0 0 0 0 0 32 83 0 0 0 9 38 44 139 0 0 1 7 82 80 19 7 
171.206 168.407 1.96595 4.7262 0 0 2 8 12 17 2 1 55 28 1 1 0 1 1 4 86 108 38 37 5 0 0 0 0 7 19 108 76 0 0 0 0 0 0 0 1 24 8 3 135 6 0 0 0 0 1 31 158 63 15 25 36 0 0 10 13 8 10 73 158 1 0 0 0 3 3 0 0 1 3 1 153 15 1 0 0 0 0 7 158 14 2 3 44 19 8 48 17 1 1 9 158 55 5 7 1 17 11 0 0 0 0 0 69 36 7 0 0 0 0 7 124 5 0 0 9 30 37 88 2 0 2 10 112 78 21 10 
51.9373 170.28 1.97408 0.634107 49 1 0 0 0 0 0 9 155 54 6 9 6 0 0 5 24 22 10 50 155 39 6 1 0 0 0 1 57 53 0 0 71 7 0 0 0 0 0 2 155 76 3 4 29 8 1 15 47 21 5 20 155 67 1 4 0 0 0 1 89 19 0 0 56 1 0 0 0 0 0 15 155 6 0 0 13 45 40 145 15 1 0 1 155 155 32 25 0 1 0 2 46 13 0 0 18 4 0 0 0 0 0 5 53 21 4 0 1 9 18 54 3 11 20 43 37 33 14 7 0 0 0 24 22 0 0 0 
51.9373 170.28 1.97408 4.01725 18 0 0 0 0 2 19 73 18 25 21 20 22 25 23 19 0 3 16 74 42 2 0 0 0 0 0 5 6 1 0 0 56 3 0 0 1 0 0 17 152 120 42 42 13 0 0 11 16 25 37 152 152 0 0 0 0 0 0 24 40 0 0 0 62 0 0 0 0 0 1 8 152 14 2 7 29 4 2 89 47 4 2 74 152 12 4 24 0 0 0 32 89 0 0 0 31 8 0 0 0 0 0 2 152 21 0 0 3 3 6 93 26 5 2 29 152 24 13 42 0 0 0 43 86 0 0 0 
226.521 170.246 1.8162 1.98343 27 22 1 0 0 0 0 0 119 61 8 0 0 0 0 14 75 25 16 15 29 40 31 67 0 0 1 16 119 79 9 1 74 31 0 0 0 0 0 1 119 119 57 13 4 3 2 18 12 32 66 90 119 55 17 15 0 0 0 4 114 78 4 0 79 18 1 0 0 0 0 12 119 26 4 3 5 27 53 119 8 4 4 16 119 119 55 25 0 0 0 1 97 43 0 0 41 43 1 0 0 0 0 4 41 86 45 17 4 5 12 24 0 3 21 61 81 35 12 3 0 0 0 4 60 5 0 0 
226.521 170.246 1.8162 5.50941 53 1 0 0 0 0 12 93 16 15 15 16 27 58 50 43 0 1 10 49 72 37 0 0 0 0 0 6 18 12 0 0 98 11 0 0 0 0 0 35 119 119 61 40 8 4 7 24 5 17 49 119 119 14 4 2 0 0 0 35 61 2 0 0 113 3 0 0 0 0 0 34 119 28 8 7 7 22 54 119 5 3 6 43 119 119 50 16 0 0 0 15 104 10 0 0 88 8 0 0 0 0 0 9 119 65 28 19 3 4 8 39 4 8 24 106 88 22 8 5 0 0 0 26 83 1 0 0 
44.2017 184.856 2.18323 4.39123 1 3 0 0 0 0 0 0 3 45 38 2 0 0 0 0 0 8 66 37 1 0 0 0 0 0 3 15 3 0 0 0 33 14 0 0 0 0 0 1 122 122 74 21 5 2 3 24 12 39 103 122 112 13 4 6 0 0 1 66 47 0 0 0 29 1 0 0 0 0 0 13 122 20 3 3 5 11 69 122 21 13 9 40 113 90 110 68 9 23 70 115 47 5 0 1 2 3 0 1 0 0 0 2 3 4 3 1 1 0 22 53 91 15 3 0 0 4 39 98 122 69 82 122 16 0 0 63 
88.2131 188.792 1.8503 0.0848923 71 6 0 0 0 0 0 34 121 9 0 0 0 2 16 114 36 2 0 12 105 121 79 76 0 1 11 14 112 56 0 0 110 3 0 0 0 0 0 21 121 69 4 5 6 3 4 35 23 25 9 34 121 47 11 10 9 38 59 18 40 12 1 3 67 0 0 0 0 0 0 40 117 7 0 0 2 11 71 121 8 3 0 3 54 96 121 36 14 12 4 2 8 15 90 32 3 0 0 0 0 0 1 20 1 0 0 0 0 1 58 63 0 0 0 0 0 8 121 20 0 0 0 0 0 7 97 6 
250.099 189.711 1.88834 2.59629 0 2 3 0 0 0 0 0 6 32 5 0 0 0 0 0 89 142 8 0 0 0 0 0 137 80 9 7 11 23 31 23 1 8 21 8 0 0 0 0 105 50 5 4 0 0 0 1 142 142 23 10 2 2 3 27 25 62 33 85 119 49 13 8 13 11 21 24 1 0 0 6 90 8 12 27 3 0 0 21 142 10 0 1 1 16 84 142 13 2 0 7 68 142 124 40 7 0 0 2 1 1 9 40 10 4 3 7 7 3 4 15 14 9 9 1 0 4 45 70 0 0 5 8 9 57 59 7 
99.4446 190.07 1.83059 1.64031 5 9 7 8 4 2 4 9 24 44 21 6 3 0 0 1 2 6 26 74 34 0 0 0 0 0 0 42 38 0 0 0 46 39 7 0 0 0 3 10 91 118 50 14 4 1 1 10 5 22 59 118 118 5 1 2 0 0 0 33 118 0 0 0 31 21 118 70 0 0 0 2 118 32 43 12 5 10 19 71 6 4 8 23 118 57 22 18 0 0 0 12 118 9 0 0 0 9 118 118 72 51 20 2 9 33 118 49 8 6 12 18 0 2 46 95 118 27 5 2 0 0 0 5 118 17 0 0 
99.4446 190.07 1.83059 4.71021 106 24 0 0 0 0 0 1 118 35 4 1 0 0 28 80 11 8 13 21 9 22 118 60 82 55 31 6 2 6 84 118 118 15 0 0 0 0 0 6 118 72 20 17 6 4 6 18 6 12 18 64 118 31 48 14 3 0 0 1 29 16 118 113 118 0 0 0 0 0 0 26 118 7 1 2 5 23 61 115 4 1 1 9 92 118 53 13 0 0 2 8 45 42 14 1 43 0 0 0 0 0 0 42 36 0 0 0 4 8 26 66 2 0 0 0 21 47 21 5 4 2 5 14 7 8 5 7 
178.949 200.602 2.16866 2.32707 25 10 0 0 0 0 0 0 150 33 0 0 6 3 0 6 94 4 0 0 150 73 0 4 0 0 0 0 120 41 0 0 50 24 0 0 0 0 0 1 150 64 0 0 16 14 2 11 69 7 0 0 150 139 2 4 0 0 0 0 92 50 0 0 55 3 0 0 0 0 0 20 150 6 0 0 10 51 29 97 13 0 0 0 120 150 21 16 0 0 0 0 29 31 0 0 34 0 0 0 0 0 0 8 80 0 0 1 21 16 7 28 1 0 0 5 70 49 4 2 0 0 0 0 4 6 0 0 
178.949 200.602 2.16866 5.89476 25 0 0 0 0 0 0 39 45 13 8 42 15 0 0 27 0 2 6 88 25 0 0 0 0 0 1 11 2 0 0 0 56 7 0 0 0 0 0 3 138 82 27 45 7 0 0 6 15 17 23 138 113 0 0 0 0 0 0 25 41 0 0 0 59 1 0 0 0 0 0 8 138 11 2 14 11 0 0 64 63 4 2 138 138 0 0 20 0 0 0 44 97 1 0 0 31 0 0 2 0 0 0 6 138 0 0 0 0 0 0 86 113 1 1 120 112 0 0 44 0 0 0 121 105 0 0 0 
192.004 222.206 2.09297 5.20966 2 7 2 0 0 0 0 0 58 38 0 0 0 0 0 0 128 128 0 0 6 3 0 0 33 42 0 1 128 71 0 0 2 22 11 0 0 0 0 0 99 46 11 0 0 0 0 3 128 49 0 0 18 41 9 47 18 5 0 0 128 128 5 7 31 36 11 0 0 0 0 12 44 101 61 0 0 0 0 6 86 72 40 22 29 36 12 41 1 0 1 37 128 85 6 5 48 2 0 0 0 0 0 32 128 59 9 0 0 0 0 27 46 72 49 68 40 0 0 5 0 0 2 107 118 0 0 0 
332.358 331.584 1.9719 4.847 2 12 2 0 0 0 0 0 52 56 22 0 0 0 0 3 123 45 14 3 24 10 2 17 8 1 0 6 123 33 1 2 52 34 3 0 0 0 0 1 123 123 107 1 0 1 4 19 27 94 123 44 81 44 10 6 1 1 3 14 123 44 0 0 69 22 4 1 0 0 0 11 123 33 8 0 0 9 80 122 8 7 15 12 48 123 123 28 0 0 0 8 107 88 2 0 20 18 18 2 0 0 0 14 43 72 30 5 0 1 26 32 2 14 44 65 34 23 29 2 0 0 0 22 42 13 0 0 
332.358 331.584 1.9719 6.05688 7 7 43 42 2 1 58 53 10 10 90 121 2 0 14 16 0 3 85 121 6 0 0 0 0 1 34 27 2 0 0 0 41 0 0 0 0 0 79 88 121 66 31 24 8 5 22 78 22 26 41 121 121 32 8 6 1 19 47 56 43 3 0 0 51 0 0 0 0 0 4 41 121 9 0 0 3 12 121 121 13 4 0 4 89 121 121 54 56 61 24 4 25 20 9 40 4 0 0 0 0 0 2 13 6 3 0 0 0 0 31 52 8 2 0 0 0 18 64 46 37 3 0 0 0 6 26 74 
345.826 332.328 1.87875 1.80402 75 9 2 0 0 0 0 10 123 76 13 9 2 0 0 2 6 19 16 59 98 0 0 0 0 0 13 45 59 0 0 0 101 19 2 0 0 1 2 6 123 91 8 15 9 2 3 24 16 21 10 85 123 22 4 6 0 0 5 25 71 25 6 0 72 26 0 0 0 0 0 24 123 13 2 1 3 10 61 123 6 3 13 21 110 123 83 31 0 0 3 25 50 65 25 0 48 12 0 0 0 0 0 27 54 123 48 0 0 0 11 23 1 50 123 80 37 14 15 3 0 0 10 58 92 14 1 0 
58.9424 152.682 2.4831 0.173334 27 0 0 0 0 0 0 18 83 9 7 8 0 0 0 39 22 14 37 130 10 0 0 4 0 0 3 80 17 0 1 2 15 0 0 0 0 0 0 12 131 6 0 0 0 0 0 66 131 43 41 98 39 1 0 29 4 2 10 131 131 1 0 0 16 6 0 0 0 0 0 0 131 95 0 0 0 0 0 6 131 46 1 5 52 36 27 38 6 0 0 24 131 63 12 5 27 44 0 0 0 0 0 0 76 131 8 4 17 9 0 0 18 33 6 5 59 122 46 10 0 0 0 0 31 104 35 1 
173.377 163.032 2.59125 1.63375 52 5 0 0 0 0 8 72 45 32 21 20 22 12 22 48 1 9 23 79 55 6 0 0 0 0 0 12 21 21 2 0 61 1 0 0 0 0 0 22 167 101 23 29 25 0 1 21 28 30 24 107 167 11 0 1 0 0 0 3 56 26 6 0 66 0 0 0 0 0 0 6 167 9 0 3 36 11 11 105 44 3 0 31 167 45 14 28 1 12 5 19 69 2 0 0 21 6 0 0 0 0 0 5 101 1 0 0 3 12 27 139 7 0 0 2 97 113 44 44 5 6 1 3 28 14 5 6 
173.377 163.032 2.59125 4.69692 21 9 4 7 7 11 2 3 98 122 37 30 5 0 0 1 4 21 32 132 108 1 0 0 0 0 0 6 29 7 0 0 64 3 0 0 0 11 6 12 168 66 11 20 40 4 1 12 40 18 11 75 168 18 1 2 0 0 0 3 76 2 0 0 57 34 9 0 0 0 0 1 168 20 0 0 28 38 27 85 24 0 0 13 168 128 22 22 0 0 0 11 58 4 0 0 23 17 2 0 0 0 0 16 57 6 0 0 2 12 24 74 17 12 22 62 57 35 18 12 0 0 3 56 46 4 0 0 
245.081 193.014 2.66007 2.78807 8 6 0 0 1 5 3 1 130 76 0 0 0 1 1 8 106 37 2 14 128 67 10 15 0 0 0 4 98 80 0 0 38 27 5 0 0 0 0 1 130 130 12 10 8 5 6 32 39 34 14 41 130 108 12 13 0 0 0 0 99 84 0 0 33 11 22 7 0 0 1 10 130 13 3 3 4 22 66 130 10 3 1 10 114 130 82 35 0 0 0 3 61 45 0 0 5 1 1 2 0 0 10 29 23 24 5 1 0 2 16 34 8 24 49 48 13 21 17 6 0 0 6 57 23 2 0 0 
252.139 200.096 2.46382 3.00656 0 4 2 5 3 0 0 0 92 23 0 2 2 0 0 4 138 72 2 17 26 10 2 14 6 4 0 38 107 49 2 2 1 1 0 1 8 7 5 2 138 9 0 0 3 3 0 18 138 28 1 15 35 16 7 77 5 2 0 32 138 57 4 7 0 3 0 0 1 3 2 0 134 39 0 0 0 0 0 8 138 95 14 26 23 13 7 47 3 5 6 54 138 41 4 4 5 10 4 0 0 0 0 0 68 12 12 0 0 0 0 31 109 11 2 5 11 29 59 138 1 0 1 10 103 103 35 9 
275.782 201.66 2.25444 0.0361235 24 13 0 0 1 1 0 0 108 118 54 13 0 0 0 0 9 27 78 138 47 0 0 0 0 0 1 33 40 5 0 0 57 16 9 3 0 0 0 1 138 95 8 6 9 4 2 23 45 32 15 74 138 44 3 7 0 0 0 23 138 11 0 0 32 4 4 4 6 8 2 19 138 7 0 0 4 12 43 138 14 1 0 16 138 92 76 66 0 0 0 57 96 8 1 0 1 0 0 0 1 9 5 8 2 0 0 0 0 1 23 91 0 0 0 1 9 18 85 72 0 0 0 5 36 35 19 1 
247.147 205.552 2.62935 2.9865 15 2 0 1 0 0 4 15 143 47 7 1 2 5 4 31 52 22 32 25 69 112 8 13 0 0 4 6 33 82 26 0 40 8 0 3 5 1 0 2 143 85 2 13 14 3 1 18 41 20 2 68 143 46 2 7 0 0 0 12 91 41 1 0 45 9 0 0 2 4 1 3 143 45 3 6 9 10 6 59 32 8 3 34 143 80 9 20 0 0 0 1 92 53 0 0 40 13 2 0 0 0 0 4 143 57 6 10 7 7 13 70 15 11 6 45 143 66 17 15 0 0 0 2 83 19 0 0 
247.649 218.903 2.48336 3.0606 11 4 10 6 0 0 1 20 3 12 45 51 2 0 0 3 0 28 120 12 0 0 0 0 0 9 107 23 0 0 0 0 45 5 0 0 0 0 7 34 136 126 104 11 2 2 2 21 9 55 136 51 47 44 3 2 0 10 60 26 16 72 30 0 60 7 0 1 0 0 8 24 136 49 6 7 14 21 6 63 25 10 8 34 136 136 7 14 0 0 0 9 61 78 19 0 65 8 0 2 3 0 0 6 136 49 2 19 19 3 1 30 17 8 1 77 136 22 1 5 0 0 0 10 79 31 0 0 
102.552 380.928 2.57624 0.113356 89 12 0 4 74 15 0 3 25 44 11 8 95 13 0 1 12 27 17 25 81 4 0 1 0 0 0 8 52 1 0 0 55 33 0 0 73 72 1 2 107 112 34 23 50 26 1 9 15 28 33 117 117 4 0 1 0 0 3 43 58 3 0 0 21 12 2 2 101 78 0 3 117 54 2 8 24 13 2 46 42 11 6 117 117 3 2 13 0 1 29 117 49 0 0 0 24 7 0 0 46 75 4 15 117 70 0 1 3 8 59 73 12 12 1 38 39 67 90 11 22 27 65 34 23 15 11 24 
102.552 380.928 2.57624 2.89264 46 0 0 0 2 4 66 75 115 30 41 7 8 6 14 39 18 14 103 75 30 61 8 4 0 7 14 73 65 38 1 0 76 8 0 0 0 0 0 46 120 32 1 1 17 10 3 54 36 15 3 4 120 120 10 6 13 100 6 2 37 66 1 0 76 48 0 0 0 0 0 2 120 31 0 0 13 45 51 58 20 68 6 1 88 120 44 13 16 120 6 1 11 35 10 1 59 20 0 0 0 2 15 15 32 24 0 1 13 49 44 10 72 106 2 0 13 31 10 1 5 28 3 0 42 120 6 0 
190.227 213.918 3.16489 2.40336 54 0 0 0 0 0 0 112 53 2 3 17 27 25 26 153 1 0 0 49 134 65 8 4 0 0 0 20 36 16 0 0 46 0 0 0 0 0 0 39 153 39 7 23 22 4 4 59 23 13 7 86 153 26 1 2 0 0 0 3 51 24 0 0 55 2 0 0 0 0 0 4 153 9 0 3 32 7 0 32 46 2 0 19 153 40 0 8 0 0 0 2 69 10 0 0 41 7 0 0 0 0 0 1 153 9 0 0 22 19 4 26 25 0 0 0 153 87 3 7 1 0 0 0 31 12 0 2 
190.227 213.918 3.16489 5.44759 17 11 0 2 2 0 0 0 150 113 2 2 11 0 0 0 34 39 7 20 150 27 0 0 0 0 0 2 59 15 0 0 57 16 0 0 0 0 0 1 150 73 0 3 37 4 0 9 38 15 0 5 150 32 0 2 0 0 0 0 65 9 0 0 49 37 0 0 0 0 0 1 150 39 2 3 25 19 6 60 20 3 2 39 150 65 6 17 0 0 0 19 48 2 0 0 48 20 0 0 0 0 0 25 128 81 13 14 4 1 1 40 13 17 18 150 92 3 1 9 0 0 0 67 52 0 0 0 
235.349 200.284 4.10264 0.010844 0 0 0 0 0 0 21 57 14 3 0 10 4 5 47 136 22 31 43 71 27 9 18 15 0 0 19 60 33 4 0 0 0 1 0 0 0 0 1 4 127 11 0 0 0 0 4 32 141 61 34 50 64 1 1 27 5 3 11 80 141 4 0 1 0 6 25 9 0 0 0 0 119 41 5 0 0 0 0 2 141 19 1 14 65 2 0 36 16 1 1 50 141 2 0 6 0 2 97 94 11 15 3 0 38 70 40 10 2 4 9 8 140 60 0 3 27 19 51 28 10 2 0 28 141 40 24 4 
206.132 225.445 4.41792 1.90245 12 0 0 0 1 18 68 33 28 17 19 61 43 6 11 22 0 0 8 80 14 0 0 0 0 0 1 3 0 0 0 0 67 2 0 0 0 0 4 15 136 69 43 85 11 1 0 16 15 9 26 136 113 5 0 2 0 0 3 29 24 0 0 0 71 23 0 0 0 0 0 4 136 78 4 10 26 36 13 53 20 3 2 45 136 136 14 15 0 0 0 12 66 9 0 0 72 109 0 0 0 1 0 0 88 136 4 6 82 106 3 1 0 1 0 1 84 136 5 0 0 0 0 0 14 16 3 0 
206.132 225.445 4.41792 4.56397 8 9 0 0 0 0 0 0 16 73 35 0 0 0 0 0 9 132 71 0 0 10 7 2 2 110 76 3 3 113 27 1 39 13 0 0 0 0 0 6 132 132 36 5 8 7 0 15 25 110 57 16 104 132 30 6 2 8 1 0 14 132 57 1 36 1 0 0 0 0 0 19 132 16 0 1 13 53 20 132 19 4 1 2 132 132 16 25 0 0 0 0 28 42 1 0 16 3 0 0 0 0 0 2 78 25 3 7 10 17 10 40 3 1 7 26 54 51 7 7 0 0 7 11 6 2 0 0 
276.493 265.818 4.55617 2.35248 35 33 1 0 0 0 4 24 81 83 39 8 12 23 14 44 2 15 23 27 106 110 14 3 0 0 0 1 11 36 36 0 59 3 0 0 0 0 8 32 140 117 59 43 17 14 11 56 13 26 55 140 140 42 6 5 0 0 0 16 45 2 0 0 62 5 0 0 0 0 0 9 140 27 4 6 15 48 61 140 14 6 4 31 140 140 57 30 0 0 5 10 45 12 0 0 14 42 23 1 0 0 0 1 63 34 12 6 16 27 18 33 1 1 1 12 50 74 19 4 0 0 2 4 11 11 1 0 
276.493 265.818 4.55617 5.42696 10 10 0 0 0 0 1 4 44 73 19 3 0 0 1 9 22 33 22 28 52 34 10 6 0 0 0 1 16 46 35 3 44 11 0 0 0 0 4 9 138 138 58 27 13 6 4 28 15 52 64 138 138 34 3 6 0 0 0 7 65 9 0 0 49 4 0 0 0 0 0 13 138 50 8 6 13 29 53 138 15 12 10 46 138 133 55 39 0 0 5 24 55 5 0 0 13 44 48 0 0 0 0 1 91 116 17 5 5 21 31 25 6 16 13 43 91 80 36 6 0 0 4 23 30 26 1 0 
231.636 193.02 5.42432 0.0140951 1 4 27 8 0 1 103 36 2 1 40 85 2 1 37 85 0 0 16 132 13 1 6 8 0 0 9 35 3 0 0 0 0 0 0 1 0 2 39 20 28 1 0 4 1 1 41 132 95 41 39 91 32 3 19 50 3 6 19 93 85 1 0 0 0 0 27 50 1 0 0 0 81 21 13 3 0 0 0 9 132 33 7 30 68 0 0 15 24 5 3 63 132 0 0 3 4 3 132 132 8 13 11 10 27 38 72 61 11 17 8 4 132 46 3 2 36 15 45 27 12 0 0 25 132 31 21 5 
213.989 197.049 12.1192 2.08162 47 27 4 0 0 0 0 3 41 98 105 17 3 3 4 2 2 12 62 111 49 12 4 1 0 0 0 29 16 12 0 2 111 38 0 0 0 0 0 3 111 65 12 7 25 61 78 27 94 22 37 111 64 33 47 25 1 1 9 111 97 7 0 0 111 7 0 0 1 0 0 43 101 14 9 44 58 21 8 40 111 21 8 21 57 98 34 38 2 0 0 16 111 105 6 1 30 1 0 1 0 0 0 42 51 4 5 16 10 19 21 103 6 2 4 8 27 111 29 10 0 0 4 2 8 52 5 2 
