325.729 14.8492 0.955106 2.01217 67 0 0 0 3 4 18 119 27 11 13 5 43 85 62 76 0 2 17 81 75 23 0 0 0 0 0 38 36 1 0 0 92 7 0 0 6 7 5 40 119 112 48 19 7 6 10 43 8 23 55 119 119 24 3 4 0 0 0 43 106 12 0 0 81 3 0 0 2 1 0 30 119 14 2 2 4 20 101 119 6 3 2 13 103 119 116 26 0 0 0 1 58 89 3 0 10 2 0 0 0 1 3 14 4 0 0 0 0 8 77 44 0 0 0 0 0 62 79 3 0 0 0 0 2 34 7 0 
3.93398 95.1722 0.949285 3.01294 7 3 1 2 2 32 62 25 12 17 21 21 20 12 18 37 0 0 17 60 57 7 0 0 0 0 3 11 4 0 0 0 103 27 0 1 0 8 29 16 126 126 122 40 8 6 6 23 4 15 101 126 126 25 4 2 0 0 0 19 55 6 0 0 120 12 0 1 0 0 4 36 126 26 7 6 8 45 126 126 5 3 6 30 126 126 103 14 0 0 0 1 57 26 1 0 19 24 11 1 0 0 1 16 7 1 3 6 3 26 76 45 0 0 0 0 3 85 54 0 0 0 0 0 1 12 2 0 
3.93398 95.1722 0.949285 5.03423 0 3 3 0 0 0 0 0 0 36 46 2 0 0 0 0 0 8 59 48 0 0 0 0 0 4 13 18 0 0 0 0 40 49 9 0 0 0 0 1 119 132 132 21 3 3 3 20 8 40 132 132 82 27 4 5 3 6 14 91 46 7 0 0 42 75 29 3 5 2 1 5 132 39 12 6 8 37 116 132 9 6 8 40 93 132 132 32 2 0 0 12 56 91 19 8 30 18 7 12 24 10 1 8 0 0 4 46 37 40 60 15 2 1 2 13 9 73 76 3 2 1 1 8 7 21 14 4 
3.93398 95.1722 0.949285 6.20765 1 14 2 0 0 0 0 0 3 90 51 1 0 0 0 0 2 25 73 49 8 2 3 5 0 0 2 18 20 25 8 1 56 27 1 0 0 0 0 3 127 127 100 16 4 3 7 31 7 46 122 127 127 24 8 6 0 1 4 37 120 9 1 2 56 4 0 0 0 0 0 19 127 24 4 2 4 15 105 127 9 6 7 25 127 127 125 39 0 12 33 19 102 23 0 0 3 0 0 0 0 0 3 9 50 4 0 0 0 0 19 63 25 11 18 31 10 14 22 26 2 37 54 23 6 3 2 3 
172.751 153.178 0.906085 1.70595 32 1 1 0 0 0 1 105 27 20 21 48 0 0 1 33 0 14 30 80 8 5 1 0 0 17 8 1 5 60 8 0 123 9 0 0 0 0 0 50 123 123 49 35 4 2 3 28 5 19 49 123 78 14 4 3 0 0 24 121 33 36 2 0 123 1 0 0 0 0 0 36 123 15 2 4 3 8 92 123 5 3 12 64 48 43 123 62 0 0 35 123 47 17 11 16 71 0 0 0 0 0 1 30 45 0 2 0 0 0 45 66 4 1 3 0 0 1 73 95 3 0 0 1 33 37 24 40 
172.751 153.178 0.906085 4.1701 121 28 2 0 0 0 0 39 51 42 29 42 39 0 0 24 0 0 4 92 80 3 0 3 1 0 0 14 20 23 6 14 113 31 38 0 0 0 0 36 127 67 31 43 12 4 3 48 6 13 31 127 127 36 3 2 0 0 0 27 100 68 0 0 60 15 27 1 0 1 17 19 127 20 3 3 5 47 71 96 6 2 2 18 111 127 57 13 0 0 0 1 69 122 0 0 64 4 0 0 0 0 8 35 35 0 0 3 42 32 21 23 0 0 0 3 104 103 12 0 0 0 0 1 22 31 0 0 
12.0878 215.974 0.947379 1.60147 13 16 9 2 1 1 1 2 1 22 52 18 22 5 1 1 0 3 63 72 7 0 0 0 0 0 2 22 3 0 0 0 33 31 10 6 3 2 7 9 122 130 130 25 6 5 6 24 6 32 130 130 130 34 5 4 0 0 1 65 78 5 0 0 39 2 0 0 0 1 15 57 130 29 6 3 5 35 130 130 6 5 6 24 130 130 124 22 0 0 0 6 84 49 0 0 3 1 1 0 0 0 2 16 3 0 0 0 1 10 61 40 0 0 0 0 5 57 54 1 0 0 0 5 14 12 1 0 
12.0878 215.974 0.947379 2.90765 1 21 6 2 0 0 0 0 1 62 82 5 0 0 0 0 0 6 82 56 0 0 0 0 0 2 14 17 0 0 0 0 48 66 23 4 0 0 0 2 129 129 129 33 6 3 6 31 6 27 129 129 129 23 6 5 0 0 6 58 55 2 0 0 47 11 9 7 2 1 4 22 129 28 6 5 6 22 124 129 6 4 5 32 129 129 129 32 0 0 1 10 70 32 1 0 22 5 2 0 0 1 4 18 4 2 2 2 9 25 41 23 0 0 0 0 2 57 53 2 0 0 0 0 1 10 5 3 
12.0878 215.974 0.947379 5.48484 10 10 0 0 0 0 4 7 3 47 55 8 0 0 0 0 0 11 72 31 0 0 0 0 1 14 26 9 4 0 0 0 71 37 0 0 0 0 0 12 131 131 113 35 6 5 4 27 7 30 116 131 125 30 4 5 2 4 4 23 41 15 8 3 66 2 0 0 0 0 2 66 131 27 4 5 6 34 131 131 6 5 4 27 128 131 128 30 6 1 1 5 34 39 9 14 3 0 0 0 0 0 7 25 1 0 0 0 0 5 85 59 0 0 0 0 0 47 89 9 2 0 0 0 0 6 18 34 
225.158 220.576 1.06982 4.4336 2 12 14 32 26 2 0 0 31 43 73 5 0 0 0 17 46 15 33 15 4 4 35 85 5 3 7 7 29 74 72 20 43 12 3 3 17 22 8 15 125 125 107 25 3 2 2 20 15 58 125 125 48 11 9 6 4 82 111 80 24 9 13 3 74 0 0 0 3 16 12 27 125 23 4 5 4 14 59 125 18 15 15 50 50 110 125 53 11 27 18 21 37 28 69 47 38 2 0 0 0 0 8 37 79 5 0 0 0 1 24 88 28 17 19 9 1 19 55 25 23 7 11 7 3 5 20 27 
332.618 15.9532 1.3968 2.02863 4 3 9 62 14 0 0 0 0 27 64 17 2 0 0 0 0 3 48 44 0 0 0 0 1 0 6 6 0 0 0 2 41 15 4 28 57 2 0 3 122 122 99 35 18 3 1 15 11 32 98 122 122 10 1 3 0 0 8 52 26 0 0 0 36 15 2 25 56 10 1 8 122 27 4 8 26 25 34 122 28 19 22 95 122 66 32 44 0 0 1 79 78 1 0 0 6 6 0 2 46 60 7 3 122 14 1 0 15 15 8 72 97 39 31 60 64 46 41 55 0 0 1 43 115 46 3 0 
332.618 15.9532 1.3968 4.95609 95 23 0 0 0 0 0 14 126 63 27 20 31 31 24 76 4 10 15 63 126 66 10 5 15 65 11 3 17 2 0 0 81 4 0 0 0 0 0 34 126 92 27 28 19 15 13 67 20 35 32 126 126 47 7 6 60 43 3 12 24 16 2 9 33 0 0 0 0 0 5 48 126 17 1 2 10 38 101 126 26 6 1 11 126 126 92 29 59 12 0 1 40 24 2 9 0 0 0 2 3 0 2 8 0 0 0 0 0 3 48 49 18 0 0 0 0 21 55 32 35 2 0 2 20 10 4 36 
310.893 281.257 1.32109 2.32496 6 8 2 0 0 0 0 0 2 33 43 5 2 0 0 0 0 5 60 32 2 0 0 0 0 0 6 10 2 0 0 0 28 36 13 0 0 0 0 2 137 137 132 29 8 5 5 27 11 44 137 137 137 32 5 5 0 0 1 25 58 9 0 0 32 4 0 0 0 2 14 25 137 33 6 5 9 36 125 137 12 7 7 30 137 137 127 41 0 0 0 2 56 32 0 1 0 0 0 0 0 2 10 8 1 0 0 0 0 5 55 43 0 0 0 0 2 45 54 5 0 0 0 0 2 8 0 0 
310.893 281.257 1.32109 5.6518 3 8 1 0 0 0 0 0 3 43 55 6 0 0 0 0 0 3 60 37 1 0 0 0 0 8 13 4 0 0 0 0 60 30 0 0 0 0 0 3 137 137 133 46 12 7 7 31 9 32 122 137 137 32 6 5 0 2 7 21 30 9 2 0 58 5 0 1 1 0 0 25 137 28 5 6 11 43 137 137 9 5 4 32 137 137 128 30 0 0 0 3 31 42 7 0 4 1 0 0 0 0 4 9 3 0 0 0 0 7 61 32 1 0 0 0 0 35 45 6 0 0 0 0 8 6 1 1 
259.12 318.086 1.18596 0.840753 43 8 0 0 0 1 39 62 10 11 19 4 0 26 119 31 2 2 21 15 2 14 61 86 14 17 27 7 0 3 21 78 48 12 21 68 11 2 29 41 122 122 77 36 3 2 12 28 12 21 78 122 57 1 4 28 29 16 2 24 11 3 23 64 29 22 56 122 37 0 0 0 122 43 28 19 10 4 21 122 15 5 5 105 122 22 37 87 26 15 5 48 42 15 7 4 0 2 16 72 56 62 13 0 3 3 19 30 42 20 14 51 1 0 1 11 21 30 55 107 0 0 0 4 22 65 24 2 
259.12 318.086 1.18596 3.35881 8 12 24 6 6 25 9 3 60 58 36 14 7 8 2 4 14 26 31 75 83 0 0 2 45 30 8 6 10 0 14 38 31 4 3 35 50 35 11 5 130 97 8 16 18 15 7 28 25 33 11 85 130 67 10 10 57 46 20 9 17 12 10 46 17 0 2 55 99 5 3 16 116 7 5 15 21 51 67 130 21 2 0 7 86 130 71 34 130 9 0 0 5 30 23 80 25 18 43 61 22 0 1 14 1 0 52 109 23 12 14 17 14 0 7 79 58 41 10 6 86 2 1 8 7 3 38 75 
247.34 235.259 1.46723 2.19736 16 31 1 0 0 0 0 1 15 72 74 22 0 0 0 0 0 5 53 118 5 0 0 0 0 3 22 15 1 0 0 0 84 13 0 0 0 0 0 16 136 136 65 42 13 4 2 19 14 31 63 136 136 17 2 4 0 19 44 36 29 0 0 0 90 12 0 0 0 0 0 14 136 17 1 4 12 34 80 136 21 5 2 23 136 136 85 37 53 48 24 7 27 15 1 2 15 38 3 0 0 0 0 3 9 7 2 3 5 11 49 39 13 22 6 0 1 51 49 7 111 23 2 0 0 3 1 7 
247.34 235.259 1.46723 5.21684 0 2 1 1 99 45 7 1 1 46 50 6 24 27 7 0 5 12 56 38 6 5 4 2 1 0 2 5 8 32 5 1 28 12 1 1 26 51 39 10 136 136 85 32 21 8 3 19 12 39 87 136 136 27 2 3 0 0 0 11 85 29 1 0 38 1 0 0 0 6 42 42 136 21 2 3 15 39 64 136 13 4 2 14 136 136 59 35 0 0 0 11 81 18 0 0 3 0 0 0 0 0 14 23 9 0 0 0 0 9 54 119 0 0 0 0 17 80 64 17 0 0 0 2 15 27 1 0 
