36.3249 21.6035 1.05202 2.7696 67 0 0 0 0 0 0 78 44 12 4 2 1 3 26 67 3 3 4 20 98 25 10 2 0 0 0 27 75 7 0 0 124 3 0 0 0 0 0 31 125 100 27 19 5 1 1 21 13 25 32 125 125 6 1 2 0 0 0 60 88 0 0 0 125 3 0 0 0 0 0 22 125 18 2 3 6 8 12 97 22 7 6 56 125 37 17 26 0 0 0 43 125 2 0 0 81 0 0 0 0 0 0 32 125 15 2 0 0 1 3 62 32 15 10 32 76 53 11 16 0 0 0 12 116 42 0 0 
389.955 24.4295 0.976525 2.73723 5 13 5 6 1 1 0 0 9 84 74 8 0 0 0 0 1 41 65 33 3 1 0 0 0 6 6 10 5 8 6 0 76 32 0 0 1 3 3 8 133 133 107 46 9 6 6 32 9 26 93 133 133 34 6 6 0 0 0 32 53 15 6 2 75 7 1 0 2 1 2 39 133 20 3 6 8 33 133 133 7 3 3 29 128 133 133 32 0 0 0 5 42 52 4 0 6 18 11 2 3 1 1 6 4 1 2 2 7 13 60 42 8 1 0 1 1 27 54 24 0 0 2 6 7 12 2 0 
389.955 24.4295 0.976525 5.3924 2 17 12 3 0 0 0 0 2 33 55 6 1 0 0 0 1 4 43 53 19 5 1 0 8 16 8 10 2 1 2 5 53 40 8 2 1 0 0 2 127 134 134 30 7 6 3 19 7 34 134 134 134 34 2 4 1 3 3 36 55 15 11 3 46 13 10 2 0 2 11 23 134 35 6 5 8 49 107 134 9 7 6 30 134 134 83 30 1 3 3 7 64 47 1 0 0 0 0 0 0 16 38 9 1 0 0 0 0 19 108 45 2 1 0 0 2 78 54 7 0 3 4 3 3 13 1 0 
28.6064 31.9108 0.957296 0.0148506 16 7 0 0 0 6 6 32 32 45 22 0 0 0 3 70 8 22 47 2 0 0 22 72 39 5 4 1 0 0 19 81 91 23 3 2 3 1 0 5 136 136 102 11 2 1 4 24 16 62 136 136 33 12 8 8 36 13 31 71 4 0 0 7 61 18 32 7 0 0 0 12 136 29 7 3 2 5 96 136 15 8 9 57 42 50 136 104 7 5 13 58 22 9 30 24 5 5 10 8 4 3 6 8 9 1 1 1 1 2 34 68 31 5 0 0 0 0 72 103 33 7 0 0 2 1 21 73 
73.1361 42.3687 0.900618 1.39858 2 8 2 3 1 1 0 0 2 54 66 4 0 0 0 0 0 6 80 53 1 0 0 0 0 0 3 16 4 0 1 3 61 35 0 0 2 0 0 2 130 130 114 24 5 5 7 28 7 38 130 130 130 33 7 5 0 0 2 51 76 4 0 0 62 6 0 0 2 0 0 26 130 27 3 4 5 27 124 130 7 6 5 22 130 130 130 30 0 11 22 11 62 29 0 0 4 25 5 0 0 0 0 4 3 21 34 0 0 2 37 35 0 30 54 0 1 25 41 4 0 44 49 4 1 3 0 0 
73.1361 42.3687 0.900618 5.04203 0 3 0 0 9 130 16 0 0 24 42 6 5 49 9 0 0 2 35 44 13 9 0 0 5 0 0 6 3 0 0 3 41 26 0 0 12 45 2 5 123 130 128 33 6 5 4 23 5 27 117 130 130 20 4 3 1 0 0 37 54 2 0 3 48 2 0 0 1 16 10 52 130 30 5 6 7 30 115 130 6 5 5 35 130 130 116 28 0 0 0 7 63 37 1 0 1 0 0 0 1 3 3 18 1 0 0 0 0 6 70 57 0 0 0 0 1 58 71 5 0 0 0 0 2 15 2 0 
73.1361 42.3687 0.900618 5.79 0 3 2 25 45 3 0 0 0 24 56 15 6 0 0 0 0 2 50 41 0 0 3 1 1 0 1 7 0 0 4 2 36 32 2 2 62 13 0 2 123 130 130 31 5 4 4 26 6 26 130 130 115 22 4 5 0 0 2 51 57 4 0 0 37 4 0 9 56 3 2 30 129 29 7 5 6 23 126 130 7 4 7 38 130 130 130 35 0 0 0 7 76 51 1 0 0 0 0 11 56 9 2 4 0 0 0 0 8 11 74 39 0 0 0 0 1 52 77 6 0 1 2 0 3 19 2 0 
55.9519 43.0401 1.03386 1.99215 120 66 0 0 0 0 0 26 120 23 0 0 0 0 5 110 50 11 3 1 68 119 38 46 45 6 1 0 79 120 13 13 120 120 2 0 0 0 0 1 120 65 2 5 7 3 6 28 20 14 5 39 105 120 41 20 35 83 11 9 35 57 4 6 53 90 34 9 0 0 0 2 120 18 2 2 5 19 37 41 6 5 5 35 61 48 85 16 16 32 8 13 13 75 46 10 30 12 9 6 2 4 1 17 12 8 2 0 10 61 21 4 1 18 12 2 6 34 54 11 0 4 15 45 30 61 19 2 
55.7028 46.0915 0.938748 5.77389 34 20 7 0 5 17 30 17 29 92 25 0 1 1 2 9 18 51 32 68 14 0 1 9 0 0 2 106 53 2 0 0 122 93 8 6 7 1 2 11 27 29 7 9 36 17 37 58 57 33 13 22 18 4 31 117 3 8 27 122 73 1 2 2 122 41 5 8 30 8 2 46 39 8 4 31 120 30 7 21 122 76 15 5 3 1 3 73 37 30 60 122 16 3 0 11 122 43 10 11 5 1 0 31 27 21 28 122 45 5 1 9 122 29 7 29 6 1 1 62 61 2 0 8 17 49 15 27 
64.9531 46.2953 1.01053 2.56576 53 10 1 4 1 0 0 9 28 35 33 0 0 0 19 39 87 42 35 0 0 0 9 129 51 16 2 7 15 16 12 47 93 20 0 8 21 6 0 3 129 129 84 1 0 0 0 7 41 129 129 14 0 0 0 4 31 84 20 17 44 7 0 0 115 25 0 0 4 7 1 9 129 31 5 0 0 0 1 101 51 27 32 10 1 0 10 110 12 23 7 27 90 11 3 12 46 1 0 0 0 0 0 51 91 0 0 0 0 0 5 129 30 0 0 0 0 0 26 129 11 0 0 8 33 29 29 56 
52.9857 48.6339 1.02775 5.84389 30 0 0 0 0 5 113 87 61 19 3 0 4 20 70 38 38 77 17 0 2 4 9 15 18 39 20 39 8 1 11 30 50 47 24 0 0 0 28 38 126 106 9 4 3 0 6 30 41 34 10 20 76 17 22 26 101 32 7 5 13 5 26 81 42 29 19 1 0 3 48 66 126 27 4 2 6 3 10 116 57 17 21 82 97 16 3 31 126 22 8 35 13 2 1 83 61 6 0 0 1 1 21 62 126 43 0 0 0 0 8 67 95 36 27 78 26 14 31 49 77 21 11 58 24 11 8 21 
247.079 59.7026 1.12515 2.72781 22 5 0 0 0 0 7 22 64 42 4 0 0 0 0 32 20 45 17 6 5 4 0 2 3 4 0 1 8 31 15 5 33 28 7 2 0 0 4 9 126 126 29 6 1 0 3 29 15 64 68 123 61 7 6 6 0 0 10 77 55 22 4 4 31 7 4 6 15 4 1 16 126 24 2 1 1 1 35 126 85 30 45 54 30 10 56 126 25 23 109 126 57 9 4 15 5 12 8 3 8 3 0 1 69 8 2 0 0 0 2 50 90 7 3 0 0 2 42 126 25 8 13 39 61 96 126 88 
66.1952 59.9963 1.07241 5.30587 55 1 0 0 0 0 0 13 153 64 0 0 0 0 0 7 115 122 13 2 0 0 1 10 8 22 20 68 73 8 1 10 70 3 0 0 0 0 0 11 153 74 0 0 0 0 0 23 121 42 0 0 16 30 17 54 16 1 1 34 69 20 19 96 59 16 0 0 0 0 0 9 153 71 0 0 0 1 0 76 79 18 0 16 51 26 5 46 5 0 0 8 35 67 36 60 70 22 0 0 0 0 0 4 153 96 0 0 0 5 12 51 28 22 1 6 13 81 44 12 0 0 0 2 36 63 21 0 
66.9688 62.9265 0.981446 5.37578 11 1 0 0 0 0 0 5 146 9 0 0 0 0 0 24 146 51 0 0 3 5 1 12 26 7 0 1 10 18 20 63 6 1 0 0 0 0 1 7 146 14 0 0 0 0 0 57 146 27 0 1 11 7 1 124 12 2 0 19 46 20 10 41 13 6 0 0 0 0 0 0 146 74 0 0 0 0 0 17 146 127 1 1 2 14 12 51 10 10 1 14 25 77 21 4 15 4 0 0 0 0 0 0 146 12 0 0 0 0 0 43 120 5 0 0 0 23 40 136 3 0 0 0 0 69 46 11 
70.0038 63.0014 1.02384 5.43587 78 1 0 0 0 0 0 28 148 11 0 0 2 2 0 124 51 4 0 14 50 24 10 57 0 0 0 10 32 48 40 69 79 23 0 0 0 0 0 10 148 116 0 0 0 1 3 77 82 40 1 21 32 70 15 27 0 0 0 11 55 87 19 3 84 10 0 0 0 0 0 16 148 23 0 0 0 5 23 148 29 5 0 0 2 137 84 72 5 1 0 1 23 62 29 7 44 9 0 0 0 0 0 13 128 10 0 0 0 0 3 77 34 12 2 3 6 17 23 51 3 0 0 1 18 23 32 20 
239.256 69.7962 0.883774 2.54771 23 10 3 3 5 4 5 29 4 11 39 28 30 6 2 3 75 14 27 17 1 0 1 32 37 2 0 2 24 22 29 50 56 10 1 0 0 3 13 29 124 113 106 35 5 1 0 10 8 15 87 124 102 10 4 16 1 0 0 10 32 69 72 28 97 1 0 0 0 5 19 67 124 22 5 6 12 14 17 124 12 4 7 66 124 64 20 24 0 0 7 89 98 55 9 0 76 0 0 1 4 2 3 45 81 0 0 0 0 3 29 124 1 0 6 34 28 15 61 55 0 0 18 124 35 9 9 8 
239.256 69.7962 0.883774 5.56101 54 6 2 2 0 0 7 125 48 17 36 48 1 0 4 60 1 5 30 125 71 0 0 0 2 0 1 36 108 0 0 0 82 77 31 0 0 0 0 43 125 99 17 16 10 4 5 53 15 21 18 98 125 27 6 5 0 2 11 49 125 3 0 0 24 39 74 52 7 0 0 10 98 12 2 13 11 16 82 125 6 1 0 7 125 125 92 35 0 2 18 25 61 14 0 0 12 11 12 43 73 12 0 2 6 0 0 11 57 22 28 24 28 11 3 9 6 11 31 24 1 2 3 26 25 10 2 1 
105.191 71.2129 0.983652 0.880798 8 6 3 2 6 1 1 1 0 22 42 11 3 5 13 4 0 2 41 41 2 11 22 5 6 1 2 5 0 0 21 12 40 16 2 1 1 0 14 33 121 121 107 29 7 5 4 22 7 25 109 121 121 25 3 2 9 1 9 33 37 1 0 3 63 10 1 1 0 0 3 46 121 42 10 4 8 30 62 121 9 11 31 58 121 121 51 21 0 1 38 37 32 4 0 0 25 62 6 0 0 0 0 1 102 121 29 1 0 1 6 20 15 69 117 121 41 9 5 3 0 22 30 97 23 0 0 0 
105.191 71.2129 0.983652 3.09181 7 4 0 0 10 17 2 9 39 31 12 0 0 0 0 29 127 67 14 1 0 0 9 54 58 58 26 5 5 45 82 54 49 30 0 2 4 7 2 6 121 127 101 14 3 5 6 27 35 43 111 91 86 52 38 51 6 0 0 3 20 72 127 45 58 5 8 25 7 0 0 26 127 32 8 4 3 31 112 127 5 6 8 20 91 127 106 22 1 0 0 0 28 73 47 5 2 1 8 38 22 0 0 3 5 4 2 3 2 4 31 33 1 1 0 10 31 40 24 4 3 2 0 7 22 8 0 1 
105.191 71.2129 0.983652 4.14959 28 1 0 0 0 19 46 118 23 7 7 7 45 114 118 90 0 1 7 27 118 118 6 0 0 0 0 4 23 35 5 1 26 2 0 0 0 3 42 46 118 117 52 26 10 16 41 56 8 27 58 118 118 32 6 4 0 0 11 57 46 4 1 0 31 0 0 5 6 1 18 33 118 21 3 3 7 23 109 118 7 5 3 24 118 118 110 29 2 0 14 23 34 19 2 1 0 0 13 8 13 1 2 5 1 10 17 4 0 2 45 36 2 11 17 3 0 20 44 10 6 1 5 2 4 5 3 3 
99.2433 79.0547 0.944869 1.9761 5 20 30 1 0 0 0 0 111 42 10 1 0 0 0 7 120 126 30 4 0 0 0 2 14 48 28 17 26 5 0 0 22 36 49 18 2 1 2 12 126 47 27 25 3 0 0 8 126 102 26 12 10 4 3 79 10 10 21 50 126 14 3 13 31 5 1 3 2 1 16 82 91 124 5 6 2 1 4 15 126 96 0 0 2 12 11 71 14 0 0 6 71 80 24 22 81 41 0 0 0 0 0 19 114 126 0 0 1 2 0 2 23 63 0 0 5 68 8 1 1 0 0 0 4 92 22 1 
120.84 84.369 0.928087 4.81533 4 0 0 0 0 1 66 45 15 34 12 0 0 3 109 36 28 30 26 3 1 5 20 30 50 57 20 2 1 0 0 17 56 8 0 0 0 5 52 18 129 129 74 9 2 2 12 35 21 71 129 101 82 19 6 10 29 3 2 13 33 6 13 83 76 4 0 0 0 0 3 26 129 28 4 2 2 9 82 129 13 7 6 23 84 112 129 80 2 1 1 9 38 35 36 12 18 22 3 0 0 0 0 6 11 7 4 1 2 1 34 80 0 0 0 0 0 7 108 97 0 0 0 0 0 31 85 11 
143.115 96.9986 0.999858 0.127815 4 0 0 0 0 1 76 53 28 53 14 1 6 12 53 32 2 30 66 64 6 2 1 0 0 0 20 93 2 0 0 0 69 9 0 0 1 9 22 19 138 138 55 12 5 7 9 47 15 68 103 122 109 90 11 8 1 1 10 50 38 46 19 6 55 5 13 4 0 1 0 20 138 23 3 2 4 34 128 138 11 6 3 8 65 138 138 40 14 1 0 0 8 60 41 35 6 5 7 4 1 0 0 4 6 1 2 6 3 5 43 35 15 4 0 0 0 21 46 10 20 9 0 0 0 2 4 9 
143.115 96.9986 0.999858 4.1265 0 6 4 9 6 5 9 1 2 27 42 10 2 4 5 3 1 1 34 40 4 15 2 0 9 7 7 4 0 3 1 1 35 35 7 15 3 0 0 0 138 138 138 47 6 2 2 16 9 28 138 138 95 9 2 4 7 45 28 62 17 0 0 0 60 30 21 15 2 0 0 4 138 55 11 9 9 23 52 138 14 6 13 87 138 130 67 37 11 65 33 37 50 5 0 4 7 19 45 23 7 2 1 1 34 13 2 0 1 19 65 37 0 0 0 0 13 67 90 6 12 7 0 1 7 17 37 30 
195.333 128.212 0.846884 2.21647 83 8 0 0 0 0 0 13 124 72 3 0 0 0 0 1 42 22 5 8 2 2 23 32 42 1 0 0 0 0 26 124 124 37 0 0 0 0 0 2 124 124 25 9 0 0 0 8 14 35 62 124 7 2 5 5 54 36 28 24 1 1 6 27 106 16 0 0 0 0 0 44 124 21 3 2 0 0 3 124 19 5 22 71 9 8 18 117 3 6 25 39 34 58 13 6 28 1 0 0 0 0 0 40 82 3 0 0 0 0 0 124 17 0 0 0 1 22 62 124 0 0 0 0 12 124 39 4 
206.447 132.308 1.08948 1.70826 53 3 4 2 0 0 0 61 29 19 55 41 1 0 2 12 0 1 26 79 6 5 14 5 11 14 2 9 5 9 9 1 119 20 0 2 2 0 0 31 124 90 40 38 10 3 1 26 7 15 33 124 124 11 1 3 19 62 23 31 22 0 0 0 95 9 0 0 0 0 1 52 124 13 0 3 10 18 42 124 12 60 22 20 115 63 37 30 1 124 88 23 19 0 0 0 47 13 0 0 0 0 1 22 67 61 5 0 0 0 10 68 107 124 11 0 1 2 9 16 24 124 39 32 42 0 0 0 
206.447 132.308 1.08948 4.74573 65 5 0 0 5 121 68 34 1 3 6 11 69 121 31 1 0 1 7 54 65 83 11 0 0 0 0 13 53 35 0 0 21 1 0 0 1 121 111 24 115 72 30 26 10 52 31 17 9 21 37 121 121 17 0 2 0 0 1 46 104 9 0 0 26 1 1 0 12 45 18 34 121 15 1 2 8 18 29 121 10 4 1 21 121 114 32 32 3 0 0 16 107 33 0 2 5 11 13 2 3 6 1 9 7 2 13 7 0 2 24 83 0 0 0 14 48 22 42 38 0 0 0 47 65 2 1 2 
179.497 138.222 0.966924 1.27609 93 1 0 0 0 0 0 19 131 13 0 3 9 1 0 11 6 3 0 18 111 19 0 0 0 0 0 10 75 11 0 0 108 4 0 0 0 0 0 24 134 29 6 14 6 0 0 25 16 11 7 99 134 0 0 0 0 0 0 30 115 3 0 0 79 4 0 0 1 2 1 22 134 15 1 6 7 0 0 31 39 8 2 84 134 0 0 3 0 0 0 47 134 0 0 0 51 0 0 0 1 8 2 22 134 7 0 2 1 0 0 81 43 6 1 59 115 1 1 23 0 0 0 38 134 0 0 0 
219.988 137.802 0.917632 2.36398 13 0 0 0 0 0 73 119 9 5 3 12 39 54 83 44 0 0 2 42 119 59 2 0 0 0 22 54 43 2 0 0 90 6 0 0 0 0 14 97 119 66 27 42 15 5 10 38 6 11 22 119 119 12 1 2 0 2 46 44 23 7 3 0 117 12 0 0 0 0 6 61 119 14 1 5 9 22 67 119 6 2 1 27 119 119 50 22 0 1 4 5 48 71 35 1 40 2 0 0 0 0 10 73 35 3 0 0 0 4 50 103 5 0 0 0 41 72 33 19 0 0 0 2 59 29 3 0 
219.988 137.802 0.917632 5.1686 9 42 43 4 2 0 0 0 29 116 30 4 0 0 0 0 0 27 35 66 33 8 0 0 0 0 1 34 44 24 0 0 25 32 31 5 0 0 14 21 118 118 46 14 5 3 2 14 10 35 55 118 115 33 1 2 0 0 1 87 104 23 0 0 72 11 0 0 0 0 12 56 118 34 3 2 7 22 21 93 12 4 2 19 118 118 22 19 0 0 0 15 98 59 0 0 97 82 1 0 0 0 0 6 66 118 40 17 2 3 3 9 2 5 36 118 46 13 2 2 0 0 2 99 60 2 0 0 
171.693 141.441 0.972278 1.31885 92 0 0 0 0 2 0 39 132 5 0 12 13 0 0 71 5 1 0 69 132 0 0 5 0 0 0 24 94 0 0 0 105 1 0 0 0 1 3 28 132 39 3 4 8 2 0 49 23 14 5 30 132 20 0 5 0 0 0 9 132 9 0 0 132 4 0 0 0 0 0 7 132 9 0 0 7 16 7 53 15 2 0 1 132 102 8 15 0 0 0 8 112 26 0 0 90 0 0 0 0 0 0 16 132 0 0 0 7 12 4 41 5 0 0 5 91 74 3 6 0 0 0 1 44 46 0 0 
190.23 157.039 1.0099 1.45247 48 7 1 0 0 0 0 7 132 27 1 3 7 0 0 7 24 7 2 31 132 6 0 0 0 0 0 7 113 4 0 0 70 6 1 0 0 3 3 7 132 93 11 12 5 2 4 28 22 28 17 96 132 16 5 6 0 0 0 24 132 3 0 0 41 1 0 5 2 2 1 23 132 12 0 1 3 7 43 132 20 4 1 16 132 75 58 64 0 0 0 19 132 14 0 0 5 1 0 1 3 3 0 3 86 1 0 0 0 0 3 71 92 6 4 42 28 3 5 44 0 0 0 76 90 0 0 0 
306.693 188.278 0.960798 0.746662 1 2 0 0 1 12 70 25 3 32 33 2 0 27 116 4 2 5 45 20 2 8 78 35 0 0 0 2 3 13 62 17 34 18 0 0 9 21 10 9 130 130 104 24 7 7 13 35 11 36 129 130 130 54 11 6 0 0 0 16 53 27 28 5 31 1 0 0 9 24 11 43 130 22 5 3 6 35 130 130 10 4 6 17 113 130 130 31 0 0 4 9 34 37 3 1 6 2 1 0 4 5 3 6 5 0 0 0 3 10 48 33 13 0 0 0 0 19 46 21 6 2 6 3 2 6 2 4 
306.693 188.278 0.960798 4.64624 5 6 14 7 0 0 0 2 6 35 44 11 1 0 0 2 17 10 55 26 0 0 0 7 37 7 2 1 0 0 0 12 29 32 17 14 1 1 0 2 131 131 131 37 5 4 3 24 9 39 131 131 111 19 4 5 18 16 4 25 30 1 0 7 44 5 2 0 0 4 7 20 131 38 6 8 6 29 93 131 11 13 7 50 131 131 109 37 19 102 6 8 42 19 0 0 10 23 3 0 0 0 5 6 19 36 7 0 0 4 26 43 5 64 37 2 1 33 30 7 30 131 9 0 0 4 2 3 
147.44 190.521 0.925028 0.834134 18 1 10 54 3 5 3 7 0 0 54 101 4 8 7 0 0 0 72 115 0 0 1 0 0 0 27 90 0 0 0 0 11 0 0 2 1 52 107 30 19 2 4 9 3 45 115 31 53 50 43 70 1 0 14 25 0 5 35 115 15 0 0 0 0 0 0 0 0 42 106 11 101 6 0 0 0 11 56 90 115 86 24 19 15 20 35 110 3 10 19 70 115 98 25 8 0 0 0 0 0 4 15 2 20 0 0 0 0 0 8 72 30 0 0 0 1 23 115 115 0 0 0 0 12 105 102 12 
147.641 193.554 0.962752 0.42204 7 0 0 0 0 2 124 50 30 26 4 17 3 2 54 57 7 12 9 124 50 0 0 5 0 0 0 85 39 0 0 0 70 7 0 0 0 0 28 38 124 124 29 8 3 5 11 55 14 54 49 124 124 52 11 8 0 0 5 110 72 10 0 0 48 0 0 0 0 0 0 47 124 17 1 1 2 17 123 124 10 4 2 8 47 124 124 48 21 3 7 28 19 29 17 26 2 0 0 0 0 0 1 13 1 0 0 0 0 0 41 56 3 0 0 0 0 7 61 59 9 0 0 0 0 2 36 59 
147.641 193.554 0.962752 5.10924 1 13 3 0 0 0 0 0 0 46 48 0 0 0 0 0 24 36 71 8 0 0 0 0 122 56 7 0 0 0 0 1 40 57 2 0 0 0 0 0 122 124 124 17 1 1 2 17 11 54 124 124 29 7 3 4 55 61 31 27 3 14 3 2 59 62 4 0 0 0 0 7 124 49 10 4 2 8 47 124 11 8 14 56 51 124 124 52 1 6 8 13 8 119 52 0 35 58 11 0 0 0 1 2 16 23 21 4 7 31 20 29 0 0 0 0 3 107 78 10 0 0 0 0 0 83 44 0 
151.759 197.828 0.986915 2.92913 50 2 0 0 0 0 0 27 35 10 14 25 4 0 0 12 0 0 5 61 40 0 0 0 0 0 0 23 30 0 0 0 79 1 0 0 0 0 0 19 125 47 22 23 3 1 0 9 6 10 24 125 72 7 0 1 0 0 0 40 74 3 0 0 89 1 0 0 0 0 0 13 125 17 4 3 5 7 4 51 16 35 103 64 85 28 4 9 0 2 62 125 62 1 0 0 63 2 0 0 0 0 0 12 125 64 2 0 0 0 0 14 125 125 125 39 9 13 26 30 3 14 91 125 125 63 17 4 
94.7736 201.303 1.00596 1.50119 1 7 2 8 13 0 0 0 6 67 50 2 0 0 0 0 12 34 63 25 1 0 0 2 15 14 8 7 5 8 4 12 50 25 1 3 13 4 0 2 134 134 116 24 8 6 7 32 11 47 134 134 134 39 8 8 1 0 0 19 61 25 19 9 59 2 0 0 2 4 5 24 134 28 4 4 6 40 127 134 9 6 5 21 133 134 134 31 0 0 0 3 55 39 4 0 10 0 0 2 3 0 1 14 6 0 0 0 0 11 58 43 1 0 0 0 0 46 52 3 8 0 0 2 2 5 5 6 
94.7736 201.303 1.00596 5.71158 5 18 5 0 0 0 0 0 2 28 69 14 0 0 0 0 6 5 39 35 0 0 1 3 7 0 0 3 0 0 10 25 71 29 1 0 0 0 0 3 134 134 134 43 5 4 5 27 8 24 134 134 119 21 6 5 0 0 0 47 45 3 5 5 57 8 3 1 0 0 2 25 134 30 9 7 6 22 121 134 9 5 9 48 134 134 134 44 0 0 0 20 86 25 0 0 3 0 0 0 0 0 9 13 22 11 2 0 0 1 38 52 4 7 17 11 10 29 43 10 0 0 1 17 27 8 0 0 
160.64 227.974 1.03401 2.91337 67 8 0 0 0 0 0 4 77 61 24 7 1 0 0 2 1 10 28 60 73 9 1 0 0 0 0 6 73 14 0 0 105 10 0 1 2 0 0 0 133 67 11 13 14 3 1 10 12 16 12 51 133 27 1 2 0 0 0 8 109 13 0 0 99 21 0 0 1 0 0 1 133 50 11 9 12 18 11 48 9 4 7 45 133 86 10 11 0 0 0 12 77 16 0 0 98 35 0 1 0 0 0 0 133 133 46 35 3 0 0 0 5 20 41 133 130 3 0 0 0 0 0 54 70 3 1 0 
160.64 227.974 1.03401 6.1349 78 1 0 0 0 0 0 101 85 1 0 0 16 34 60 136 1 0 0 2 136 115 35 15 1 0 0 0 83 20 1 2 83 11 0 0 0 0 0 20 136 68 10 13 10 6 10 62 11 15 11 66 136 38 8 7 2 0 0 6 97 9 0 0 104 6 0 0 0 0 0 13 136 17 1 2 11 12 11 66 15 3 1 19 136 55 12 18 1 0 0 6 115 5 0 0 67 7 0 0 0 0 0 8 85 7 1 0 0 7 25 68 1 1 1 3 69 55 29 11 0 0 0 9 76 6 0 0 
234.98 241.479 1.08955 0.0581875 22 52 9 3 7 9 1 1 5 15 26 14 17 22 8 2 0 3 52 50 15 8 2 3 0 0 2 12 19 16 18 5 27 16 3 3 24 52 6 7 113 89 37 7 8 14 4 19 8 27 60 77 135 20 0 1 0 0 0 14 102 21 0 0 28 4 2 5 69 66 7 12 135 76 13 14 16 7 3 57 31 30 21 108 135 40 2 6 0 0 0 9 107 26 0 0 44 15 0 0 3 40 8 1 135 101 11 12 6 14 21 48 36 33 19 103 135 119 32 22 0 0 0 11 112 22 0 0 
234.98 241.479 1.08955 3.24694 126 23 0 0 0 0 0 17 133 114 35 28 51 36 20 107 3 9 17 47 133 82 9 8 6 50 8 1 34 9 0 0 115 19 0 0 0 0 0 16 133 28 2 8 36 32 23 121 15 7 3 71 133 62 12 11 77 58 6 13 22 3 2 7 102 17 0 0 0 0 0 13 133 15 0 1 8 26 56 78 9 13 4 21 109 87 37 8 22 49 5 8 28 15 2 3 21 17 15 2 0 0 1 12 16 5 3 3 0 3 53 49 16 23 7 2 4 15 29 15 8 8 2 2 22 48 8 4 
233.329 256.092 1.07247 0.317316 97 1 0 0 0 0 0 19 117 19 12 50 11 3 1 17 1 2 12 131 40 2 0 0 0 0 7 54 24 0 0 0 109 14 0 0 0 0 0 15 131 89 21 29 8 2 1 30 15 22 22 131 131 11 1 3 0 0 0 45 102 2 0 0 85 9 0 3 1 0 0 28 131 18 1 2 7 13 28 131 14 3 1 19 131 84 35 36 0 0 0 30 103 15 0 0 43 0 0 3 6 0 0 10 131 4 0 0 0 1 4 55 30 2 0 32 92 17 6 15 0 0 0 22 72 19 1 0 
80.3683 281.038 0.991243 1.99318 3 7 4 4 2 6 3 1 3 40 63 11 0 0 1 3 0 3 44 53 5 6 8 3 0 0 0 10 8 7 3 1 69 30 5 4 5 4 2 4 129 129 124 43 10 6 7 31 6 26 99 129 129 29 6 5 0 0 0 32 55 2 0 0 49 50 99 9 0 0 0 7 129 40 34 28 15 41 106 129 5 4 4 37 129 129 97 22 0 0 0 6 48 32 0 0 8 50 70 12 5 14 13 2 2 8 27 66 46 53 33 4 0 0 0 52 60 38 15 0 0 0 0 15 20 4 0 0 
80.3683 281.038 0.991243 4.87951 7 9 0 0 0 0 0 3 61 46 17 0 0 0 0 15 70 43 44 4 0 0 3 37 17 42 56 7 3 12 26 18 50 29 1 0 0 0 0 3 128 128 108 23 5 3 4 22 28 44 120 128 122 35 25 31 5 0 0 5 29 33 128 33 68 4 0 0 0 0 0 23 128 33 7 5 6 29 104 128 10 6 7 29 128 128 117 36 6 2 0 1 49 40 24 13 6 14 16 3 0 0 0 7 4 1 5 8 0 3 50 51 1 0 1 1 5 44 55 9 5 10 7 1 4 6 0 1 
20.8837 296.027 1.03047 0.714255 6 3 1 5 4 10 63 34 9 17 22 49 18 4 15 17 19 6 25 70 16 0 0 2 51 23 8 6 1 1 14 38 59 12 0 0 1 17 9 15 133 133 105 41 7 7 9 41 10 28 114 133 133 44 8 7 3 0 1 22 47 19 28 40 63 12 1 0 0 3 4 18 133 27 5 6 5 39 133 133 8 5 5 31 123 133 133 29 2 9 8 3 45 53 6 7 18 4 0 0 0 2 6 6 2 0 0 1 9 22 57 15 5 4 0 0 4 44 51 3 21 28 10 0 0 6 7 9 
20.8837 296.027 1.03047 2.91648 0 3 8 27 53 1 0 0 1 27 66 10 8 2 7 10 0 3 50 43 2 10 19 3 0 5 11 12 4 2 1 0 39 28 7 13 46 27 7 3 133 133 133 40 7 6 6 27 7 26 133 133 118 36 6 5 0 9 15 54 26 4 0 0 74 28 0 0 1 15 9 12 133 38 8 7 10 53 126 133 7 5 8 38 118 133 122 25 0 0 1 12 27 47 15 1 75 21 2 3 1 0 0 4 11 10 4 26 46 23 31 10 0 0 14 11 11 47 28 1 0 0 16 11 3 10 4 0 
20.8837 296.027 1.03047 4.88953 23 7 0 0 0 0 3 10 15 34 35 19 2 0 0 2 7 4 39 47 6 0 0 1 28 5 2 3 0 0 0 12 67 29 1 4 1 0 3 9 138 138 131 40 6 5 7 31 9 34 138 138 95 32 7 6 11 47 30 45 16 2 1 4 64 5 2 20 18 3 0 33 138 35 8 6 6 34 125 138 8 6 9 46 100 138 138 38 4 13 7 10 18 35 56 10 5 15 7 1 12 13 0 7 12 40 21 0 0 4 32 51 1 15 32 34 3 28 48 7 0 0 3 21 6 15 29 2 
188.249 296.201 1.02506 2.56932 28 17 0 0 0 0 0 1 42 120 7 0 0 0 0 0 122 122 17 1 0 2 9 47 56 37 31 52 122 87 30 42 81 11 0 0 0 0 0 3 122 122 23 6 5 1 0 13 54 61 37 26 62 28 44 52 8 0 0 4 60 114 101 39 74 39 0 0 0 0 0 1 122 32 1 1 5 10 18 107 19 5 1 5 109 122 44 41 17 31 3 2 18 28 39 10 40 82 0 0 0 0 0 0 34 63 10 8 7 6 5 13 11 4 0 3 32 49 11 10 52 46 4 0 3 4 1 16 
187.595 302.521 1.05533 2.97025 13 8 0 0 0 0 1 16 7 50 51 8 0 0 0 2 5 10 56 60 4 0 2 1 25 17 9 8 3 3 13 21 66 65 0 0 0 0 0 2 131 131 107 34 6 1 1 20 8 33 101 131 131 7 2 5 1 0 4 51 52 3 18 10 100 52 0 0 0 0 0 4 131 56 8 8 9 16 39 131 11 5 6 70 131 103 59 44 0 0 35 75 66 4 0 0 111 27 1 0 0 0 0 22 64 48 21 27 31 10 18 33 3 0 0 14 55 65 50 9 15 11 19 19 8 7 6 5 
187.595 302.521 1.05533 5.7661 21 0 0 0 1 1 14 64 37 47 49 8 5 3 4 13 62 44 50 22 8 9 9 12 12 4 3 25 110 54 12 7 87 7 4 3 0 0 4 36 129 129 41 26 10 6 5 35 14 32 46 106 129 69 13 9 0 0 0 1 67 119 11 1 67 3 6 21 14 7 1 25 129 13 1 3 7 34 118 129 8 3 1 10 121 129 109 26 0 0 0 0 29 97 7 0 3 2 5 3 7 16 7 16 5 0 2 1 0 7 60 50 0 0 0 2 13 59 42 2 0 0 0 3 8 21 2 0 
59.6575 46.2034 1.32629 5.70002 29 42 5 0 2 4 7 12 16 35 15 38 15 1 1 20 0 0 1 86 118 7 0 0 0 0 0 42 123 3 0 0 57 28 4 9 32 9 3 14 121 36 15 26 15 4 3 39 11 11 25 123 59 0 0 1 0 0 1 123 118 0 0 0 69 25 14 52 22 6 8 20 123 28 8 28 10 13 7 26 27 3 5 80 43 68 59 9 0 0 0 77 123 59 19 0 32 3 1 4 5 7 62 112 71 17 3 10 16 23 16 38 4 1 2 47 74 123 72 4 0 0 1 17 71 104 47 0 
57.9422 49.2548 1.11593 5.70009 96 69 2 1 4 0 1 10 32 26 3 2 23 10 9 30 55 26 12 29 14 1 3 45 0 3 12 122 61 0 0 0 122 32 4 6 9 2 0 30 67 13 10 56 56 11 1 10 122 46 16 18 3 2 1 28 14 8 20 122 24 7 3 4 122 42 5 5 1 1 15 81 44 24 17 84 35 18 33 31 122 28 5 11 6 25 14 35 12 0 0 12 21 111 93 8 20 0 0 0 0 0 77 122 60 5 0 0 3 10 76 122 73 22 5 12 20 20 8 37 0 1 3 63 93 89 35 1 
66.5028 50.2256 1.37923 1.94383 3 15 16 46 19 2 0 0 61 111 1 0 0 0 0 2 78 128 21 8 0 0 0 3 15 50 29 26 8 2 0 0 7 71 13 18 41 35 11 0 95 85 57 11 0 0 0 21 128 52 13 15 3 1 2 51 23 10 13 52 49 39 4 7 75 128 21 0 0 3 3 0 38 120 128 78 0 0 0 1 98 85 73 19 14 19 10 18 9 1 0 7 63 128 22 8 128 47 0 0 0 0 0 16 83 21 33 15 13 24 4 20 11 9 27 11 40 85 8 4 8 5 10 61 68 28 2 2 
56.6606 52.5134 1.12207 4.76806 15 69 11 0 0 0 4 5 43 126 41 0 0 0 0 1 19 126 54 2 0 1 1 0 4 49 75 4 2 8 4 1 121 57 5 0 0 0 0 41 126 126 66 2 2 1 1 15 7 98 59 16 54 35 7 2 11 50 15 2 11 37 19 3 126 70 0 0 0 0 0 33 126 50 3 0 2 6 11 78 16 64 34 11 56 38 13 20 4 126 49 7 13 5 1 1 33 126 16 0 0 0 0 0 38 126 60 3 2 1 0 7 25 71 18 2 3 15 39 19 8 40 6 0 8 10 40 48 
56.6606 52.5134 1.12207 5.62883 57 29 5 0 0 0 3 47 128 54 3 3 10 3 0 14 45 12 2 11 44 18 4 13 94 40 12 17 4 0 1 16 128 29 0 0 0 0 2 48 128 79 10 17 6 2 3 36 60 28 18 98 44 8 4 6 128 31 5 9 2 7 7 15 111 11 0 0 0 0 25 86 78 11 0 1 1 3 79 128 50 11 3 16 19 21 74 97 75 14 1 3 17 44 17 29 5 0 0 0 0 0 55 63 81 0 0 0 0 0 40 128 128 37 0 0 0 0 11 71 43 42 17 41 25 7 1 7 
68.7744 54.8031 1.30585 2.09159 55 15 0 0 0 0 0 6 117 75 1 0 0 0 0 1 31 88 29 1 0 0 0 0 3 25 38 29 68 22 0 0 78 80 0 0 0 0 0 2 125 125 16 5 0 0 0 9 34 75 43 54 4 0 0 1 9 10 5 18 125 36 0 0 70 56 18 1 0 0 0 19 125 34 11 4 0 0 0 105 64 11 16 65 32 25 8 31 0 3 4 11 125 79 0 0 27 106 98 17 0 0 0 1 83 77 90 17 3 1 1 21 29 12 3 6 39 72 19 19 0 0 0 13 125 87 1 0 
93.4564 75.3642 1.12856 2.14112 24 4 2 0 0 0 10 81 137 64 3 1 0 0 5 32 137 56 0 0 4 29 10 45 3 0 0 2 37 110 8 7 84 4 0 0 0 0 1 51 137 99 0 0 1 1 1 30 75 52 0 0 43 99 3 6 0 0 0 0 25 137 14 0 101 6 0 0 0 0 0 22 137 13 0 0 0 4 6 100 38 2 0 5 74 71 17 42 0 0 0 15 88 67 4 0 80 27 0 0 0 0 0 0 137 18 0 0 0 0 4 39 18 0 0 8 11 5 19 56 1 0 0 33 111 4 0 4 
98.7438 90.8126 1.16186 5.82515 134 28 0 0 0 0 0 11 134 24 6 1 0 0 0 22 24 7 10 8 2 1 11 117 6 0 0 18 84 38 26 50 134 45 0 0 0 0 0 20 134 67 12 9 5 1 1 30 29 24 18 47 85 11 2 27 29 0 0 20 43 5 3 52 134 63 0 0 0 0 0 20 134 31 0 1 4 7 25 120 16 2 1 23 89 37 27 56 17 6 4 18 18 5 7 48 57 4 0 0 0 0 20 130 28 2 0 0 0 0 59 134 37 0 0 8 2 3 15 114 5 9 5 10 4 6 18 13 
229.454 92.9278 1.2542 0.63348 39 26 0 0 0 0 0 9 14 38 64 9 2 7 17 9 0 4 113 39 2 15 17 0 22 8 26 18 3 4 2 2 104 21 0 0 0 0 0 24 131 131 120 10 2 5 6 25 7 40 131 131 76 57 8 4 0 1 27 80 47 30 2 0 109 18 0 0 0 0 0 18 131 28 4 2 3 39 103 131 9 7 6 16 55 131 131 22 17 8 3 10 25 75 20 4 54 38 0 0 0 0 0 6 32 26 4 11 20 16 23 22 4 3 8 21 21 48 24 1 28 8 5 5 2 9 11 14 
229.454 92.9278 1.2542 4.79553 5 14 15 16 8 4 14 13 2 10 47 92 19 1 2 2 0 1 51 82 4 0 0 0 0 2 20 19 1 0 0 0 54 8 1 2 2 13 26 24 129 129 121 53 7 3 4 20 7 20 129 129 95 18 2 2 0 0 22 88 39 5 0 0 75 8 13 32 5 3 2 12 129 26 6 6 9 37 68 129 10 5 5 36 129 129 68 23 15 18 5 12 47 55 5 3 11 3 5 9 4 8 26 17 25 1 0 1 1 37 66 49 2 0 1 6 10 127 39 3 72 34 1 1 2 20 2 11 
141.694 122.387 1.22386 2.1789 17 45 6 0 0 0 0 1 24 128 78 5 0 0 0 0 0 27 126 46 0 0 0 0 7 70 44 7 0 0 0 0 122 22 0 0 0 0 0 10 128 128 53 19 6 5 3 21 15 35 83 128 106 39 5 5 34 41 14 17 17 7 1 17 94 1 0 0 0 0 0 45 128 11 1 1 4 27 82 128 14 3 1 7 72 128 101 39 66 0 0 0 9 26 9 43 12 3 0 0 1 0 0 22 24 0 0 0 0 2 34 107 23 1 0 0 0 25 44 29 56 1 0 0 0 2 3 34 
247.921 188.914 1.28984 6.09541 54 0 0 0 0 0 0 19 124 14 1 2 9 3 1 40 8 3 1 14 129 9 1 5 0 0 0 13 80 0 0 0 72 4 0 0 0 0 0 14 129 60 6 12 10 0 0 13 16 16 7 63 129 2 0 2 0 0 0 14 105 2 0 0 69 5 0 0 0 0 0 9 129 12 2 3 9 2 1 65 31 10 20 122 129 5 1 13 0 0 1 107 78 0 0 0 40 2 0 0 0 0 0 7 129 26 1 0 0 0 0 25 93 55 48 108 37 5 1 8 0 0 5 129 129 5 0 0 
172.131 226.222 1.17696 2.51101 39 17 0 0 0 0 0 2 133 76 3 2 1 1 0 4 36 15 5 16 133 37 2 5 1 2 1 3 91 12 0 0 102 14 0 0 0 0 0 10 133 133 17 16 12 4 2 19 14 34 20 80 133 27 2 3 6 6 1 9 107 4 0 0 94 5 0 0 0 0 0 28 133 15 1 1 10 40 36 133 9 3 1 6 133 133 32 22 16 26 0 2 51 25 0 0 55 21 1 0 0 0 0 3 88 7 0 0 12 29 17 36 1 5 1 2 57 82 9 3 31 73 1 0 4 6 0 0 
172.131 226.222 1.17696 5.81783 13 5 0 0 35 50 1 2 78 61 12 11 5 1 0 3 5 13 12 57 109 2 0 0 0 0 0 6 43 10 0 0 56 23 0 0 26 18 0 3 136 136 34 31 10 2 1 12 10 29 33 136 136 8 1 2 0 0 0 49 72 0 0 0 76 1 0 0 13 8 1 25 136 18 2 4 13 22 18 133 15 3 2 28 136 108 19 26 0 0 0 18 115 8 0 0 47 0 0 0 6 4 1 10 136 12 1 4 11 5 4 39 13 4 1 20 136 36 4 7 0 0 0 9 65 12 0 0 
161.872 239.735 1.13283 3.17979 33 25 0 0 0 0 0 8 20 69 51 9 0 0 0 6 0 4 47 65 10 0 0 0 0 0 0 15 27 8 0 0 97 67 0 0 0 0 0 1 125 125 89 33 6 3 2 16 4 17 75 125 125 13 2 3 0 0 0 34 107 9 0 0 125 10 0 0 0 0 0 25 125 21 4 4 7 25 41 125 5 3 3 27 125 125 38 23 0 0 0 7 125 22 0 0 72 0 0 0 0 0 0 19 88 5 2 0 1 8 13 64 2 4 9 28 81 44 13 9 0 0 0 15 92 8 0 0 
161.872 239.735 1.13283 6.12024 51 28 0 0 0 0 0 0 100 81 9 2 0 0 2 14 6 19 16 34 66 14 7 6 0 0 0 6 103 8 0 0 120 41 0 0 0 0 0 3 126 126 35 17 5 3 3 23 7 36 43 119 126 26 3 4 0 0 0 9 126 18 0 0 96 22 0 0 0 0 0 24 126 17 2 2 4 23 74 126 6 3 2 13 126 126 81 30 0 0 0 0 79 82 1 0 21 4 0 0 0 0 0 18 9 1 0 0 0 8 50 62 0 0 0 3 23 93 47 6 0 0 0 0 15 37 1 0 
114.893 259.191 1.1544 0.476866 6 5 3 2 2 4 3 7 3 24 57 21 0 0 0 0 0 1 58 44 2 0 0 0 0 0 8 21 3 0 0 0 64 34 1 0 0 0 0 8 129 129 129 29 4 3 3 22 7 28 129 129 100 19 4 4 0 0 6 67 63 3 0 0 56 5 8 21 11 0 1 33 129 29 6 5 5 21 114 129 8 5 7 42 129 129 129 35 0 0 6 25 85 33 1 0 1 0 1 25 62 7 5 10 3 0 1 4 3 2 81 63 21 2 1 0 2 28 83 26 9 3 9 15 13 7 2 2 
114.893 259.191 1.1544 2.48884 13 26 7 0 0 0 0 0 13 76 61 2 0 0 0 0 12 16 58 38 8 5 4 3 0 0 0 7 13 31 16 2 86 31 0 0 0 0 0 5 131 131 103 22 5 5 7 32 7 35 118 131 131 42 8 6 2 1 0 45 97 14 2 1 70 6 0 0 0 0 0 28 131 22 3 3 4 29 131 131 6 5 4 20 106 131 131 27 2 29 9 7 64 51 1 0 21 3 0 0 0 0 0 6 5 0 0 0 3 14 54 28 2 1 0 0 1 41 56 7 32 35 3 0 0 6 7 22 
123.155 295.065 1.28639 2.3829 1 7 0 0 3 4 0 0 2 61 56 2 0 0 0 0 1 15 84 42 1 0 0 1 1 4 3 10 5 5 0 0 54 29 0 0 4 2 0 3 134 134 108 23 6 5 7 36 10 47 134 134 134 36 8 7 0 1 13 52 61 5 0 0 52 4 1 1 1 0 0 24 134 26 4 3 5 25 124 134 13 10 5 22 127 134 134 41 7 38 35 23 45 21 1 0 8 3 3 0 0 0 0 3 15 18 5 0 0 1 29 34 20 22 10 0 0 15 43 11 36 31 7 7 6 11 19 21 
70.8353 30.5087 1.69268 2.02732 1 2 0 0 0 5 13 9 3 29 21 7 5 3 9 7 38 19 27 43 10 0 0 10 118 118 53 30 18 22 49 118 20 29 4 0 0 0 1 4 116 118 64 24 6 3 4 22 14 31 76 118 106 13 4 13 74 21 5 27 22 11 53 118 21 10 7 7 4 4 1 10 106 18 2 4 7 17 89 118 12 4 7 34 92 88 118 46 87 57 24 19 15 3 2 5 5 0 0 2 13 17 2 4 6 3 0 2 5 10 34 23 42 16 1 0 0 3 38 28 118 118 1 0 0 0 0 8 
70.8353 30.5087 1.69268 4.81502 0 0 0 0 70 127 27 5 1 3 20 25 52 66 9 4 0 1 22 41 14 21 4 0 11 12 5 4 1 4 1 3 35 3 7 31 60 102 16 19 127 97 86 45 13 6 8 31 6 19 84 127 117 25 3 3 7 20 10 16 21 2 1 3 37 3 22 122 127 66 12 23 127 18 4 4 11 44 90 127 6 4 3 18 110 127 77 17 2 0 0 1 18 22 17 5 11 0 0 2 47 96 39 9 19 5 2 6 2 10 27 30 0 1 10 11 2 28 25 2 0 0 2 7 6 6 4 0 
46.2767 44.4931 1.28684 5.50828 80 7 0 0 0 0 0 14 133 80 0 0 0 0 0 7 64 129 19 18 7 1 0 0 0 4 19 95 28 1 0 0 102 21 0 0 0 0 0 16 133 99 0 0 0 0 1 24 88 60 1 2 21 35 13 16 4 12 5 10 43 31 0 0 118 10 0 0 0 0 1 54 133 16 0 0 0 0 9 133 57 23 1 0 3 22 51 111 9 66 15 3 5 13 3 1 82 60 1 0 0 0 0 9 122 100 0 0 0 0 0 33 99 119 1 0 2 1 1 19 40 45 9 5 2 1 1 14 
69.0562 44.1389 1.65268 2.66112 2 8 11 1 4 4 2 2 80 7 16 2 0 0 0 27 123 13 1 0 0 0 2 123 38 12 11 11 22 7 11 123 57 75 43 8 2 3 6 20 52 33 73 69 38 21 9 11 123 123 15 3 3 1 0 46 64 123 31 11 16 2 2 44 39 8 7 3 1 6 41 69 47 4 3 11 28 58 76 46 123 31 2 0 2 2 2 123 49 32 10 6 25 6 16 123 3 9 32 26 2 0 3 2 13 5 9 15 2 0 6 16 90 2 0 0 0 0 0 123 79 0 0 0 2 1 7 123 
194.882 136.629 1.56368 4.79875 52 0 0 0 0 0 0 46 124 31 9 8 5 0 0 37 6 14 37 113 36 0 0 1 0 10 93 40 7 0 0 0 84 0 0 0 0 0 0 33 147 77 14 8 9 0 0 15 34 35 37 81 132 14 2 4 6 9 36 27 49 22 10 20 92 5 0 0 0 0 0 14 147 9 0 0 12 8 5 69 44 2 0 7 147 71 10 24 0 0 0 2 55 122 24 11 48 41 1 0 0 0 0 0 147 21 0 0 0 16 28 50 15 1 1 4 39 126 43 19 0 1 2 30 60 53 0 0 
162.747 145.366 1.44103 4.36022 10 11 0 0 0 3 6 3 91 70 2 1 0 0 0 20 25 23 5 11 67 9 0 4 0 0 0 0 63 35 0 0 55 27 0 0 0 0 0 0 134 134 13 12 3 0 0 10 14 35 19 91 134 2 0 2 0 0 0 9 120 21 0 0 72 23 0 0 0 0 0 3 134 44 1 4 5 0 0 61 44 11 2 51 134 2 0 18 0 0 0 9 134 14 0 0 63 44 0 0 0 0 0 0 134 134 4 5 4 0 0 2 26 41 9 40 134 3 0 0 0 0 0 9 134 2 0 0 
148.775 155.264 1.71648 5.98807 48 0 0 0 0 0 0 51 130 18 13 4 0 0 0 61 17 8 44 64 13 10 0 1 0 2 48 29 6 17 17 5 70 14 0 0 0 0 0 10 134 97 4 4 9 1 0 35 31 26 8 21 134 101 2 5 0 0 0 5 27 115 56 12 56 10 0 0 0 0 0 24 134 63 1 1 12 3 2 134 30 14 2 39 134 39 5 37 0 0 0 31 83 20 2 1 47 80 0 0 0 0 0 4 92 134 14 8 30 10 3 14 8 28 9 12 134 76 0 2 0 0 0 3 59 27 0 0 
239.217 163.23 1.56652 5.49304 73 34 1 0 0 0 14 30 62 25 2 0 0 12 70 62 14 1 1 11 99 122 40 28 0 0 0 14 111 58 0 0 55 2 0 0 0 13 47 41 122 72 16 8 2 6 60 43 13 27 28 122 95 44 9 6 0 0 18 119 47 12 0 0 53 1 0 0 5 38 28 27 122 19 1 1 8 22 11 83 22 5 3 19 108 122 21 21 0 0 14 46 18 26 41 19 50 41 2 0 0 4 18 10 122 21 0 0 7 33 19 33 4 0 0 0 54 122 37 11 0 0 0 0 3 26 105 23 
312.238 173.77 1.45508 1.90825 13 36 5 2 0 0 0 0 16 117 74 3 0 0 0 0 53 57 50 20 4 7 11 10 5 6 4 16 24 31 15 4 117 35 0 0 0 0 0 2 118 118 73 29 6 1 2 17 10 23 66 118 116 10 6 6 0 13 7 19 36 20 8 0 111 16 2 0 0 0 1 26 118 14 2 4 6 9 104 118 8 2 2 31 118 118 118 37 0 1 0 5 38 95 20 0 9 0 1 5 4 0 8 24 3 0 0 0 0 2 110 56 3 1 0 0 2 33 118 32 0 0 0 0 5 45 12 1 
312.238 173.77 1.45508 4.70562 2 45 39 0 0 0 0 0 1 60 91 35 2 0 0 0 0 1 72 107 6 2 0 0 3 2 16 30 2 0 0 0 33 52 30 1 0 4 7 4 122 122 88 41 9 4 2 14 8 17 86 122 122 34 1 3 0 0 4 54 81 27 1 0 38 16 33 7 5 7 9 11 122 13 4 5 13 41 84 122 7 2 1 13 122 122 59 21 0 0 0 0 70 81 1 0 11 9 14 10 22 64 20 11 1 0 0 2 13 67 112 30 0 0 0 0 12 113 75 5 0 2 1 1 13 20 2 1 
246.311 181.456 1.45177 2.78188 89 10 0 0 0 0 0 3 133 21 0 0 3 6 3 23 49 1 0 2 133 97 7 15 0 0 0 1 122 32 0 0 133 9 0 0 0 0 0 9 133 50 0 3 14 7 3 16 22 7 0 12 133 60 4 6 0 0 0 11 124 10 0 0 120 7 0 0 0 0 0 30 133 8 0 0 6 22 30 126 5 0 0 1 133 114 25 15 0 0 0 2 94 17 0 0 41 62 0 0 0 0 0 5 42 42 3 2 6 9 7 33 1 0 0 1 50 74 7 5 0 0 2 3 31 19 0 0 
246.311 181.456 1.45177 6.12783 45 18 0 0 0 2 4 3 57 41 10 13 6 4 1 5 0 2 7 59 64 41 0 1 0 0 0 14 46 23 0 0 105 8 0 0 0 0 0 11 137 80 31 23 5 0 0 7 7 16 33 137 137 1 0 1 0 0 0 60 100 0 0 0 92 0 0 0 0 0 0 36 137 23 3 5 12 2 0 64 26 9 4 51 137 6 1 10 0 0 0 36 137 0 0 0 68 3 0 0 0 0 0 15 137 39 4 8 5 0 0 23 38 18 7 94 137 0 0 4 0 0 0 44 128 0 0 0 
145.398 190.106 1.48717 0.090921 44 26 0 0 0 0 0 2 121 121 1 0 0 0 1 25 27 54 11 42 110 2 4 12 0 0 0 41 121 0 0 0 36 3 0 0 0 0 0 33 93 12 0 0 0 0 23 121 52 35 6 34 66 7 33 110 0 2 2 97 121 0 0 0 3 0 0 0 0 0 1 17 121 23 0 0 0 0 3 74 121 113 20 26 38 21 40 88 0 4 6 74 121 24 12 1 3 0 0 0 0 0 0 4 43 0 0 0 0 0 2 66 35 1 0 0 4 15 90 121 1 0 0 18 52 23 35 40 
254.883 205.022 1.71178 3.01858 1 0 0 3 1 3 56 27 9 24 13 14 6 17 40 7 4 14 30 30 6 3 6 5 0 0 0 5 9 21 15 3 18 5 0 1 4 5 13 10 123 123 20 9 3 0 5 15 14 46 41 117 97 0 0 3 0 0 0 31 61 9 1 0 35 8 0 0 0 1 7 15 123 61 3 4 2 0 0 79 61 36 18 123 123 0 0 26 0 0 0 59 121 1 0 0 42 6 0 0 0 0 0 17 123 102 4 0 0 0 0 45 99 95 43 123 123 11 7 28 0 0 0 87 123 2 0 0 
158.498 220.29 1.60482 2.8392 22 11 0 4 60 24 3 1 137 65 7 9 14 4 0 2 15 9 5 31 137 29 0 1 0 0 0 2 46 6 0 0 59 21 2 6 17 11 2 2 137 137 26 41 22 3 1 13 15 24 21 137 137 12 1 3 0 0 0 24 71 3 0 0 48 4 5 19 23 2 0 16 137 13 1 4 17 34 44 137 14 2 1 28 137 137 43 29 0 0 0 14 90 20 0 0 9 0 0 2 35 6 0 6 26 1 0 0 2 16 40 67 0 0 0 2 29 102 39 9 0 0 0 2 28 19 0 0 
158.498 220.29 1.60482 5.84723 22 20 0 0 0 0 0 0 27 110 38 4 0 0 0 0 3 24 51 58 24 1 0 1 21 8 0 6 14 2 0 0 88 19 0 0 0 0 0 8 138 138 41 22 12 3 1 17 17 44 50 138 138 21 1 3 28 7 0 15 54 5 2 12 85 10 0 0 0 0 0 12 138 23 1 2 16 35 24 129 20 4 1 9 138 138 25 29 12 11 2 2 46 25 3 11 66 23 0 0 0 0 0 1 128 51 1 1 31 26 8 21 7 3 0 0 106 100 6 5 47 42 7 7 10 10 0 1 
232.387 272.584 1.55132 5.87746 2 5 30 40 13 9 19 9 61 56 12 13 5 2 3 9 106 24 11 4 8 44 31 64 2 0 0 0 30 125 21 5 42 9 0 3 6 11 53 45 125 125 49 21 8 4 3 13 16 39 57 116 125 26 11 11 0 0 0 5 68 71 11 0 81 1 0 0 0 0 0 50 125 22 3 4 8 13 28 125 17 5 4 30 125 105 42 43 0 0 0 2 125 36 0 0 20 0 0 0 0 0 0 33 49 0 0 0 0 2 19 125 3 0 0 0 41 73 44 45 0 0 0 0 66 33 0 0 
123.872 112.98 1.9705 2.54885 36 3 0 0 0 0 7 23 54 45 14 6 2 0 1 9 3 7 12 38 79 10 0 1 0 0 0 10 61 6 0 0 97 20 0 0 0 0 0 3 129 129 49 30 8 1 0 8 8 22 45 129 129 8 0 2 0 0 0 32 101 3 0 0 116 11 0 0 0 0 0 12 129 21 2 4 14 18 15 129 14 3 2 24 129 113 17 32 0 0 0 3 113 31 0 0 74 10 0 0 0 0 0 6 124 49 3 5 5 4 4 37 9 10 3 55 129 26 5 9 0 0 0 19 81 6 0 0 
123.872 112.98 1.9705 5.64321 73 9 0 0 0 0 0 11 129 33 4 7 6 7 3 45 9 6 4 32 113 58 3 8 0 0 0 5 79 16 0 0 106 37 0 0 0 0 0 2 129 129 16 28 14 4 2 22 15 22 15 127 129 25 2 4 0 0 0 11 118 15 0 0 106 4 0 0 0 0 0 29 129 10 0 2 8 24 45 129 8 1 0 7 129 129 48 29 0 0 0 2 92 25 0 0 66 11 0 0 0 0 0 7 72 13 0 1 4 9 13 34 1 0 1 8 56 50 13 5 0 0 4 19 36 4 0 0 
150.283 165.745 1.84746 0.178774 74 0 0 0 0 0 2 121 58 4 2 42 39 2 16 129 3 2 0 129 116 0 0 2 0 0 0 27 33 0 0 0 68 5 0 0 0 0 0 54 129 67 8 17 14 4 4 73 25 17 9 100 129 20 2 6 0 0 0 22 91 3 0 0 72 4 0 0 0 0 0 17 129 13 0 1 6 18 33 129 13 2 0 8 129 129 39 36 0 0 0 1 77 32 0 0 30 8 0 0 0 0 0 3 105 40 3 1 1 1 4 39 18 12 7 32 88 21 6 10 0 0 0 8 49 8 0 0 
251.714 196.124 1.93585 2.77142 27 11 0 0 0 0 0 7 123 70 5 4 2 0 0 0 22 21 10 40 111 0 0 0 0 0 0 4 64 11 0 0 82 19 0 0 0 0 0 7 135 135 19 15 9 2 1 13 17 40 24 93 135 12 1 2 0 0 0 6 108 12 0 0 83 1 0 0 0 0 0 26 135 18 2 2 14 15 12 135 21 4 2 12 135 86 14 31 0 0 0 1 106 17 0 0 54 2 0 0 0 0 0 6 135 7 0 0 7 7 2 39 25 0 0 0 135 55 3 13 0 0 0 0 59 15 0 0 
251.714 196.124 1.93585 5.92812 63 14 0 0 0 0 0 0 135 51 3 14 27 0 0 0 6 6 2 42 135 6 0 0 0 0 0 6 51 1 0 0 109 15 0 0 0 0 0 2 135 81 14 33 21 4 2 12 13 15 12 135 135 18 2 2 0 0 0 28 81 1 0 0 107 11 0 0 0 0 0 7 135 11 1 2 17 38 24 97 10 2 1 14 135 135 19 15 0 0 0 7 82 19 0 0 63 10 0 0 0 0 0 4 112 0 0 0 20 20 10 42 3 0 0 1 125 67 5 5 0 0 0 7 28 10 0 0 
232.47 272.805 1.67127 5.81682 6 9 23 21 7 4 17 18 53 60 11 13 5 1 4 3 123 40 8 3 2 34 28 37 6 1 0 0 5 123 30 5 54 7 0 1 2 3 37 69 123 123 37 14 5 2 4 17 17 45 44 79 123 37 11 9 0 0 0 2 62 109 13 0 90 1 0 0 0 0 0 54 123 19 2 3 5 12 28 123 13 4 2 17 123 123 41 40 0 0 0 0 113 63 1 0 29 0 0 0 0 0 0 29 57 0 0 0 0 3 20 123 2 0 0 0 39 85 40 36 0 0 0 0 58 38 0 0 
62.172 46.1701 2.61422 2.34312 16 23 23 2 0 0 0 1 131 55 9 1 0 0 0 5 96 44 9 40 105 3 0 8 0 0 0 55 131 0 0 0 40 23 17 7 0 1 13 35 131 131 10 3 0 1 4 21 66 65 9 39 101 13 1 12 0 0 0 129 131 4 0 0 54 4 4 11 5 4 7 17 131 24 0 0 0 2 3 76 43 8 2 8 60 56 9 33 0 0 0 23 131 40 0 0 52 3 0 0 0 2 7 9 131 12 0 0 0 0 1 53 26 1 0 8 25 17 9 35 0 0 0 23 131 17 0 0 
70.1712 48.192 2.7808 2.55877 10 2 0 0 0 0 0 4 127 6 0 0 0 0 0 27 119 51 24 63 21 0 0 6 0 2 7 127 100 0 0 0 10 15 5 1 1 0 0 2 127 33 24 1 0 0 0 29 127 46 6 29 29 1 0 65 9 5 4 127 127 1 0 5 27 20 9 3 0 0 3 14 105 44 25 6 1 3 25 50 127 103 4 8 13 4 3 75 7 9 3 101 110 13 1 6 13 13 11 6 2 2 5 9 67 1 5 10 4 4 11 44 127 1 0 0 3 5 5 127 9 0 0 12 65 20 6 19 
147.143 184.564 2.46609 0.135703 15 7 0 0 0 0 0 0 73 54 7 3 1 2 3 23 10 15 11 35 67 23 5 9 0 0 0 4 30 6 0 0 43 29 0 0 0 0 0 0 128 128 25 19 6 0 0 13 13 46 34 128 128 0 0 3 0 0 0 30 62 0 0 0 48 10 0 0 0 0 0 21 128 28 1 6 7 0 1 128 63 8 3 128 128 5 3 49 0 0 0 74 105 0 0 0 5 0 0 0 0 0 1 13 104 0 0 0 0 0 8 128 46 1 0 30 85 28 67 128 0 0 0 63 97 8 5 2 
147.143 184.564 2.46609 2.94307 73 1 0 0 0 0 0 7 152 53 22 34 14 4 0 7 13 13 19 140 152 16 0 1 0 0 0 15 44 0 0 0 102 6 0 0 0 0 0 2 152 29 1 9 35 16 3 15 29 5 1 62 152 64 2 6 0 0 0 16 73 9 0 0 93 18 0 0 0 0 0 4 152 14 0 1 8 75 64 71 8 0 0 7 103 152 39 8 0 0 0 1 30 45 1 0 32 68 5 2 0 0 0 1 20 22 8 16 48 51 20 12 0 0 0 0 22 88 8 0 0 0 0 0 1 10 0 0 
34.4224 18.7266 3.04452 2.50298 36 2 0 0 0 0 3 71 138 5 0 0 1 3 17 138 36 1 0 0 65 138 47 61 0 0 0 0 100 107 0 0 66 26 0 0 0 0 0 2 138 56 0 1 14 7 2 18 51 12 0 3 138 113 4 7 0 0 0 0 68 111 0 0 52 18 1 0 0 0 0 11 138 8 0 0 5 29 48 113 13 0 0 0 90 138 49 21 0 0 0 0 45 66 1 0 15 0 0 0 0 0 0 7 19 0 0 0 0 10 36 37 0 0 0 0 12 59 27 3 0 0 0 1 22 20 0 0 
73.2222 49.2107 3.30438 2.56662 6 0 0 2 9 0 0 4 114 2 0 0 0 0 0 33 95 29 17 70 29 0 0 13 0 1 5 111 65 0 0 0 4 4 0 3 11 1 0 0 136 26 3 0 0 0 0 22 136 47 14 52 24 0 0 30 12 6 7 136 136 0 0 1 11 11 2 7 3 0 0 1 93 63 10 0 0 0 2 34 136 70 3 11 12 1 1 56 24 10 2 136 135 4 1 7 14 10 3 1 0 0 3 6 46 7 6 4 2 4 8 40 136 4 0 0 2 3 4 136 18 0 0 19 90 14 7 33 
67.3977 56.898 3.60806 2.57706 71 0 0 0 0 0 0 31 66 8 6 52 54 0 0 23 0 0 2 82 66 0 0 0 0 1 1 2 2 0 0 0 83 5 0 0 0 0 0 20 138 45 20 64 19 0 0 25 12 10 13 138 138 0 0 1 0 10 8 28 13 0 0 0 55 44 6 0 0 0 0 13 138 60 5 16 13 0 0 44 43 12 4 138 138 1 0 7 0 10 20 105 48 2 0 0 29 12 5 2 0 1 4 25 138 15 0 1 2 2 4 121 31 4 0 41 122 15 7 38 0 0 0 52 129 5 0 0 
67.3977 56.898 3.60806 5.24551 19 9 5 0 0 2 15 14 142 78 1 0 0 0 1 21 49 46 8 18 111 31 1 1 0 0 2 8 142 43 0 0 39 1 0 0 0 4 16 19 142 29 0 0 8 11 3 41 66 12 0 2 139 142 12 6 0 0 0 13 97 79 17 1 57 3 0 0 0 0 2 3 142 13 0 0 12 40 16 51 20 1 0 0 142 142 19 14 0 0 0 0 26 48 22 0 44 13 0 0 0 0 0 0 120 27 0 0 26 20 4 14 2 0 0 0 100 69 3 2 4 2 0 0 13 7 0 0 
59.4033 61.7946 3.48333 5.2242 1 5 5 2 0 0 6 2 40 30 13 0 0 0 7 9 141 114 2 1 0 0 0 2 26 31 7 28 91 14 0 0 0 0 0 0 0 7 36 4 96 6 0 0 0 5 25 50 141 60 1 0 6 13 2 39 28 18 3 9 141 135 6 2 0 0 0 0 0 5 9 2 141 11 0 0 0 0 4 11 141 33 0 0 32 60 14 37 9 1 0 0 125 141 18 3 1 0 0 0 0 1 0 0 110 13 0 0 0 0 0 4 133 8 0 0 28 58 18 41 0 0 0 0 81 92 5 1 
59.7047 48.6567 6.88886 2.41154 21 9 0 1 21 10 3 9 130 27 5 22 41 10 3 45 7 7 5 69 131 10 1 2 13 12 3 3 3 0 0 0 38 18 0 0 10 14 8 3 144 129 14 51 31 0 0 9 29 28 21 144 144 1 0 2 1 17 25 24 15 0 0 0 41 4 0 0 0 0 2 31 144 16 0 6 24 12 11 144 36 3 1 47 144 73 18 46 1 0 4 10 52 10 4 3 9 3 0 0 0 0 0 9 109 4 0 0 1 14 14 93 15 0 0 0 58 131 23 32 3 0 0 0 14 24 8 7 
59.7047 48.6567 6.88886 5.28254 3 7 5 10 7 1 0 2 33 145 26 9 2 0 0 0 2 60 36 53 107 14 0 0 0 0 0 5 38 17 0 0 30 10 0 1 0 1 11 15 148 138 13 16 26 7 2 21 34 38 17 86 148 42 0 2 0 0 0 20 73 6 0 0 38 0 0 0 1 12 26 21 148 7 0 0 28 66 21 110 27 3 0 1 148 148 12 18 1 6 10 7 31 23 0 0 34 18 0 1 5 4 0 1 136 53 3 9 46 29 6 25 10 12 2 9 100 69 4 4 8 18 10 1 2 15 2 0 
100.638 87.4989 6.50021 5.58583 31 0 0 0 7 11 6 26 138 9 2 11 46 22 12 127 20 7 4 58 138 28 4 8 27 12 3 4 12 17 1 2 41 9 1 11 10 1 0 2 138 94 9 33 23 2 1 19 39 27 15 138 138 8 1 4 3 4 7 42 53 9 0 0 28 2 0 4 4 13 3 14 138 15 0 2 11 21 22 138 26 3 1 31 134 138 39 50 0 0 0 26 60 32 13 2 10 0 0 0 2 5 1 3 122 2 0 0 5 7 6 52 28 0 0 0 69 63 12 20 12 1 0 2 30 11 6 4 
