368.699 92.1847 0.920304 0.727586 10 11 8 0 1 3 1 1 15 75 63 6 0 0 0 0 1 24 77 73 18 1 1 0 2 4 1 10 11 6 16 1 56 18 1 4 8 9 1 5 138 138 58 23 8 7 10 43 11 59 77 138 138 53 10 7 0 0 0 24 100 16 8 0 32 2 1 11 9 5 1 27 136 20 2 3 6 30 133 138 8 4 2 14 126 138 138 37 0 0 0 4 56 46 0 0 1 0 1 14 18 5 3 3 3 6 1 3 7 5 33 40 4 20 15 7 5 27 30 10 0 1 15 28 7 4 0 0 
368.699 92.1847 0.920304 4.4519 0 2 3 3 44 36 11 1 4 19 52 7 7 3 2 5 6 3 40 20 0 0 8 14 11 4 0 2 0 0 9 15 50 20 1 0 2 10 19 9 136 136 136 34 5 2 2 20 8 32 136 136 121 10 3 4 12 1 1 38 35 1 4 7 66 3 0 0 0 0 1 36 136 43 9 8 8 19 65 136 10 7 10 59 136 136 84 60 2 1 1 26 71 25 2 0 5 9 4 0 0 0 0 13 13 13 1 0 1 3 36 103 0 0 0 1 12 76 75 28 0 1 1 2 9 32 9 0 
292.969 107.706 1.08322 1.81939 38 15 1 2 0 0 0 5 78 54 9 0 0 0 0 14 10 19 24 33 14 12 8 6 0 1 8 22 21 13 4 1 70 23 0 0 0 0 0 10 133 133 56 9 4 6 5 31 17 72 112 133 115 65 6 6 0 1 4 35 60 61 4 0 50 2 0 0 0 0 2 35 133 24 3 1 3 34 111 133 15 7 4 9 72 133 133 37 0 0 0 0 27 133 30 0 6 0 0 0 0 0 6 31 8 0 0 0 3 20 76 41 0 0 0 0 1 60 94 4 0 0 0 0 0 26 21 0 
292.969 107.706 1.08322 5.84509 18 20 4 0 0 0 0 7 9 44 59 17 0 0 0 1 0 4 48 37 0 0 0 0 0 0 5 19 9 1 0 0 83 69 0 0 0 0 0 2 130 130 130 60 7 2 1 14 7 17 127 130 96 9 1 3 0 0 10 78 24 0 0 0 130 30 0 0 0 0 0 15 130 35 8 11 11 31 62 130 10 4 12 75 130 128 71 33 0 0 18 89 44 2 0 0 71 7 1 0 0 0 0 14 43 1 0 0 1 10 43 59 11 4 0 2 7 26 55 24 11 17 25 31 7 1 1 3 
249.504 108.469 1.01177 2.87649 45 33 0 0 0 0 0 0 31 112 31 0 0 0 0 0 64 91 41 3 0 0 1 10 70 42 30 25 14 22 38 44 89 76 0 0 0 0 0 0 118 118 45 10 3 0 0 11 13 35 67 66 91 22 8 11 7 0 0 2 35 116 118 28 46 118 20 0 0 0 0 1 118 50 9 3 6 3 5 87 18 3 3 45 118 26 10 37 0 0 0 44 118 50 9 0 15 98 18 4 9 1 0 0 18 13 8 6 22 8 20 47 4 0 0 8 53 76 53 39 0 0 0 19 107 73 1 0 
249.504 108.469 1.01177 5.90414 115 54 1 0 0 0 0 14 80 89 46 31 4 0 0 7 19 11 24 62 20 6 5 3 20 5 0 0 5 66 25 6 120 77 30 0 0 0 0 17 120 47 8 26 19 4 3 26 9 6 5 70 120 52 11 2 0 0 0 0 32 120 43 0 21 79 120 48 23 3 1 3 77 24 6 8 15 39 77 66 3 0 0 8 120 120 46 10 0 0 0 0 63 101 4 0 6 7 14 31 78 78 40 21 0 0 0 3 35 95 60 3 0 0 0 0 31 116 32 0 0 0 0 0 32 40 0 0 
183.069 123.137 1.1061 1.09452 15 20 1 0 0 0 0 3 22 95 29 0 0 0 0 1 68 127 14 0 0 0 0 0 86 115 2 2 50 42 0 0 48 6 0 0 0 0 0 12 127 120 14 0 0 0 0 24 82 127 20 0 0 7 18 31 21 51 0 3 127 120 15 4 41 4 0 0 0 0 0 9 127 14 0 0 0 0 6 127 76 13 0 0 0 8 60 127 8 4 6 37 78 58 30 12 24 6 0 0 0 0 0 2 122 22 0 0 0 0 0 24 120 8 0 0 0 0 11 55 13 6 4 14 28 13 38 24 
175.5 135.502 0.983159 4.02924 65 14 0 0 0 0 0 1 132 93 0 0 0 0 0 0 46 46 5 9 43 39 4 3 0 0 0 7 132 39 0 0 113 23 0 0 0 0 0 4 132 87 3 7 6 0 0 10 24 22 4 33 132 36 1 2 0 0 0 2 132 51 0 0 123 1 0 0 0 0 0 12 132 9 0 2 7 0 0 41 46 3 0 53 132 8 0 10 0 0 0 53 132 7 0 0 75 0 0 0 0 0 0 22 132 7 0 0 0 3 5 58 29 2 2 19 73 54 12 17 0 0 6 77 51 5 0 0 
381.027 136.472 0.943574 1.8609 2 10 0 0 0 0 0 0 4 75 54 3 0 0 0 0 0 11 87 58 1 0 0 0 0 2 7 23 2 0 0 0 54 30 0 0 0 0 0 2 132 132 92 18 4 3 5 27 11 46 132 132 132 35 6 6 0 0 3 65 86 8 0 0 64 3 0 0 0 0 0 25 132 24 3 2 4 19 106 132 10 5 4 20 126 132 132 39 0 0 0 6 79 57 0 0 9 1 5 1 0 0 0 9 14 1 0 0 0 2 43 53 1 1 0 2 9 39 59 5 0 0 0 3 9 15 1 2 
151.185 142.757 0.883354 0.904727 5 15 0 0 0 0 0 0 18 113 29 0 0 0 0 0 43 79 38 8 6 2 0 0 4 5 0 5 68 17 0 0 69 50 0 0 0 0 0 0 128 128 83 11 1 1 0 11 9 49 120 128 54 6 0 3 0 0 1 94 81 2 0 0 119 15 2 0 0 0 0 9 128 27 4 3 2 7 17 128 17 6 6 50 94 60 32 45 0 0 0 63 128 2 0 0 40 38 10 0 0 0 0 2 128 10 0 0 0 0 3 63 53 10 4 11 14 8 8 29 0 1 2 34 128 3 0 0 
26.5232 146.419 1.10322 0.696389 7 18 5 0 0 0 0 0 2 14 46 14 0 0 0 0 0 0 20 33 1 0 0 0 0 0 1 6 1 0 0 0 45 9 1 0 0 0 0 13 102 67 73 27 0 0 0 10 7 12 61 141 11 0 0 0 0 0 9 71 3 0 0 0 43 0 0 0 0 0 1 12 141 25 10 8 0 0 0 54 101 46 85 141 20 0 0 8 0 0 14 141 60 0 0 0 26 2 0 0 0 0 0 3 141 4 0 0 0 0 0 90 141 22 18 73 55 6 5 129 1 0 2 141 141 12 2 4 
26.5232 146.419 1.10322 2.89167 21 7 0 0 0 0 0 2 141 101 0 0 0 0 0 4 141 141 9 3 22 71 19 20 1 14 9 13 134 141 3 0 44 10 0 0 0 0 0 2 141 61 0 0 0 6 9 25 104 13 0 0 8 141 86 46 0 0 0 0 39 141 13 0 38 5 0 0 0 0 0 11 102 9 0 0 0 28 42 96 7 0 0 0 5 141 46 15 0 0 0 0 2 77 5 0 7 0 0 0 0 0 0 11 9 0 0 0 0 13 27 32 0 0 0 0 5 45 13 2 1 1 1 2 1 4 0 0 
238.948 148.603 0.939457 4.64683 47 6 1 1 1 0 0 2 124 94 16 2 0 0 0 0 7 35 47 60 28 2 0 0 8 7 20 26 15 5 2 8 83 10 0 6 5 0 0 2 133 133 18 13 5 2 2 20 24 49 30 120 133 16 3 6 9 2 10 33 65 11 6 26 59 0 0 1 8 5 3 21 133 12 1 1 3 9 55 133 16 4 4 38 105 69 112 73 1 2 61 63 30 3 3 8 8 0 0 0 0 3 9 18 19 0 0 0 0 0 40 132 0 0 0 0 0 3 76 133 1 1 8 5 3 3 24 78 
22.0112 151.272 1.05093 0.30585 2 3 0 0 0 0 1 1 70 32 0 0 0 0 0 0 139 105 15 24 6 0 0 0 4 14 13 117 81 0 0 0 6 14 1 0 0 0 0 0 139 29 0 0 0 0 0 0 139 97 12 17 19 3 0 8 21 16 12 89 139 9 0 2 13 8 0 0 0 0 0 2 131 13 0 0 0 0 0 14 139 2 0 0 12 28 33 120 14 0 0 1 139 139 28 18 6 0 0 0 0 0 0 14 37 1 0 0 0 0 0 43 38 0 0 0 0 16 53 99 0 0 0 0 24 96 39 7 
233.742 173.37 1.03073 1.19774 22 2 0 0 0 0 19 34 47 39 13 0 0 0 11 32 56 21 26 7 0 0 0 48 28 0 1 1 1 1 10 75 56 26 6 18 8 2 6 12 134 134 76 13 6 6 7 38 17 66 116 110 123 64 10 13 7 0 0 7 30 32 91 55 59 11 0 4 13 22 5 18 134 35 3 3 5 35 84 134 10 7 5 14 98 134 96 40 0 0 1 5 29 77 37 13 19 40 10 5 1 3 1 1 35 68 30 9 1 4 16 26 0 16 89 25 8 35 19 4 0 6 70 71 7 6 2 0 
233.742 173.37 1.03073 4.97673 1 7 9 8 21 97 30 1 2 11 26 30 67 33 14 1 12 4 20 56 33 2 1 2 15 9 2 10 12 3 5 8 55 14 0 0 2 63 37 10 129 129 122 56 9 6 7 17 9 21 106 129 129 16 3 6 3 3 9 39 41 6 15 10 85 35 22 0 0 0 5 12 129 39 13 8 11 37 63 129 9 5 9 64 129 129 56 25 0 13 35 41 47 6 0 0 5 88 74 1 0 0 0 0 11 27 66 35 1 6 15 17 0 0 28 67 17 24 12 2 0 2 20 52 5 0 0 0 
300.753 175.421 0.950833 1.38123 5 1 0 1 2 3 14 10 2 46 19 4 9 3 3 0 1 55 44 20 4 0 0 0 2 27 14 20 7 0 0 0 39 21 0 0 0 0 20 11 126 126 88 9 3 3 5 22 12 61 126 126 108 28 4 6 71 126 52 21 32 4 1 10 56 22 4 0 0 0 0 9 126 34 6 2 3 25 57 126 17 8 8 18 105 126 80 50 120 46 7 2 21 32 58 126 30 4 6 4 1 0 0 5 62 11 0 0 10 13 13 28 1 0 0 7 54 63 16 8 4 11 5 5 7 6 25 58 
300.753 175.421 0.950833 2.20293 31 11 5 2 0 0 0 0 33 35 35 11 0 0 0 1 120 39 29 25 0 0 4 44 109 68 34 32 37 55 84 87 42 10 3 8 4 5 1 5 120 120 57 22 4 3 6 33 24 36 75 120 120 23 23 38 10 0 0 16 45 56 120 60 23 0 0 0 1 24 10 28 116 18 2 2 3 11 80 120 8 5 2 30 120 106 120 55 0 0 9 51 64 11 7 1 7 4 0 0 0 6 4 3 15 3 0 0 0 0 17 53 8 0 0 3 3 5 35 74 3 0 2 27 15 5 5 13 
293.263 183.744 0.93619 1.04214 0 4 1 2 37 23 2 0 10 56 55 10 14 2 0 14 5 10 47 48 7 18 59 52 0 0 0 7 11 61 41 6 37 20 1 2 29 14 3 2 138 138 99 35 14 7 5 24 12 38 100 138 138 41 4 4 1 11 6 27 66 8 0 0 37 2 0 0 4 18 11 31 138 23 3 3 10 50 118 138 11 6 4 19 138 138 104 28 9 23 5 3 44 22 1 1 5 3 4 4 4 3 3 10 4 15 14 5 2 8 54 52 2 36 30 2 1 36 39 4 2 5 23 10 13 6 1 1 
293.263 183.744 0.93619 4.40252 11 4 0 0 1 25 29 9 1 41 45 9 10 47 10 0 3 9 57 51 3 5 9 5 4 6 8 11 1 0 0 3 44 20 1 2 10 14 8 5 140 140 101 39 10 7 4 24 12 46 106 140 140 17 3 5 15 21 10 25 32 1 0 1 58 2 0 0 9 21 5 25 140 31 4 6 11 30 97 140 13 6 4 34 140 140 110 45 36 3 0 3 45 22 2 7 12 16 6 4 0 2 2 12 15 40 48 13 0 6 40 58 3 1 20 39 9 59 53 12 44 15 0 2 2 7 2 11 
128.024 187.658 1.03275 0.0509438 44 16 0 0 0 0 0 1 107 112 9 1 0 0 0 0 43 37 15 15 17 15 10 6 0 0 2 37 37 10 3 2 117 25 0 0 0 0 0 8 131 131 61 20 6 5 10 38 13 47 73 131 129 46 16 8 0 0 1 16 42 36 17 10 69 35 2 0 0 0 1 18 131 21 3 3 4 22 131 131 13 4 4 19 81 131 131 51 4 1 3 15 51 43 10 7 12 18 8 0 0 1 1 2 2 5 33 6 0 4 49 16 42 23 10 1 0 3 46 32 55 34 23 32 4 0 2 12 
128.024 187.658 1.03275 4.77878 1 2 14 18 7 0 0 1 1 18 70 35 1 0 0 0 0 10 118 25 0 0 0 0 0 1 45 16 0 0 0 0 49 16 2 5 32 6 0 5 131 131 131 20 3 3 4 23 10 39 131 131 61 20 6 5 0 1 111 108 9 1 0 0 47 32 40 23 11 1 0 3 131 51 13 4 3 19 80 131 16 8 13 46 72 131 129 46 10 6 42 34 15 16 18 15 2 13 58 34 23 29 3 0 10 7 5 1 4 16 50 42 17 10 0 0 1 16 42 37 3 2 0 0 2 39 35 10 
140.382 195.367 1.04981 1.42469 12 27 6 1 0 0 0 0 96 124 0 0 0 0 0 0 124 124 1 2 16 6 5 8 10 13 0 5 124 65 4 2 59 16 3 2 0 0 0 1 124 124 0 0 0 1 1 22 85 64 1 1 24 64 55 27 1 0 0 1 124 124 39 2 50 8 0 0 1 2 2 11 124 14 0 0 0 2 13 124 24 4 1 13 36 52 42 74 1 0 1 49 124 45 4 0 12 55 15 2 0 0 0 1 42 49 15 1 2 3 3 34 35 1 1 4 4 3 18 95 6 0 1 48 81 4 6 18 
125.685 197.536 1.00487 1.36799 21 6 0 0 29 33 40 37 28 29 9 0 0 4 47 71 96 11 12 3 0 2 15 72 78 2 0 2 13 9 13 117 79 45 1 2 14 10 1 6 117 117 44 15 6 4 3 17 31 30 51 70 74 25 7 42 105 0 0 1 11 14 11 117 85 5 0 0 0 0 2 48 117 21 2 2 7 45 40 117 11 3 2 9 71 117 55 33 37 0 0 0 6 23 77 117 15 0 0 0 0 0 5 94 24 0 0 0 3 27 45 111 0 0 0 3 54 88 27 7 10 0 0 3 11 8 22 77 
125.685 197.536 1.00487 5.16032 24 21 23 2 0 0 2 20 22 39 110 46 0 0 0 2 0 1 70 104 2 0 0 0 5 5 27 18 4 0 1 3 87 32 37 5 0 0 1 35 118 87 56 44 4 2 2 25 7 13 54 118 108 10 3 4 13 2 2 62 69 2 1 10 24 54 118 50 2 0 0 2 100 25 39 50 8 13 38 94 6 4 12 35 118 97 48 25 1 18 61 52 51 5 0 0 50 19 35 51 3 1 4 27 4 5 118 118 4 1 4 6 1 12 57 114 14 11 6 1 26 87 72 10 3 2 0 1 
136.811 199.391 1.0453 4.28047 84 12 0 0 0 0 1 29 125 19 3 10 16 3 0 16 5 2 4 34 108 26 0 1 0 2 17 19 29 6 3 0 125 12 0 0 0 0 0 30 125 22 4 16 14 2 0 19 14 7 16 115 91 11 0 2 3 24 41 27 13 9 13 3 122 57 0 0 0 0 0 17 125 66 7 3 5 1 1 29 21 17 19 91 94 5 2 11 1 1 1 39 88 44 25 2 115 125 8 0 0 0 0 0 46 125 105 9 4 2 0 2 10 50 38 54 70 51 5 1 0 0 1 34 125 47 0 0 
222.818 233.419 0.92123 3.29598 46 26 0 0 0 0 0 9 31 35 25 0 0 0 29 109 2 5 21 15 7 71 110 59 0 0 0 12 24 93 10 0 112 44 0 0 0 0 0 4 118 119 114 18 2 1 1 15 5 25 110 119 77 13 5 5 0 0 0 73 56 3 0 0 119 23 0 0 0 0 0 9 119 32 6 5 4 17 46 119 6 5 7 39 119 119 57 24 0 0 0 25 92 26 0 0 89 17 0 0 0 0 0 8 69 1 0 0 0 10 18 45 0 0 0 3 29 60 21 5 0 0 0 7 41 15 0 0 
222.818 233.419 0.92123 4.57925 0 1 3 117 107 27 1 0 0 38 59 24 16 1 0 0 0 17 101 23 0 0 0 0 1 2 22 23 0 0 1 2 27 8 1 6 51 117 30 7 115 117 86 14 9 9 6 22 7 38 117 117 55 17 5 4 0 0 30 80 24 1 0 0 38 1 0 0 0 29 41 58 117 21 3 2 1 8 112 117 7 5 4 23 56 95 117 44 0 0 2 22 32 22 29 2 2 0 0 0 0 0 26 38 0 0 0 0 0 0 96 73 0 0 0 0 0 3 114 81 0 0 0 0 0 2 78 25 
191.854 251.249 0.990213 0.648463 2 3 0 0 0 4 6 1 3 32 32 2 0 0 2 1 50 43 47 10 0 0 0 4 125 125 22 1 0 2 12 38 37 29 1 0 0 1 1 2 116 125 93 21 5 4 4 25 34 36 113 125 87 32 9 21 97 18 2 5 14 13 125 125 32 6 2 1 0 0 1 24 106 22 4 3 4 24 97 125 6 4 4 17 86 125 103 27 5 26 3 0 16 35 45 26 0 0 2 3 1 0 0 4 2 0 0 0 0 2 28 28 5 8 0 0 1 23 29 3 47 98 6 0 0 3 1 6 
191.854 251.249 0.990213 4.47036 0 3 1 2 6 10 0 0 0 20 37 5 0 1 0 0 0 3 36 23 2 1 0 0 0 0 0 3 2 4 5 0 36 20 0 8 28 3 0 2 112 123 111 27 4 4 4 21 5 22 110 123 112 20 4 4 1 2 0 27 42 2 0 0 43 33 30 7 28 7 0 8 123 39 32 15 7 28 77 123 6 4 5 31 123 123 86 23 0 3 1 7 45 20 0 0 12 123 123 28 4 0 0 0 4 52 123 123 100 10 14 8 0 0 2 47 64 40 20 1 1 6 3 1 1 4 0 1 
198.576 252.221 0.951273 1.27655 22 4 0 0 0 0 10 19 63 118 8 0 0 0 0 3 5 74 51 54 18 0 0 0 0 0 13 64 43 10 0 0 77 4 0 0 0 0 11 34 129 129 16 5 4 7 7 39 20 63 37 66 100 81 17 8 7 6 39 59 26 18 12 16 57 15 8 0 0 0 1 29 129 13 5 2 2 30 113 129 9 2 0 1 27 129 129 39 37 3 2 0 2 26 56 124 32 78 46 10 1 0 0 4 4 12 40 63 44 14 33 20 8 2 0 3 17 39 57 8 112 25 0 0 0 2 11 39 
198.576 252.221 0.951273 5.5087 20 10 5 9 18 37 67 54 1 14 41 26 66 40 11 0 1 6 60 30 5 0 0 0 6 23 11 2 0 0 0 0 64 23 1 3 0 4 27 25 126 126 126 31 2 4 5 12 9 23 126 126 28 1 1 4 0 10 50 85 9 0 0 0 63 62 58 29 0 0 0 1 126 67 17 7 2 3 19 114 18 5 14 107 110 47 58 54 0 0 3 105 86 8 1 0 2 33 122 33 5 3 1 1 19 29 33 8 15 40 22 17 2 0 0 1 10 45 117 22 0 0 0 15 32 26 21 4 
193.684 259.586 0.954792 1.30678 3 0 0 0 3 105 116 19 108 8 0 0 0 9 39 126 121 33 26 14 14 2 3 59 3 45 119 47 14 1 1 5 24 7 0 5 32 18 12 3 126 62 0 0 0 1 10 36 126 35 7 0 0 21 126 81 8 22 22 9 5 10 126 104 23 2 0 1 18 12 0 6 102 6 0 0 0 10 46 100 12 3 0 0 0 87 126 38 10 12 0 0 0 7 126 77 5 10 0 0 0 1 0 1 11 18 5 0 0 2 10 18 8 19 10 0 0 10 15 3 38 30 0 0 0 0 1 7 
200.222 259.286 1.02166 0.803105 7 33 39 26 53 61 35 7 0 0 9 67 100 21 5 1 0 0 32 53 28 19 6 0 0 0 3 27 34 8 5 1 36 1 0 0 5 52 110 79 88 20 42 62 12 6 9 38 2 3 59 110 102 3 0 0 0 2 26 63 56 0 0 0 94 110 0 0 0 0 14 35 110 104 18 17 14 9 2 22 5 3 46 98 110 24 1 2 0 11 32 72 32 2 0 0 62 107 0 0 0 0 31 38 45 65 27 12 1 0 32 110 9 7 87 101 50 8 10 38 0 0 9 92 82 5 0 0 
200.222 259.286 1.02166 3.71342 58 10 2 0 0 2 4 41 112 11 3 6 2 2 38 113 7 2 6 113 61 28 43 42 0 0 37 113 38 54 6 0 44 4 0 0 0 6 26 60 113 57 1 1 3 2 14 81 18 19 2 6 88 113 32 32 0 0 0 9 58 113 28 0 91 4 0 0 0 0 8 43 97 11 0 0 2 5 33 113 13 5 11 29 113 42 22 45 0 5 88 95 71 18 0 0 31 21 10 0 0 0 4 12 55 28 13 0 0 0 11 54 90 53 21 9 4 1 5 32 15 54 113 58 25 31 22 8 
160.45 271.075 0.954309 0.769351 1 11 1 2 0 0 0 0 2 50 50 2 0 0 0 0 3 20 49 27 6 0 0 0 0 1 2 9 14 2 1 4 51 36 1 6 1 0 0 0 135 135 126 28 6 2 1 12 7 30 132 135 131 10 1 3 0 2 13 52 43 1 0 0 88 10 3 17 6 0 0 7 135 35 7 5 11 31 31 135 14 6 7 38 135 135 32 31 0 0 3 16 67 29 1 0 31 1 0 2 8 5 2 12 61 0 0 0 0 20 64 89 0 0 0 0 33 132 55 11 0 0 0 0 12 44 8 0 
160.45 271.075 0.954309 3.89485 11 43 9 0 0 0 0 0 32 134 54 10 0 0 0 0 0 21 66 87 60 0 0 0 7 5 2 13 32 1 0 2 67 28 1 0 0 0 3 16 135 135 31 30 14 5 7 38 12 33 32 135 135 35 7 5 7 0 0 7 90 11 3 17 43 1 0 0 0 2 12 51 131 11 1 2 7 30 131 135 6 2 1 11 135 135 125 28 1 0 0 0 50 36 1 7 14 2 1 4 0 1 2 9 6 0 0 0 3 20 49 26 0 0 0 0 2 50 50 2 0 0 0 0 1 10 1 2 
148.145 272.013 0.960397 1.101 10 4 0 1 5 21 10 8 16 50 27 5 2 7 27 25 2 10 30 44 25 9 10 10 2 0 0 5 10 22 49 29 53 26 0 0 1 13 11 13 143 143 93 39 9 5 2 22 12 38 97 143 143 22 2 5 0 0 2 38 70 6 2 0 85 46 0 0 0 0 0 6 143 39 4 6 13 43 51 143 15 5 5 31 143 143 53 36 0 0 5 12 71 22 0 0 48 40 0 0 0 0 2 11 57 12 0 1 11 17 33 53 0 0 4 19 62 65 24 5 0 0 13 17 19 12 0 0 
148.145 272.013 0.960397 4.35323 22 12 1 0 0 0 17 17 61 57 27 11 1 0 2 21 6 11 28 56 72 13 0 0 0 0 0 6 50 35 0 0 75 19 0 0 0 0 7 13 143 143 53 45 15 4 5 36 12 35 46 143 143 32 4 7 0 0 2 12 86 25 0 0 63 3 0 0 0 0 4 44 143 18 2 6 12 34 98 143 9 4 3 29 143 143 99 43 4 17 12 11 57 22 0 0 9 32 39 12 0 0 0 8 24 7 10 11 1 7 29 51 5 8 33 20 16 46 29 7 8 17 11 10 11 3 0 2 
190.491 272.954 1.03498 2.95278 38 31 36 14 1 11 20 16 118 31 1 2 13 59 28 77 6 1 11 19 92 118 10 4 0 1 31 56 43 23 0 0 47 11 0 1 1 37 98 46 118 39 11 19 11 14 19 101 12 10 31 107 76 45 5 3 1 0 24 48 21 16 9 3 104 42 16 23 2 6 10 16 118 31 1 3 8 15 9 91 13 2 2 37 118 95 13 21 10 0 1 11 24 30 17 11 23 3 20 70 73 16 4 24 43 0 0 0 2 8 68 118 2 0 0 13 27 99 118 26 0 0 0 3 6 46 89 8 
190.841 285.638 0.967165 5.67936 55 10 0 0 0 0 5 14 139 138 14 0 0 0 0 3 41 139 23 0 0 3 10 5 17 53 19 2 23 91 26 5 117 10 0 0 0 0 0 6 139 63 1 0 1 2 1 16 52 42 3 0 43 86 31 10 1 0 0 0 17 139 60 3 97 55 0 0 0 0 0 1 139 24 0 0 0 7 27 77 18 1 0 0 54 126 69 30 0 0 0 0 81 111 4 0 43 66 0 0 0 0 0 5 55 16 0 0 0 15 46 31 1 0 1 0 4 63 77 4 1 3 4 13 26 30 10 0 
124.161 288.569 0.915986 6.15863 16 15 23 8 1 1 4 7 74 64 21 9 7 9 10 45 3 10 29 62 104 38 8 8 1 11 50 17 25 1 0 0 64 15 2 1 0 1 20 32 129 129 74 27 7 6 6 37 10 39 101 129 112 38 7 7 1 26 56 41 22 17 15 1 68 3 8 24 6 0 1 26 129 21 3 4 6 25 129 129 8 4 4 22 99 129 129 31 0 0 0 2 22 71 49 1 3 0 1 34 28 4 2 8 3 0 0 3 1 10 62 42 0 0 0 0 1 28 97 15 0 0 0 0 7 21 26 3 
202.933 290.506 0.982752 1.46679 16 5 0 1 5 9 24 65 14 73 23 4 23 14 10 4 35 121 93 39 0 0 0 0 1 5 62 124 3 0 0 0 87 12 0 3 9 1 4 24 124 124 58 5 3 3 3 20 34 83 71 27 38 49 36 13 18 6 38 87 8 16 62 32 86 54 1 1 15 3 1 5 124 31 2 1 3 31 52 114 20 3 2 5 47 124 90 39 124 26 0 2 8 39 50 73 45 38 11 3 1 2 7 7 14 7 0 5 8 23 42 22 8 3 14 28 24 71 27 14 46 8 18 6 1 12 40 93 
202.933 290.506 0.982752 5.36769 11 12 8 9 2 8 25 15 13 38 25 26 15 0 2 5 2 1 10 81 74 1 0 7 7 1 1 13 5 0 11 53 79 29 36 22 5 16 21 17 123 114 86 48 6 2 2 20 4 9 64 123 89 12 1 3 0 8 34 80 22 1 3 5 47 45 85 123 25 0 1 6 123 89 28 23 15 21 15 56 7 3 6 66 123 113 15 13 18 18 18 20 57 16 2 18 8 16 28 35 13 19 53 61 7 44 20 13 11 43 123 6 0 0 1 31 105 97 74 1 3 0 0 4 41 45 28 32 
201.09 314.248 0.892289 5.63663 47 51 1 0 0 0 0 2 118 117 2 0 0 0 1 11 60 69 2 1 3 20 51 45 54 9 2 15 25 15 28 85 98 20 14 2 0 0 0 10 118 113 17 12 6 2 4 27 20 26 18 54 118 44 40 36 33 1 0 4 28 44 118 118 34 34 65 12 2 0 0 6 118 16 6 6 6 12 68 118 6 2 1 12 118 118 86 35 0 0 0 4 68 76 74 15 4 16 27 20 31 32 11 5 14 1 1 5 20 24 26 36 12 3 4 25 20 25 22 12 0 0 0 43 69 10 0 0 
282.745 326.636 1.08248 0.907952 8 11 8 1 4 8 3 3 9 29 26 0 1 27 21 11 53 15 30 8 1 10 18 50 11 0 0 1 4 77 35 18 30 21 6 2 11 27 8 4 130 130 130 19 9 12 8 26 13 55 130 130 130 36 9 9 5 0 1 34 59 17 5 7 58 38 5 3 0 8 10 11 130 63 12 5 7 37 89 130 11 8 13 35 130 130 99 30 0 0 0 14 60 50 1 0 10 71 26 2 0 0 0 1 21 42 11 4 2 9 13 19 1 2 9 22 49 73 14 2 0 0 0 1 30 47 4 0 
282.745 326.636 1.08248 2.11218 1 0 0 7 30 24 69 29 2 18 40 34 41 14 14 1 0 9 65 33 6 1 4 1 0 0 8 38 14 1 0 0 41 6 0 4 22 22 38 15 129 129 106 39 9 8 18 45 12 39 129 129 124 24 8 8 0 7 31 87 32 0 0 0 40 2 4 18 23 2 2 20 129 25 6 10 10 21 129 129 19 10 7 35 119 128 129 71 12 16 14 44 33 8 7 8 14 5 3 11 6 3 4 14 3 1 2 12 22 10 35 33 49 2 0 0 0 3 40 74 24 15 5 1 2 5 11 20 
205.49 327.843 0.925088 0.353575 4 4 0 1 13 33 17 5 6 53 39 2 0 3 32 10 0 10 51 42 7 6 7 0 2 2 10 28 6 0 0 0 63 21 0 0 5 21 2 5 135 135 104 25 6 5 8 35 9 41 122 135 135 38 9 6 14 32 10 40 47 5 0 1 59 3 0 0 0 3 4 29 135 24 3 4 5 28 135 135 8 5 4 23 113 135 135 38 31 14 2 3 31 36 23 48 5 0 0 0 1 5 3 6 0 0 1 0 1 9 63 29 0 0 1 0 0 25 80 12 1 0 0 0 0 3 29 31 
205.49 327.843 0.925088 4.97756 4 5 3 0 0 0 1 7 4 28 59 5 0 0 0 2 3 4 62 23 0 0 3 20 13 3 3 4 0 0 11 46 65 31 0 0 1 0 1 6 134 134 134 25 3 4 5 26 8 33 134 134 103 24 5 5 28 13 7 54 39 2 0 2 82 17 1 0 1 0 0 21 134 39 9 6 4 23 112 134 8 6 9 42 125 134 134 37 12 1 0 10 53 37 6 7 30 44 3 0 0 0 0 3 16 38 36 23 4 4 33 34 0 0 7 26 10 41 50 5 0 0 1 1 6 27 10 1 
168.393 333.261 0.949941 1.00703 8 15 7 0 0 0 7 2 2 65 58 2 0 0 9 7 1 19 62 45 14 6 11 9 0 0 0 12 19 14 9 5 82 35 3 0 0 0 0 9 134 134 105 20 9 6 4 19 7 45 112 134 134 42 3 3 0 0 0 54 76 8 0 0 105 22 4 0 0 0 0 11 134 34 4 3 13 56 48 134 9 6 4 16 134 134 39 22 0 0 0 7 71 35 0 0 44 7 0 0 0 0 0 18 47 1 0 0 7 25 30 86 0 0 0 0 69 87 15 7 1 4 2 3 24 20 3 0 
168.393 333.261 0.949941 4.5852 71 19 3 0 2 0 0 7 50 35 58 44 3 0 0 4 0 2 20 116 47 1 0 0 0 0 0 8 17 10 2 0 93 9 0 0 0 0 0 29 138 118 50 52 9 5 3 29 13 25 45 138 138 26 3 4 0 0 0 56 65 7 0 0 66 1 0 0 0 0 3 48 138 18 2 5 8 34 91 138 11 4 2 33 138 138 90 35 0 0 1 14 61 51 2 0 3 1 4 0 0 0 5 29 12 4 1 0 0 8 43 91 1 4 21 3 7 74 43 12 0 7 31 2 3 15 1 0 
313.786 381.444 0.89988 1.02516 6 3 1 1 4 4 13 13 24 36 40 4 2 1 0 9 112 26 29 11 1 0 20 128 33 14 16 16 5 11 128 128 62 15 0 0 0 1 5 11 128 128 68 19 5 3 3 20 14 31 69 124 94 18 10 32 52 1 1 9 14 12 53 128 48 4 4 5 3 0 0 25 123 17 1 3 5 20 89 128 7 3 1 17 78 128 114 30 11 0 0 1 10 27 52 40 1 8 2 4 11 2 1 7 3 22 10 0 0 3 31 35 0 4 25 9 0 24 44 6 9 8 10 2 0 2 14 13 
252.861 75.2976 1.10788 1.02264 10 11 0 0 1 10 5 1 8 55 63 15 0 0 0 0 0 5 86 64 1 0 0 0 0 2 21 19 5 0 0 0 74 30 0 0 0 2 0 6 129 129 97 23 5 3 4 25 8 32 129 129 129 30 4 4 0 0 6 37 90 18 0 0 57 2 1 3 0 0 2 47 129 24 3 3 5 23 98 129 8 5 4 20 129 129 110 38 0 6 13 5 77 41 0 0 1 0 2 12 10 1 2 10 1 0 0 1 3 3 63 85 0 0 0 0 4 39 87 29 3 6 5 0 4 7 15 16 
252.861 75.2976 1.10788 4.49093 1 12 40 3 0 0 0 0 1 32 110 18 0 0 0 0 3 3 64 58 0 0 1 5 0 0 2 10 0 0 10 7 71 29 7 2 2 10 3 9 125 125 125 40 7 4 3 21 5 18 104 125 125 18 3 3 0 0 3 47 50 1 0 0 94 2 0 0 0 4 4 35 125 21 5 5 7 27 125 125 5 3 4 30 125 125 112 21 1 2 0 10 85 23 0 0 20 1 0 0 0 1 7 16 4 0 0 0 0 12 97 38 0 0 0 0 4 39 94 9 5 6 0 0 8 13 6 1 
253.326 97.0633 1.41974 3.32008 58 7 0 0 0 0 0 14 134 65 1 2 0 0 0 11 31 27 4 21 39 21 20 15 0 0 0 9 101 72 10 0 85 6 0 0 0 0 0 10 134 69 1 3 9 0 0 19 46 26 3 22 134 46 0 2 0 0 0 10 96 72 1 0 82 3 0 0 0 0 0 13 134 17 0 1 8 1 2 132 41 3 0 41 134 45 11 53 0 0 0 8 114 71 3 0 31 0 0 0 0 0 0 16 76 0 0 0 0 0 30 129 11 0 0 1 50 103 92 60 0 0 0 0 51 65 4 0 
245.599 114.096 1.16455 0.719116 22 1 0 0 0 0 62 118 27 8 8 10 12 18 62 118 0 1 3 48 118 39 11 3 0 0 0 40 71 1 0 0 112 7 0 0 0 0 13 44 118 97 28 15 3 4 9 48 7 19 34 118 115 32 6 4 0 0 0 36 115 15 0 0 105 38 1 0 0 0 0 10 118 21 2 2 2 23 77 118 5 2 2 15 62 118 96 18 0 0 0 2 52 110 2 0 47 27 0 0 0 2 5 18 16 7 0 0 0 57 52 17 0 0 0 1 1 89 49 1 0 0 1 2 4 30 2 0 
201.45 123.144 1.25046 1.791 16 9 0 0 0 0 0 2 25 58 18 2 0 0 0 0 5 12 20 27 28 5 0 0 0 0 0 4 31 6 0 0 61 21 0 0 0 0 0 1 132 132 53 24 2 0 0 6 7 25 53 132 104 1 0 1 0 0 0 35 63 0 0 0 82 1 0 0 0 0 0 14 132 21 3 6 5 3 2 84 30 8 18 132 132 9 4 21 0 0 4 132 69 0 0 0 27 0 0 0 0 0 0 18 132 1 0 0 0 0 0 129 119 36 48 76 4 0 0 57 6 8 30 132 49 0 0 0 
201.45 123.144 1.25046 4.45225 84 3 0 0 0 0 0 14 134 5 0 0 2 11 16 134 14 1 0 2 134 79 22 35 0 0 0 4 134 13 0 0 88 24 0 0 0 0 0 2 134 68 3 4 9 7 5 35 22 15 3 10 134 117 6 10 0 0 0 0 128 57 0 0 65 35 0 0 0 0 0 7 134 11 0 0 4 36 84 106 6 1 0 1 89 134 64 15 0 0 0 0 41 48 0 0 8 24 0 0 1 7 2 2 3 0 0 0 4 38 47 13 0 0 0 0 6 67 26 0 0 0 0 0 3 13 0 0 
170.647 137.051 1.12008 1.01945 69 0 0 0 0 0 0 40 127 4 0 0 2 0 0 65 36 0 0 30 127 17 2 21 0 0 0 24 127 6 0 0 127 5 0 0 0 0 0 7 127 46 0 0 4 3 1 16 30 12 0 1 127 68 3 9 0 0 0 3 127 28 0 0 127 4 0 0 0 0 0 9 127 8 0 0 6 15 5 41 12 1 0 0 127 109 6 10 0 0 0 1 119 30 0 0 101 4 0 0 0 0 0 6 126 4 0 0 8 24 7 29 2 0 0 0 72 98 3 2 0 0 0 1 50 26 0 0 
238.633 136.873 1.35678 0.489025 0 15 26 82 136 66 1 0 0 48 28 5 70 16 0 0 0 22 65 40 2 0 0 0 0 0 17 32 5 0 0 0 26 5 1 4 96 136 60 11 136 136 54 9 21 22 8 19 10 45 96 96 102 45 2 2 0 3 13 47 45 7 0 0 58 1 0 0 2 69 20 27 136 17 2 1 8 43 32 126 25 12 3 5 74 136 29 20 13 23 15 14 40 14 0 2 30 3 2 5 2 0 0 4 113 1 0 0 8 15 8 59 27 22 4 0 30 36 6 15 28 26 9 12 42 4 0 7 
238.633 136.873 1.35678 4.23545 13 4 9 19 39 15 1 6 15 8 29 126 7 0 0 5 5 3 11 102 7 1 1 1 126 104 2 3 0 0 0 2 29 4 4 43 29 7 1 12 126 67 43 79 10 2 1 20 14 22 43 126 83 8 1 2 126 126 9 23 9 0 1 48 22 2 0 7 19 18 11 33 126 15 2 7 12 28 50 104 11 3 3 35 126 126 45 20 92 5 0 4 25 14 7 126 4 0 0 0 0 4 21 44 4 0 0 0 0 14 67 35 0 0 0 0 12 54 49 4 28 0 0 0 8 9 1 30 
166.163 138.845 1.34539 0.924248 50 2 0 0 0 0 0 3 140 50 0 0 0 0 0 6 109 40 0 1 97 76 5 14 0 0 0 1 140 71 0 0 73 12 0 0 0 0 0 1 140 42 0 0 1 9 4 17 72 6 0 0 107 140 11 18 0 0 0 0 140 77 0 0 93 4 0 0 0 0 0 2 140 9 0 0 3 30 17 46 14 0 0 0 62 140 17 13 0 0 0 0 54 68 6 0 58 26 0 0 0 0 0 0 70 13 0 0 6 42 15 19 0 0 0 0 20 120 8 2 0 0 0 0 8 36 4 0 
139.046 160.024 1.2392 3.30139 5 17 4 0 0 0 0 0 3 61 44 0 0 0 0 0 5 27 65 21 0 0 0 4 0 0 4 18 6 1 20 17 69 42 2 0 0 0 0 4 126 130 120 14 3 1 1 9 7 41 130 130 100 9 1 2 0 0 4 60 79 4 0 0 122 5 0 0 0 0 0 19 130 37 7 4 8 17 14 118 18 7 13 44 130 110 17 30 0 1 43 42 102 15 0 0 63 59 0 0 0 0 0 2 130 42 0 0 2 5 14 35 11 0 21 34 45 20 36 21 0 2 70 38 21 36 11 0 
139.046 160.024 1.2392 4.42403 10 7 0 0 0 13 24 8 9 54 61 5 1 4 0 0 0 12 85 54 0 0 0 0 11 60 40 16 2 0 0 0 83 16 0 0 0 0 1 14 129 129 80 16 1 1 4 30 10 40 129 129 23 9 8 7 26 83 53 67 8 2 0 0 69 1 0 0 0 0 2 39 129 20 4 2 1 3 107 129 8 5 11 52 27 39 129 108 0 12 22 28 20 48 33 22 2 0 0 0 0 0 7 23 0 0 0 0 0 0 66 64 6 0 0 0 0 0 96 129 19 0 0 4 11 11 20 102 
18.2949 174.733 1.13997 0.701595 51 4 0 0 0 0 2 24 45 29 28 10 7 3 0 14 2 2 27 42 9 7 5 6 6 3 14 12 6 4 2 14 78 58 11 0 0 0 0 6 132 132 113 37 5 4 6 34 8 23 114 132 111 27 6 8 2 0 0 35 45 39 8 10 45 21 4 0 0 0 1 62 129 27 6 5 5 24 128 132 7 4 6 36 124 132 132 37 0 0 0 4 60 92 2 0 18 6 1 0 0 0 1 26 7 3 0 1 9 15 50 37 0 0 0 0 3 61 76 3 0 0 0 1 7 22 8 1 
18.2949 174.733 1.13997 2.94944 0 9 50 9 1 0 0 0 0 38 106 8 0 0 0 0 0 4 70 67 0 0 0 0 3 15 16 16 0 0 0 0 45 26 14 7 16 8 1 3 126 126 126 34 8 6 4 25 6 27 120 126 126 29 4 5 0 7 10 37 47 11 3 0 50 10 7 5 6 3 1 15 126 26 5 4 7 47 119 126 6 4 4 24 126 126 126 25 0 0 0 2 79 36 6 0 5 6 5 1 1 7 10 15 2 2 1 0 14 83 47 14 0 0 0 0 3 62 70 14 0 0 0 0 12 13 16 11 
18.2949 174.733 1.13997 6.13389 10 12 19 12 0 0 0 0 4 70 66 12 0 0 0 0 17 78 43 16 3 2 1 0 1 5 9 14 6 6 5 1 81 34 7 1 0 0 0 3 127 127 127 27 6 4 4 24 7 48 114 127 127 26 5 4 8 3 1 17 50 9 6 5 50 12 3 0 0 6 9 35 127 29 4 5 6 27 122 127 8 6 4 26 127 127 127 35 16 6 0 3 45 26 18 7 0 0 0 0 4 17 17 14 0 0 0 0 0 4 71 65 0 0 0 0 0 41 103 8 1 0 0 0 0 10 49 7 
132.999 201.685 1.28538 4.3149 50 24 2 0 0 0 0 12 96 56 12 8 2 0 0 18 9 23 21 78 56 0 0 1 17 47 23 21 19 12 10 10 64 7 0 0 0 0 4 79 143 62 8 14 7 0 0 31 23 19 10 92 143 4 0 1 5 1 9 30 51 30 24 9 117 4 0 0 0 0 0 39 143 15 2 8 11 0 0 34 55 9 14 111 143 6 0 3 0 12 62 66 32 13 7 0 84 21 0 0 0 0 0 20 143 83 4 2 1 0 0 26 61 28 17 106 79 1 0 7 0 2 4 44 97 60 22 0 
236.72 201.819 1.33666 0.484001 47 4 0 0 0 0 0 26 69 71 46 16 5 1 1 8 1 12 45 110 85 0 0 0 0 0 0 20 42 0 0 0 111 8 0 0 0 0 0 5 150 78 10 17 25 3 0 6 18 17 10 64 150 14 0 1 0 0 0 8 100 3 0 0 115 1 0 0 0 0 0 9 150 3 0 1 30 20 5 50 19 1 0 9 150 84 4 11 0 0 0 1 85 16 0 0 68 0 0 1 1 0 0 13 150 0 0 0 16 7 8 78 8 0 0 13 150 40 10 15 0 0 0 3 67 9 0 0 
236.72 201.819 1.33666 3.6804 79 8 0 0 0 0 0 7 149 36 11 22 11 0 0 20 11 4 7 90 149 0 0 0 1 0 0 16 55 0 0 1 95 11 0 0 0 0 0 3 149 64 4 14 21 0 0 15 28 16 5 72 149 2 0 2 0 0 0 15 106 0 0 0 92 2 0 0 0 0 0 12 149 10 0 2 17 14 9 82 26 2 0 13 149 66 11 22 0 0 0 10 115 5 0 0 36 0 0 0 0 0 0 19 84 0 0 0 1 9 40 117 6 1 1 7 64 68 51 21 0 0 0 33 46 4 0 0 
230.369 213.118 1.25893 0.271123 45 8 0 1 8 6 0 0 123 21 0 0 0 0 2 52 91 3 0 0 82 113 54 84 0 0 0 0 123 114 3 0 74 19 0 2 8 1 0 1 123 111 10 5 6 4 5 30 18 23 12 18 123 123 33 24 0 0 0 0 97 107 2 0 61 5 0 7 10 0 0 18 123 13 1 1 5 28 44 119 4 2 1 3 105 123 43 16 0 0 0 0 60 48 0 0 25 0 0 4 17 1 0 9 52 4 0 0 12 22 16 32 0 0 0 2 49 75 8 1 0 0 0 2 13 16 1 0 
230.369 213.118 1.25893 3.83688 38 4 0 0 0 0 3 25 56 25 19 27 12 0 0 6 1 1 10 81 23 0 0 3 9 0 0 9 4 0 3 43 91 17 0 0 0 0 0 5 129 121 45 28 5 1 0 13 5 17 46 129 100 6 1 2 4 0 0 34 54 0 1 10 101 3 0 0 0 0 0 20 129 49 11 7 7 10 8 85 14 14 21 105 129 38 8 16 1 0 0 61 92 0 0 1 80 3 0 0 0 0 0 11 129 88 20 6 0 0 0 39 44 38 53 129 73 0 0 9 0 0 0 112 117 0 0 0 
89.4267 230.369 1.34817 3.57935 83 12 0 0 0 0 1 15 131 61 15 15 8 0 0 0 3 8 19 45 68 37 0 0 0 29 16 14 32 21 0 0 131 20 0 0 0 0 0 1 131 82 18 38 15 1 2 9 16 31 39 131 129 18 2 3 3 113 55 30 22 15 0 0 131 17 0 0 0 0 0 12 131 14 1 4 7 28 62 76 13 7 16 49 46 72 131 27 0 25 21 9 26 104 53 6 103 35 0 0 0 0 0 4 72 23 5 19 15 24 19 13 11 7 9 24 14 24 56 19 5 2 1 1 58 58 17 9 
187.064 239.269 1.36229 0.209019 2 3 0 0 1 9 17 3 4 33 37 5 0 4 8 4 6 8 35 24 2 2 3 1 17 10 3 2 0 0 0 2 43 24 1 12 5 1 3 2 134 134 117 51 8 3 5 30 12 34 109 134 125 15 5 8 14 10 1 26 24 0 0 16 41 5 4 52 11 0 0 16 134 32 6 11 10 22 121 134 11 6 5 62 134 134 134 47 13 15 1 13 40 17 9 10 0 0 3 48 35 3 0 2 1 0 10 13 10 3 43 32 3 22 4 7 2 26 75 8 8 85 80 15 0 3 11 8 
187.064 239.269 1.36229 2.77889 2 1 0 13 19 28 13 0 5 30 45 30 7 8 17 3 8 5 48 58 1 5 13 5 17 5 0 4 0 0 5 20 43 11 0 3 16 17 8 2 140 140 106 44 11 10 7 29 15 39 116 140 140 48 6 6 34 11 1 24 40 6 1 12 32 1 0 0 7 17 5 20 140 22 3 5 10 51 129 140 14 5 3 23 140 140 123 34 50 2 0 1 30 33 2 14 6 7 3 5 1 3 3 4 0 0 5 10 2 10 40 31 1 1 6 7 2 43 32 3 42 21 1 1 0 3 0 5 
214.604 255.564 1.18308 3.72994 41 21 4 0 0 0 1 20 16 50 80 39 1 0 0 0 1 7 85 119 5 0 0 0 50 45 24 12 2 0 0 6 94 65 2 0 0 0 0 6 129 125 60 37 6 1 0 10 8 18 63 129 95 10 1 2 40 43 38 41 14 2 1 2 96 16 0 0 0 0 25 51 129 28 2 5 16 15 8 71 19 4 4 36 129 89 14 20 14 14 11 9 28 20 18 35 129 13 0 0 0 0 6 34 129 31 0 1 9 1 1 47 14 9 38 63 126 8 1 10 23 24 49 43 28 7 4 7 
197.111 264.132 1.40525 6.18063 25 39 20 7 0 0 1 8 46 92 125 1 0 0 1 13 34 123 81 12 20 16 5 20 2 6 4 17 93 55 10 2 64 16 29 13 2 0 0 21 125 71 43 14 10 4 2 38 25 31 38 44 125 90 6 3 0 0 0 15 112 101 1 0 26 23 74 43 7 0 0 3 125 21 6 8 9 27 65 111 14 1 0 8 120 125 53 29 0 0 0 11 90 62 3 0 9 7 11 51 75 3 1 3 9 10 16 12 41 9 38 51 7 4 5 6 36 24 32 36 0 0 1 14 60 24 2 0 
200.014 275.968 1.13435 2.38553 31 13 5 3 1 0 5 27 8 14 25 9 8 17 61 23 1 4 27 28 12 17 21 7 2 3 7 23 26 15 6 3 65 26 5 2 1 0 0 49 102 117 77 23 2 0 2 8 9 25 84 119 38 4 3 1 0 67 88 39 11 9 3 0 56 111 34 10 2 0 0 2 119 30 19 16 7 2 19 90 29 11 32 119 37 6 48 68 32 119 102 37 2 0 3 5 13 93 48 43 33 2 0 0 8 7 6 45 69 28 55 50 69 52 2 2 1 2 82 115 119 90 4 2 4 10 23 40 
200.014 275.968 1.13435 4.7758 1 0 0 0 0 6 128 97 27 2 1 9 18 73 128 64 5 2 2 78 105 92 46 2 48 33 7 22 19 25 72 9 38 15 13 4 0 0 43 62 128 37 2 6 7 10 17 77 32 14 6 79 128 80 8 6 55 75 23 32 29 11 11 12 35 14 18 16 5 0 1 20 95 11 3 6 3 30 82 121 9 1 0 0 29 128 78 31 16 4 0 0 3 52 104 36 56 23 21 23 6 2 2 18 7 6 14 52 24 10 20 19 4 2 0 1 48 45 19 6 0 0 0 2 30 63 45 2 
191.791 279.44 1.29072 0.244604 62 13 4 3 0 0 6 34 23 6 19 98 59 4 12 25 2 52 56 76 28 5 5 1 2 28 34 21 7 16 42 4 30 3 0 0 0 3 63 49 141 51 19 38 18 2 18 44 13 15 21 108 141 25 5 1 2 0 0 2 54 61 63 3 77 0 0 0 0 21 43 62 141 11 0 4 22 13 6 85 19 2 0 42 141 46 5 13 3 0 2 30 112 12 3 6 29 0 0 0 0 10 31 85 81 0 0 1 6 3 15 141 6 0 0 41 123 36 32 61 1 1 8 47 71 14 0 0 
191.791 279.44 1.29072 3.28421 62 9 0 1 1 1 12 38 139 43 20 33 4 0 0 34 14 6 14 139 98 1 0 1 0 3 19 104 44 0 0 0 97 27 5 7 4 0 1 11 139 75 4 8 15 3 0 22 26 19 6 54 139 23 0 3 0 16 33 61 107 3 0 0 41 59 79 6 2 2 1 2 139 30 5 1 13 21 21 92 18 2 15 40 139 70 14 29 0 4 58 55 32 3 0 0 4 6 27 5 3 38 45 21 49 3 3 0 2 35 53 94 57 4 13 34 38 8 9 64 0 0 5 26 53 13 4 1 
320.59 382.544 1.24609 0.0968197 6 13 16 6 0 2 2 3 1 48 54 15 2 3 2 0 0 3 43 68 5 2 0 0 0 0 1 13 5 1 0 0 28 45 56 52 23 15 5 4 138 138 106 63 16 2 0 11 13 24 80 138 138 5 0 3 0 0 0 27 61 1 0 0 51 11 1 4 14 30 37 39 138 26 4 9 20 32 76 132 19 3 3 47 138 138 68 33 0 0 0 6 87 22 1 0 17 18 24 0 0 0 7 25 9 4 40 14 1 13 92 45 0 0 4 19 33 87 64 5 0 0 0 8 23 10 0 0 
320.59 382.544 1.24609 2.95475 9 11 1 0 0 0 0 2 32 103 46 4 0 0 0 2 12 22 93 51 2 0 14 35 1 0 6 18 8 7 73 22 65 28 0 0 0 0 0 2 136 136 52 20 16 6 3 23 21 54 90 132 136 59 3 5 0 8 17 45 62 25 2 0 63 5 0 0 0 0 0 24 136 14 0 1 12 39 82 136 25 9 1 3 136 136 93 52 28 36 27 23 29 33 26 33 6 3 5 0 0 0 0 15 8 3 2 0 0 8 45 64 2 1 3 0 1 42 53 21 4 0 0 0 5 23 54 31 
252.582 93.2549 1.84622 0.39514 16 1 0 0 0 1 4 32 18 11 19 28 10 2 1 13 0 1 23 58 13 1 0 0 0 0 0 11 5 1 0 0 37 24 2 0 0 0 0 4 138 138 74 31 1 0 0 10 11 24 86 138 67 0 0 2 0 0 0 54 48 0 0 0 38 57 3 0 0 0 0 1 138 57 7 12 2 0 0 57 78 7 9 138 138 6 1 31 0 0 0 65 138 0 0 0 30 17 1 0 0 0 10 27 138 36 2 0 0 0 1 31 57 9 4 29 138 23 4 20 0 0 0 46 138 4 0 0 
252.582 93.2549 1.84622 2.87716 13 14 0 0 0 0 0 0 120 134 0 0 0 0 0 0 55 134 12 4 25 43 6 5 7 3 0 1 62 134 29 9 66 29 0 0 0 0 0 1 134 134 0 0 11 17 6 28 46 45 2 1 111 134 11 8 0 0 0 3 45 134 19 0 62 8 0 0 0 0 0 20 129 7 0 0 4 42 75 134 8 0 0 0 40 134 83 21 0 0 0 0 4 46 47 1 20 12 10 0 0 0 0 4 26 6 3 0 17 18 13 17 0 0 0 0 22 40 15 1 5 3 0 0 0 2 8 2 
191.216 125.705 1.57072 4.42071 45 0 0 0 0 0 0 29 138 18 3 2 0 0 0 67 40 19 20 73 64 32 0 3 0 0 0 56 119 27 0 0 61 6 0 0 0 0 0 4 138 50 0 0 8 9 1 13 64 12 0 1 138 138 1 3 0 0 0 1 79 125 0 0 67 2 0 0 0 0 0 5 138 8 0 0 10 21 11 83 20 0 0 0 138 124 12 21 0 0 0 0 69 41 0 0 38 6 0 0 0 0 0 2 128 12 0 0 6 8 4 37 8 1 0 0 117 53 5 9 0 0 0 0 48 9 0 0 
230.237 125.432 1.46945 1.07173 0 0 0 0 0 0 12 14 48 13 0 0 0 0 6 26 48 86 42 24 1 0 0 1 0 6 23 86 22 0 0 0 0 0 0 0 0 0 5 4 142 7 0 0 0 0 0 24 142 110 39 37 18 5 0 9 10 15 27 135 142 31 1 2 0 3 1 0 0 0 0 0 142 10 0 0 0 0 0 5 142 9 0 2 29 58 16 65 10 1 0 5 142 142 9 9 1 8 1 0 0 0 0 0 95 22 0 0 0 0 0 7 126 3 0 0 17 60 26 55 0 0 0 1 79 96 6 2 
232.429 128.917 1.75829 1.09827 15 4 0 0 0 4 13 26 32 67 31 19 1 1 0 3 2 13 23 75 20 0 0 0 7 37 27 8 2 0 0 0 63 2 0 0 0 0 4 23 150 107 45 44 16 4 0 17 28 29 40 150 150 33 2 7 61 40 13 17 27 11 10 55 72 7 0 0 0 0 0 4 150 11 1 3 33 56 14 72 29 3 1 13 150 150 14 23 8 0 0 0 26 23 22 105 39 18 0 0 0 0 0 2 127 6 0 0 15 49 27 58 2 0 0 3 93 100 11 6 3 2 7 4 8 2 0 11 
232.429 128.917 1.75829 4.47855 26 3 0 1 0 2 6 8 118 75 22 34 14 0 0 4 4 13 14 90 124 3 0 0 0 0 0 1 15 7 0 0 56 10 26 39 0 0 1 3 145 104 15 47 34 2 1 20 29 23 11 145 145 5 2 6 0 0 1 25 38 1 0 0 34 14 47 96 34 11 3 10 145 16 5 17 28 17 49 145 16 2 0 63 145 87 67 61 0 0 10 49 60 4 0 0 6 0 0 5 30 48 32 17 4 0 0 1 17 17 21 70 1 0 0 1 21 49 45 38 6 11 11 11 17 12 0 0 
25.102 151.925 1.74783 0.352932 21 10 0 0 0 0 0 1 68 91 45 39 3 0 0 0 1 10 27 131 42 0 0 0 0 0 0 11 7 0 0 0 64 22 0 0 0 0 0 1 146 139 26 50 25 3 1 14 26 28 22 146 146 15 1 4 0 0 0 22 57 1 0 0 63 9 0 0 0 0 0 17 146 12 0 3 19 39 50 146 21 2 0 16 146 146 49 35 0 0 0 2 65 16 0 0 9 0 0 0 0 0 0 25 17 0 0 0 0 12 43 96 0 0 0 0 28 78 42 12 0 2 9 4 17 6 0 0 
25.102 151.925 1.74783 3.43696 15 5 0 0 0 1 8 4 28 80 38 9 0 0 0 0 0 15 46 91 18 0 0 0 0 0 0 25 11 0 0 0 60 18 0 0 0 0 0 1 146 146 47 31 20 3 0 13 20 43 52 146 146 16 0 3 0 0 0 18 65 10 0 0 60 2 0 0 0 0 0 21 146 18 1 3 27 34 23 146 25 4 1 11 146 146 24 42 0 0 0 1 56 27 0 0 9 0 0 0 0 0 0 11 48 0 0 0 2 15 31 127 2 0 0 0 66 99 39 30 0 0 0 2 16 9 0 0 
148.614 193.917 1.6875 1.93182 0 15 15 4 5 9 1 0 27 22 3 5 9 7 0 0 82 152 27 23 12 0 0 0 1 21 21 69 117 0 0 0 0 3 1 0 3 40 7 0 125 20 0 0 2 13 1 2 152 91 9 20 66 2 0 25 11 7 5 66 152 2 0 2 0 2 4 11 4 5 0 0 125 20 2 0 0 0 0 3 152 5 0 10 31 6 3 56 20 0 0 104 152 15 3 10 0 6 9 4 0 0 0 0 47 12 8 0 0 0 0 14 133 0 0 0 4 6 16 133 6 0 0 44 58 18 28 33 
150.108 198.848 1.60278 2.0794 10 5 2 1 0 0 0 0 51 71 16 10 0 0 0 0 3 19 21 84 46 0 0 0 0 0 0 10 18 1 1 0 38 10 2 4 9 7 0 1 138 138 21 23 10 0 0 7 18 37 26 138 138 0 0 1 0 0 0 22 67 0 0 0 54 2 0 0 2 9 0 6 138 16 1 6 14 0 0 90 57 4 2 138 138 2 0 28 0 0 0 100 84 0 0 0 26 6 2 1 0 0 0 1 138 1 0 0 0 0 0 79 62 0 0 52 88 19 11 58 0 0 8 124 73 2 0 0 
150.108 198.848 1.60278 4.93906 72 0 0 0 0 0 0 51 157 33 4 8 18 0 0 50 14 10 5 30 157 19 0 2 0 0 0 2 72 23 3 0 93 6 0 0 0 0 0 13 157 30 0 3 36 9 2 43 35 5 0 6 157 70 1 5 0 1 0 0 77 27 0 0 98 11 0 0 0 0 0 7 157 17 0 0 13 71 42 74 11 1 0 0 155 157 23 10 4 18 2 0 30 18 0 1 39 8 0 0 0 0 0 11 37 2 0 0 5 55 33 47 0 0 0 0 23 86 8 1 6 3 0 0 1 3 7 6 
172.289 225.768 1.56103 2.72655 1 7 5 9 0 0 0 0 19 89 20 3 0 0 0 0 5 35 27 33 36 1 0 0 0 0 0 6 44 6 0 0 42 36 3 2 0 0 0 2 134 134 82 29 5 1 0 14 9 42 85 134 134 5 1 4 1 0 0 37 86 1 0 1 78 7 0 0 0 0 0 26 134 34 5 6 8 12 37 134 14 6 6 60 134 110 60 55 0 0 0 29 134 11 0 0 20 6 0 0 0 0 0 20 23 0 0 0 0 2 33 132 0 0 0 0 29 82 72 36 0 0 0 3 58 33 0 0 
172.289 225.768 1.56103 5.50875 38 20 0 0 0 0 0 0 46 123 47 10 0 0 0 0 0 18 52 103 33 0 0 0 0 0 1 23 31 3 1 0 108 26 0 1 1 0 0 1 132 132 40 26 13 7 6 29 12 30 41 132 132 47 6 5 0 0 0 17 108 14 0 0 91 32 0 0 0 0 0 9 132 14 1 1 7 50 115 132 7 2 1 6 115 132 104 22 0 0 0 0 44 47 1 0 29 15 1 0 0 5 7 8 6 1 0 0 0 66 52 14 2 0 0 0 0 53 40 7 1 0 0 0 7 5 2 4 
195.941 255.963 1.74877 1.01845 46 10 0 0 0 0 8 27 103 118 35 13 7 5 6 18 1 24 40 89 76 8 4 1 0 0 11 66 38 8 12 2 70 67 21 4 5 3 4 15 118 45 14 8 20 35 118 103 103 23 32 68 26 25 82 61 10 6 50 118 23 0 0 0 45 22 8 3 10 24 42 56 71 17 4 4 31 63 54 29 118 48 7 6 0 0 57 118 22 11 35 112 37 25 61 76 1 8 4 2 0 2 10 7 21 30 8 0 0 4 8 14 35 21 5 0 0 0 51 90 19 23 13 4 6 28 72 74 
193.033 263.444 1.43262 6.2198 0 2 23 23 0 0 0 1 19 62 29 4 0 0 10 9 41 125 112 0 0 0 10 22 49 85 37 7 20 11 7 42 6 5 17 28 1 0 0 0 125 46 24 12 0 0 0 18 125 125 75 9 8 1 0 18 10 47 50 24 123 51 0 1 3 59 72 4 0 0 0 0 68 45 113 22 1 0 0 6 125 25 6 5 11 23 46 110 12 2 0 5 125 125 35 19 24 75 45 4 0 0 0 0 10 18 45 77 57 1 1 3 14 5 8 16 34 11 62 72 2 2 2 1 33 45 42 26 
232.444 128.904 1.7645 1.10269 20 5 0 0 0 2 14 29 33 66 40 18 0 1 1 3 0 13 35 91 7 0 0 0 3 39 33 10 0 0 0 0 91 4 0 0 0 0 3 24 142 119 43 37 12 3 0 13 19 29 42 142 142 27 2 6 41 37 13 17 23 11 12 47 104 7 0 0 0 0 0 7 142 11 1 3 23 45 17 89 20 3 1 12 142 142 18 22 4 0 0 0 30 33 34 94 51 17 0 0 0 0 0 5 109 2 0 0 8 42 32 74 1 0 0 2 88 114 15 7 3 3 4 3 14 5 1 14 
232.444 128.904 1.7645 4.46862 37 6 0 1 1 2 4 7 104 87 27 32 7 0 0 1 2 12 19 109 114 1 0 0 0 0 0 4 27 7 0 0 69 22 37 38 0 0 0 2 140 117 18 43 22 2 1 20 20 21 13 140 140 6 1 5 0 0 1 35 65 1 0 0 31 16 51 73 26 10 4 9 140 17 5 12 21 18 51 140 11 1 0 48 140 92 63 51 0 0 9 53 83 5 0 0 3 0 0 3 21 49 36 12 0 0 0 0 10 23 38 72 0 0 0 1 21 52 59 32 2 11 14 14 19 12 0 0 
188.548 130.908 2.02978 4.36789 9 0 0 2 4 0 0 9 111 0 0 0 0 0 0 110 80 2 5 75 24 0 0 59 0 0 2 120 70 0 0 0 2 0 0 9 14 0 0 1 130 2 0 0 0 0 0 52 131 30 10 27 15 7 0 49 9 6 7 102 131 41 0 0 1 0 0 2 22 7 0 0 131 17 0 0 0 0 0 6 131 38 0 0 42 60 6 28 7 1 0 1 131 131 1 1 1 1 0 0 5 5 0 0 108 7 0 0 0 0 0 10 129 3 0 0 40 49 13 54 0 0 0 0 105 68 2 0 
232.891 134.431 2.07642 4.57692 0 0 3 9 16 15 1 0 41 18 2 4 3 5 3 7 70 71 47 59 16 0 0 2 0 2 9 69 67 4 0 0 0 3 31 53 10 9 1 0 108 13 42 34 2 3 4 12 137 93 30 97 45 2 2 26 9 9 10 137 137 3 1 3 25 17 38 33 12 1 2 7 60 28 114 86 21 9 5 16 137 16 14 31 43 27 71 137 7 1 1 75 137 69 58 38 11 1 0 3 2 2 34 49 13 2 2 8 22 48 65 32 0 0 0 3 22 43 46 47 3 1 0 1 14 35 48 22 
176.113 134.557 1.99346 4.05008 25 6 0 0 4 5 0 0 114 96 2 1 2 0 0 0 19 50 9 20 140 7 0 0 0 0 0 1 92 7 0 0 59 5 0 0 1 1 0 2 142 64 0 3 17 0 0 6 34 19 1 25 142 17 0 1 0 0 0 15 97 6 0 0 57 0 0 0 1 0 0 7 142 8 0 4 12 0 0 40 46 4 1 96 142 1 0 8 0 0 0 65 98 1 0 0 41 8 0 0 1 0 0 0 142 69 2 4 1 0 0 2 41 27 7 69 141 8 0 0 0 0 0 17 142 10 0 0 
242.36 185.35 2.14065 0.388139 16 43 28 5 1 4 12 9 16 23 27 79 7 0 0 3 0 0 9 132 36 0 0 0 0 1 15 20 10 0 0 1 68 3 0 4 13 10 32 46 132 71 55 38 4 2 1 26 3 12 49 132 107 12 1 1 0 5 35 72 33 1 1 1 116 1 1 2 13 13 2 14 132 20 4 5 20 20 7 51 11 4 5 44 132 127 6 7 0 1 12 23 45 66 18 0 56 3 6 9 5 1 0 15 132 63 22 14 13 1 0 53 20 35 43 132 132 20 0 3 0 0 0 23 76 30 4 0 
242.36 185.35 2.14065 3.0183 8 15 36 13 0 0 3 6 56 110 40 1 0 0 0 2 121 76 3 0 19 60 49 70 7 2 0 0 75 121 38 12 68 10 4 1 0 0 16 41 121 121 41 2 2 3 4 22 22 68 27 7 102 110 6 5 2 0 0 0 112 104 1 2 109 7 0 0 0 0 2 17 121 13 2 0 3 18 35 112 4 3 3 4 112 121 37 18 8 19 10 4 50 56 0 1 73 1 0 0 0 0 0 16 77 0 0 0 1 12 13 49 3 1 9 18 42 38 18 11 17 14 19 26 16 10 6 6 
236.856 201.468 1.73189 0.510865 57 1 0 0 0 0 0 35 52 32 23 27 14 0 0 19 0 5 18 107 71 2 0 0 0 0 0 14 28 4 0 0 100 4 0 0 2 1 0 13 148 90 25 26 19 1 0 8 14 17 21 126 148 6 0 1 0 0 0 16 89 3 0 0 103 0 1 1 0 1 0 12 148 6 0 1 29 15 4 72 22 1 0 6 148 60 4 14 0 0 0 0 107 12 0 0 45 0 1 3 4 1 0 12 145 0 0 0 8 14 9 92 8 0 0 0 148 76 11 19 0 0 0 0 72 11 0 0 
236.856 201.468 1.73189 3.6496 71 12 0 0 0 0 0 0 148 76 11 19 8 0 0 0 8 14 10 91 145 0 0 0 4 1 0 12 45 0 1 3 107 13 0 0 0 0 0 0 148 62 4 14 22 1 0 6 29 15 4 71 148 6 0 1 0 1 0 12 103 0 1 1 89 3 0 0 0 0 0 16 148 7 0 1 14 18 21 125 19 1 0 7 148 91 25 26 2 1 0 13 100 4 0 0 29 4 0 0 0 0 0 14 71 2 0 0 0 5 18 107 14 0 0 19 53 32 23 27 0 0 0 35 57 1 0 0 
146.642 202.864 1.87618 4.88019 1 0 0 0 0 1 16 26 71 0 0 0 0 0 1 134 116 23 22 38 12 0 0 43 1 3 8 81 113 4 0 0 2 0 0 0 0 0 1 4 143 3 0 0 0 0 0 43 143 26 3 7 55 7 0 30 11 3 1 13 143 53 0 0 2 1 0 0 0 0 0 0 143 21 0 0 0 0 0 7 143 25 0 0 48 65 26 42 6 1 0 0 143 138 7 2 2 5 0 0 0 0 0 0 85 11 0 0 0 0 2 20 59 1 0 0 5 89 58 55 1 1 0 0 22 100 9 2 
252.915 94.9572 2.554 0.531148 14 2 0 1 6 14 34 55 6 10 25 32 32 20 9 5 0 0 14 51 14 1 0 0 0 0 0 4 2 0 0 0 49 19 1 3 3 0 1 11 139 112 80 57 3 0 0 8 9 12 56 139 85 0 0 1 0 0 0 35 26 0 0 0 58 31 2 0 0 0 0 8 139 27 6 15 11 0 0 52 54 4 6 139 139 1 0 14 0 0 0 77 90 0 0 0 29 5 3 0 0 0 1 19 139 4 1 1 1 0 0 103 75 5 2 91 139 2 0 40 0 0 0 77 129 0 0 0 
252.915 94.9572 2.554 3.14167 28 3 0 0 0 0 0 1 138 92 0 0 0 0 0 0 119 60 1 2 114 65 4 4 0 0 0 0 138 68 1 1 58 7 0 0 0 0 0 1 138 96 0 0 9 10 2 22 61 32 0 0 138 138 4 8 0 0 0 5 99 75 3 1 48 2 0 0 0 0 0 10 138 4 0 0 4 30 47 138 13 0 0 0 69 138 54 33 1 0 0 0 14 58 15 1 13 14 0 0 0 0 0 2 31 32 9 4 2 5 12 34 2 4 9 25 32 36 12 6 9 3 0 3 5 4 1 1 
201.837 308.106 2.62132 3.18347 83 0 0 0 0 0 0 72 66 21 31 13 7 8 6 43 2 8 37 76 51 6 0 0 0 1 11 15 24 30 6 0 93 3 0 0 0 0 0 48 131 75 14 16 5 1 1 51 21 26 18 131 131 12 1 3 0 0 0 47 106 35 10 0 107 9 0 0 0 0 0 12 131 26 1 2 3 10 15 104 19 5 1 36 120 93 26 29 0 0 0 31 131 14 0 0 59 48 0 0 0 0 0 5 131 96 2 2 14 3 3 23 7 10 3 10 77 32 4 4 0 0 3 61 109 5 0 0 
186.711 125.611 2.92898 1.50744 33 6 0 0 0 0 0 0 108 63 15 30 10 0 0 0 4 9 9 87 89 1 0 0 21 7 0 4 11 1 0 1 60 9 0 0 0 0 0 1 134 78 8 32 18 0 0 8 24 18 7 134 134 0 0 2 17 0 0 29 34 0 0 14 46 2 0 0 0 0 0 18 134 13 0 5 10 1 7 134 19 2 0 134 134 7 17 84 1 0 0 134 50 0 0 5 5 0 0 0 0 0 0 8 19 0 0 0 0 0 8 134 11 0 0 27 15 2 20 134 2 0 0 97 82 3 2 22 
186.711 125.611 2.92898 4.30413 91 0 0 2 4 0 0 34 144 6 2 64 42 0 0 50 2 0 0 144 108 0 0 0 0 0 0 16 18 0 0 0 76 1 0 7 17 0 0 23 144 23 4 30 22 7 0 49 26 7 3 125 144 41 0 1 0 0 0 14 73 6 0 0 85 7 0 0 14 9 0 1 144 17 0 0 25 64 14 42 16 1 0 3 144 144 7 7 0 0 0 0 36 27 0 0 49 16 1 0 1 2 0 4 92 3 0 0 17 63 28 42 0 0 0 0 67 105 6 2 0 0 0 0 4 5 0 0 
