235.194 13.6941 1.02686 3.23942 3 1 0 3 49 54 9 2 0 7 19 16 61 30 0 0 0 1 25 44 21 8 0 0 0 0 2 12 4 0 0 0 22 7 0 0 5 59 54 8 90 130 82 23 10 14 4 11 5 23 95 130 108 7 0 2 0 0 4 60 31 0 0 0 49 18 3 0 9 9 8 15 130 57 14 4 11 16 12 93 12 7 19 72 130 52 12 20 0 0 50 94 27 0 0 0 18 130 58 0 1 2 0 0 34 130 130 69 24 3 0 8 2 6 48 111 107 25 2 2 0 0 14 25 20 46 20 0 
235.194 13.6941 1.02686 6.23015 19 25 17 0 0 0 13 49 89 35 8 1 0 1 14 70 63 14 1 4 18 92 131 125 1 1 0 1 23 131 131 4 36 1 0 0 0 0 20 95 131 71 10 13 9 6 14 64 12 22 12 58 131 65 27 6 4 7 2 6 57 41 21 0 38 0 0 0 0 0 0 48 106 11 0 1 4 23 85 131 7 14 6 8 90 131 76 22 3 28 60 11 27 8 0 0 7 4 0 0 0 0 0 9 27 17 0 0 0 1 17 42 43 58 2 0 0 7 14 9 17 60 32 10 5 3 0 0 
232.893 28.2848 1.03634 0.246877 17 25 4 0 0 0 0 1 33 44 45 1 0 0 0 19 41 5 35 8 0 0 2 80 14 0 1 0 1 13 31 96 86 44 1 0 0 0 0 3 123 123 123 19 2 0 0 11 11 28 123 123 50 1 1 12 10 2 6 46 16 20 18 27 115 5 0 0 0 0 0 29 123 32 7 4 5 3 17 123 14 6 8 112 98 33 51 53 0 0 0 103 85 31 5 0 69 1 0 0 0 0 0 22 123 0 0 0 0 1 16 85 5 0 0 1 7 76 69 30 2 4 9 13 37 66 8 0 
232.893 28.2848 1.03634 2.05825 1 0 10 37 40 38 3 0 13 87 18 22 8 7 2 0 10 102 81 54 5 0 0 0 3 1 26 74 9 4 5 5 34 6 0 0 31 99 11 7 125 125 29 2 3 10 11 32 13 102 50 43 77 70 15 6 0 0 6 48 65 60 18 0 33 0 0 0 1 57 23 36 125 14 2 0 1 18 125 125 6 4 3 3 22 125 125 26 0 0 0 0 7 125 112 0 1 0 0 0 0 15 27 19 2 0 0 0 0 4 94 40 0 0 0 0 0 46 89 2 0 0 0 0 3 31 20 0 
174.606 34.6237 1.05854 5.89922 22 3 1 2 1 4 7 24 43 32 22 1 0 0 5 35 67 11 20 10 5 9 56 113 7 6 1 3 32 48 90 25 58 12 1 3 0 7 14 18 128 128 85 21 4 1 6 40 13 47 107 128 88 14 22 15 39 66 12 33 19 7 30 4 55 8 14 7 0 1 1 14 128 34 6 5 4 7 64 128 12 8 7 46 128 99 118 80 78 29 3 11 43 19 5 43 25 9 2 2 7 12 2 8 49 31 3 2 3 4 17 57 3 4 0 1 9 27 66 54 52 60 0 0 7 19 10 36 
243.938 42.5567 1.00646 0.27626 1 15 20 11 20 55 17 0 0 7 29 14 79 58 3 0 0 2 71 26 26 15 0 0 0 0 20 25 1 1 0 0 24 3 0 0 3 122 56 9 125 125 111 17 9 32 18 30 10 36 125 125 62 57 11 4 0 1 44 104 18 11 2 0 31 1 10 10 2 32 18 24 125 24 5 2 3 37 125 125 11 6 6 18 41 125 125 31 31 2 9 16 11 30 25 36 1 2 55 114 32 2 0 2 2 0 7 24 12 6 37 17 3 0 4 7 0 13 45 17 27 0 0 0 0 1 5 67 
243.938 42.5567 1.00646 4.60213 1 2 0 0 5 23 60 24 5 19 40 4 3 51 22 2 89 8 35 8 0 2 1 22 112 3 1 0 4 7 7 53 39 21 2 0 3 12 5 1 127 127 127 38 6 3 3 15 38 31 127 127 85 22 3 12 75 2 3 10 17 8 18 73 45 40 49 2 0 0 0 1 127 40 12 8 8 38 58 122 14 4 7 38 127 127 63 35 3 0 0 2 23 31 28 82 5 16 49 8 2 11 7 7 15 4 10 4 7 73 41 20 0 0 0 0 17 112 34 3 5 0 0 0 5 10 7 22 
393.055 43.1703 0.978634 1.72042 2 7 7 11 3 12 3 1 0 41 46 9 0 3 13 2 0 3 46 41 0 4 26 1 0 2 7 5 0 4 18 1 30 27 18 37 16 8 2 6 134 134 133 46 7 5 7 30 8 33 134 134 105 29 7 6 2 2 12 62 42 2 0 1 47 9 14 6 10 7 3 23 134 31 14 11 9 32 134 134 8 6 6 45 114 134 134 31 1 4 1 16 51 42 10 1 35 41 22 9 6 5 2 7 1 4 14 22 63 44 38 14 6 1 0 0 9 49 60 5 16 8 1 0 0 7 8 5 
393.055 43.1703 0.978634 3.92679 8 15 0 0 4 6 7 2 8 48 48 18 1 1 4 2 0 2 43 62 6 11 5 0 0 9 23 8 1 4 4 2 71 22 0 5 0 0 1 17 135 135 118 43 7 7 7 30 9 35 133 135 121 40 6 5 19 55 54 34 21 5 3 11 60 2 2 25 5 0 0 30 135 28 5 6 6 40 135 135 10 10 9 33 105 135 133 33 17 6 2 4 20 39 23 33 1 0 1 14 7 0 1 4 11 2 7 7 2 3 49 37 40 17 11 2 3 21 33 17 2 5 7 5 32 23 4 1 
393.055 43.1703 0.978634 6.21128 11 8 15 24 18 14 22 37 1 14 45 23 27 15 6 3 4 11 36 19 8 22 17 18 2 0 3 9 16 29 8 5 54 13 0 0 2 8 38 61 132 132 132 33 10 12 13 32 6 24 132 132 132 43 9 6 7 3 0 36 48 12 2 5 74 8 10 5 0 0 0 28 132 33 9 5 5 44 132 132 7 5 9 35 124 132 118 23 20 9 0 5 39 45 0 1 8 2 5 11 6 0 2 7 7 1 1 2 1 16 70 30 3 1 0 1 10 59 38 1 24 6 0 0 2 5 0 1 
346.747 50.3297 0.877755 1.79708 4 10 0 0 22 64 22 3 5 121 49 1 8 8 0 0 0 68 108 23 4 0 0 0 0 3 44 28 13 0 0 0 78 36 0 0 0 12 13 3 130 130 78 19 7 6 5 31 9 44 97 127 130 35 5 6 0 0 1 21 70 11 2 0 77 6 0 0 0 0 0 39 130 19 2 3 5 29 110 130 7 3 2 13 94 130 130 32 0 0 0 1 25 56 48 0 8 9 9 0 0 0 0 10 10 2 1 0 0 5 43 58 0 0 0 1 6 44 66 8 0 0 0 0 0 9 26 7 
346.747 50.3297 0.877755 5.87219 1 7 6 7 2 1 2 1 0 28 76 16 4 1 0 0 0 1 59 59 1 0 0 0 11 12 1 11 1 0 0 0 63 49 4 0 0 0 2 7 129 129 129 32 2 2 3 23 6 23 129 129 104 12 4 4 32 9 1 71 52 0 0 6 76 47 1 0 0 0 0 10 129 35 7 6 3 12 72 129 7 4 7 52 129 129 94 46 6 0 0 18 129 24 0 10 27 11 0 0 0 0 5 36 7 2 0 0 0 2 37 56 0 0 0 0 39 73 41 15 0 1 0 0 59 26 0 0 
270.885 62.391 1.0687 1.51475 17 10 2 0 0 0 0 8 14 34 32 0 0 0 0 6 24 16 46 13 0 2 5 11 8 1 1 6 1 23 26 12 48 31 6 0 0 0 0 4 124 124 112 11 2 3 5 25 10 40 124 124 68 31 9 6 0 0 4 62 50 22 4 2 32 48 124 37 2 0 0 3 124 32 31 26 13 20 101 124 10 6 8 30 71 124 124 34 0 0 0 8 51 103 8 0 11 30 78 62 40 40 58 28 3 2 11 38 106 68 35 8 6 17 10 5 5 32 51 2 0 1 14 22 14 14 2 0 
270.885 62.391 1.0687 2.99192 1 4 1 18 28 12 16 4 3 63 46 17 7 3 0 0 0 10 48 104 11 0 0 0 8 20 14 18 2 0 0 0 50 11 0 0 2 7 23 16 125 125 68 27 8 6 10 39 8 34 73 125 125 34 10 6 13 9 3 30 57 2 3 14 32 0 0 0 0 5 16 36 110 14 2 2 5 22 125 125 25 27 17 20 109 125 125 33 4 21 79 71 40 9 3 4 4 0 0 0 0 4 14 12 14 0 0 0 0 3 44 33 125 71 9 0 0 3 28 38 44 61 55 64 69 31 6 13 
270.885 62.391 1.0687 6.01993 75 29 2 4 14 43 60 94 1 5 22 26 123 115 25 5 0 1 36 35 29 4 0 0 0 2 11 13 6 0 0 0 46 11 3 8 2 9 46 63 117 123 123 35 19 25 20 20 5 19 123 123 104 17 2 2 0 3 18 40 30 1 0 0 61 3 1 9 13 15 4 31 123 34 10 6 8 39 74 123 7 6 10 39 123 123 66 22 0 4 17 15 50 11 0 0 6 0 0 0 2 13 11 22 16 0 0 0 0 12 47 96 12 5 1 0 4 58 43 12 24 12 27 11 2 2 1 10 
122.043 84.297 1.04804 1.75462 67 11 21 5 1 7 5 45 112 20 7 7 11 21 20 101 19 34 48 42 33 24 7 5 19 33 46 19 16 42 58 11 47 39 29 5 0 0 0 5 124 124 21 7 5 3 1 22 16 45 43 53 124 58 4 4 0 0 1 5 92 105 59 5 41 5 0 0 0 4 13 34 124 21 1 1 7 22 23 124 14 4 2 4 124 124 28 33 13 16 33 23 91 44 4 3 11 5 0 0 0 0 31 37 46 7 4 1 0 12 31 124 6 1 2 7 56 113 38 28 62 13 9 10 16 25 10 31 
122.043 84.297 1.04804 5.19415 41 20 7 19 13 3 11 18 45 53 68 69 3 2 3 3 0 1 40 129 10 3 0 0 0 8 43 9 2 0 0 0 102 34 6 25 28 18 15 18 129 94 38 63 10 3 1 11 6 10 25 129 129 14 1 1 2 3 3 28 37 11 5 0 129 33 12 0 0 6 15 26 129 19 2 4 13 27 31 78 7 2 2 51 129 92 23 13 0 0 1 47 81 34 23 0 40 111 54 3 2 3 3 10 35 33 21 11 32 33 41 26 49 26 26 51 30 15 31 21 4 9 27 129 72 2 0 0 
126.185 90.2352 1.09484 3.40007 7 8 3 5 2 0 9 10 12 56 64 9 2 0 0 1 0 12 124 42 6 0 0 0 2 21 34 40 6 0 0 0 57 7 0 1 4 7 9 21 124 124 48 13 4 1 1 21 10 35 85 123 111 7 1 4 18 20 36 52 42 4 0 2 53 79 22 0 0 3 3 6 124 76 32 5 4 3 19 87 38 27 49 70 62 16 31 40 7 19 124 76 7 0 0 1 58 124 46 0 0 0 4 18 22 98 124 63 15 20 18 15 41 32 25 17 9 24 42 38 19 19 53 19 5 22 70 64 
348.068 97.7623 1.22665 1.50349 14 5 4 5 0 0 1 11 5 11 45 41 6 0 0 2 0 2 35 49 9 0 1 1 0 3 1 3 1 0 2 1 38 4 11 9 1 0 4 39 138 138 117 51 16 8 4 40 14 43 108 138 138 27 3 5 7 4 1 15 34 1 0 2 26 5 55 74 30 0 0 9 138 32 7 12 26 49 86 138 15 8 4 33 138 138 85 45 2 0 5 18 47 5 1 2 0 1 8 44 126 11 0 1 3 0 1 14 30 6 34 42 4 2 0 2 11 30 54 16 2 4 9 15 11 4 4 1 
348.068 97.7623 1.22665 4.66702 10 4 4 2 2 5 9 14 11 30 56 16 4 2 0 1 31 6 34 41 3 0 2 17 123 9 0 1 0 1 10 50 46 5 1 1 2 0 6 19 138 138 86 46 15 8 4 34 26 47 86 138 138 31 8 13 26 0 0 9 26 5 59 71 34 1 1 2 7 3 0 15 138 26 3 5 14 43 107 138 16 8 4 42 138 138 119 51 1 0 4 40 38 4 10 7 1 0 2 0 1 4 1 3 8 0 1 1 0 2 35 49 6 0 0 2 5 11 46 40 0 0 1 11 14 5 5 5 
98.8326 124.194 0.923704 5.59684 3 14 0 0 0 1 1 0 4 78 42 2 0 0 0 0 0 15 65 66 3 0 0 0 0 0 4 27 6 0 0 0 66 33 0 0 0 0 0 2 129 129 98 20 3 2 4 26 9 43 122 129 129 23 5 6 0 0 0 53 92 5 0 0 66 23 9 0 0 0 0 13 129 27 4 4 4 16 106 129 9 6 4 28 129 129 129 43 0 0 0 4 100 54 1 0 3 25 25 4 8 2 0 1 3 2 2 1 10 26 50 25 0 0 0 0 2 54 76 5 0 0 0 4 10 19 3 0 
99.6958 136.371 1.05321 4.93036 1 13 13 1 0 0 0 0 0 53 67 3 0 0 0 0 0 23 128 11 0 0 0 0 0 13 88 14 0 0 0 0 37 34 18 0 0 0 1 6 128 128 106 16 3 2 2 19 12 48 128 128 67 26 3 5 0 4 55 34 29 64 11 0 45 5 0 0 0 6 8 25 128 24 4 3 4 17 83 128 13 6 5 25 94 128 128 42 0 0 0 2 47 128 17 0 8 0 0 3 4 3 3 8 13 0 0 0 0 4 69 54 0 0 0 1 3 56 96 7 0 0 1 5 9 33 5 1 
114.994 151.309 1.03196 4.90953 15 5 5 12 6 0 0 7 36 43 23 1 0 0 0 18 17 18 41 20 15 10 0 5 2 1 4 10 20 20 2 2 34 23 14 20 13 0 0 1 134 134 119 22 6 5 3 23 14 53 134 134 134 34 3 5 2 4 11 38 63 12 3 3 42 38 44 18 2 0 1 5 134 38 21 18 8 33 89 134 15 7 7 35 134 134 111 41 0 0 1 23 71 27 10 12 35 42 33 29 8 0 1 15 4 1 11 68 52 8 41 27 0 5 5 7 12 35 69 8 0 7 22 17 13 7 5 0 
94.8307 159.469 1.03628 0.457814 0 4 12 15 6 0 0 0 1 21 57 11 0 0 0 0 1 8 46 23 3 2 2 1 1 4 1 4 8 9 2 1 34 21 11 6 10 3 2 5 136 136 136 31 7 7 8 31 8 38 136 136 136 42 8 6 0 1 5 38 54 9 1 0 46 3 2 21 16 2 2 19 136 36 8 6 7 37 136 136 8 7 9 33 136 136 136 31 6 13 6 6 52 24 0 0 1 0 0 9 20 2 6 11 2 2 0 2 6 6 42 23 0 1 0 1 5 32 39 3 11 22 4 1 2 3 0 2 
94.8307 159.469 1.03628 1.90702 2 3 4 6 4 1 1 5 3 38 52 12 2 0 0 1 7 7 50 28 0 0 4 13 7 1 2 2 0 0 8 30 47 23 3 2 2 0 1 7 136 136 136 43 8 6 8 35 9 35 136 136 136 32 8 7 1 1 5 33 38 3 0 2 58 17 0 0 0 0 0 16 136 32 7 7 8 29 136 136 9 5 7 38 136 136 136 38 0 1 4 7 42 23 2 2 11 14 14 1 0 0 0 3 8 6 12 5 3 4 38 18 1 16 20 2 2 20 45 5 0 3 19 3 5 11 1 1 
94.8307 159.469 1.03628 4.09426 6 9 5 1 2 0 0 2 4 31 35 4 2 1 1 4 4 5 37 28 4 0 4 20 4 2 1 2 1 3 14 25 46 22 0 0 8 6 3 9 138 138 135 36 9 7 7 35 8 40 129 138 138 42 7 7 6 4 2 27 28 11 4 13 45 2 0 1 13 7 5 35 138 34 7 6 8 46 138 138 8 7 7 37 126 138 138 31 0 0 0 4 22 46 18 3 6 1 0 0 1 6 10 9 7 5 0 0 3 7 46 34 2 2 0 1 5 33 38 4 0 0 0 2 5 9 12 2 
177.663 160.965 1.05055 0.192378 48 5 0 0 0 0 0 2 135 83 0 0 0 0 0 1 89 81 23 37 79 27 1 4 0 0 1 27 135 33 0 0 81 8 0 0 0 0 0 0 135 55 0 0 0 5 4 16 94 16 0 0 91 135 14 17 0 0 0 0 135 116 0 0 77 10 0 0 0 0 0 1 135 9 0 0 1 14 19 69 18 1 0 0 79 135 28 22 0 0 0 0 60 61 0 0 53 12 0 0 0 0 0 1 123 6 0 0 4 5 2 15 8 0 0 0 88 35 3 4 0 0 0 0 48 16 0 0 
214.102 161.637 0.909913 1.87128 17 9 1 0 0 0 0 0 51 21 0 0 0 0 0 14 124 103 8 1 0 0 0 23 48 33 16 14 21 27 7 17 17 7 0 0 0 0 0 0 137 35 0 0 0 0 0 3 137 137 23 9 4 1 0 16 21 57 38 80 137 22 1 4 14 3 0 0 0 0 0 2 137 4 0 0 0 0 0 29 137 14 0 1 3 12 37 137 18 4 0 7 137 137 58 46 10 3 0 0 0 0 0 2 69 8 0 0 0 0 0 12 82 0 0 0 0 4 22 97 2 0 0 0 46 75 37 23 
225.306 173.678 1.01945 2.27679 67 39 5 6 1 0 1 6 13 26 46 53 12 0 1 4 70 36 42 9 2 3 4 15 12 0 0 0 28 86 32 18 41 42 11 0 1 6 3 7 121 121 84 16 3 1 2 13 12 32 121 111 84 13 0 2 0 0 2 14 121 45 0 0 44 17 15 8 9 15 3 7 121 38 6 3 7 17 11 68 22 5 6 25 121 121 13 22 0 0 0 2 121 97 0 0 27 41 44 8 0 0 0 12 77 109 27 11 7 4 1 6 7 11 15 88 121 36 2 3 0 0 0 26 87 34 0 0 
158.481 183.59 1.04211 0.935249 123 17 0 0 0 0 0 8 131 19 0 0 0 8 10 73 28 0 0 2 102 131 21 32 0 0 0 3 75 55 44 0 131 34 0 0 0 0 0 6 131 50 3 5 3 6 6 52 23 14 5 38 131 62 10 12 0 4 3 11 131 33 1 0 84 98 0 0 0 0 0 1 131 55 1 2 3 20 31 60 14 14 7 8 48 125 51 15 2 30 78 25 45 19 0 0 50 100 0 0 0 0 0 4 20 39 2 10 4 7 8 4 32 29 10 14 6 14 9 14 26 32 60 14 2 3 11 25 
240.566 218.526 0.992304 2.03706 18 41 26 0 0 0 0 10 42 126 19 0 0 0 0 0 3 56 51 25 39 7 0 0 2 2 2 4 35 54 27 2 76 12 11 4 0 0 2 45 126 126 25 11 8 6 7 36 10 45 34 51 126 78 7 5 0 0 0 0 98 86 3 0 43 2 33 76 30 2 1 22 126 11 1 3 8 34 126 126 6 3 1 3 97 126 122 22 0 0 0 0 35 78 6 0 0 0 2 24 96 66 2 2 0 0 0 0 11 32 78 20 0 0 0 0 0 53 71 2 1 0 0 0 0 16 11 9 
240.566 218.526 0.992304 5.62876 3 25 6 0 0 0 0 0 11 73 49 2 0 0 0 0 55 18 36 24 1 0 11 54 14 0 0 2 4 43 91 59 54 60 5 1 0 0 0 0 130 130 104 25 5 1 1 11 7 35 106 130 100 7 5 6 0 0 13 68 30 14 29 4 107 19 1 0 0 0 0 7 130 36 6 5 8 17 21 128 15 6 6 54 130 90 26 32 0 0 9 40 92 23 1 0 57 27 0 0 0 0 0 6 106 18 1 0 0 8 11 63 5 0 0 0 55 97 19 19 0 0 0 0 70 68 0 0 
244.505 241.705 0.96784 2.56245 22 1 0 0 0 0 1 14 41 22 12 2 0 0 0 3 8 50 106 21 0 0 0 0 0 9 130 18 0 0 1 0 23 50 11 0 0 0 0 3 95 49 31 1 0 0 0 6 130 130 72 0 0 0 1 31 24 58 130 41 13 18 12 15 59 91 14 0 0 0 0 4 37 51 67 32 19 13 3 10 117 11 4 8 12 17 93 130 17 5 4 3 9 105 130 85 36 12 2 0 2 4 19 33 12 3 1 4 18 84 62 26 0 0 0 1 15 96 75 19 0 0 0 0 0 34 130 11 
113.203 241.746 1.00287 0.45093 14 9 6 7 0 0 0 3 4 36 41 5 0 0 4 9 3 8 46 23 0 1 7 17 0 0 4 7 3 14 8 3 51 18 1 1 0 0 3 27 135 135 133 25 5 4 7 36 9 43 135 135 121 29 8 7 1 1 6 41 46 18 1 0 49 2 0 0 0 0 0 42 135 33 6 4 5 20 134 135 9 7 8 35 131 135 135 45 20 6 0 4 53 64 4 1 10 5 2 0 0 0 0 4 5 2 4 2 0 2 39 45 0 0 0 0 2 44 60 8 21 1 0 0 2 14 4 12 
113.203 241.746 1.00287 5.65523 3 10 3 0 0 0 0 0 15 54 29 2 0 0 0 0 4 11 38 30 8 4 0 0 14 13 3 5 2 0 0 1 41 44 5 1 1 0 0 1 136 136 136 30 5 4 5 25 9 38 136 136 121 25 5 4 17 8 3 38 34 2 0 2 55 11 1 2 3 1 1 27 136 41 9 6 6 31 118 136 10 6 9 43 136 136 132 37 4 1 0 9 55 24 5 7 2 0 0 0 1 1 6 10 3 8 3 0 0 4 64 58 0 9 16 0 1 33 76 13 0 0 7 4 7 7 9 3 
165.586 242.898 0.955054 1.8007 85 84 1 0 0 0 0 2 117 26 1 0 0 4 35 91 4 0 2 19 44 111 95 37 0 0 4 43 66 90 9 0 35 121 54 8 2 0 0 0 33 59 35 49 70 8 17 20 116 37 32 53 26 5 15 33 8 10 74 121 25 3 0 1 23 74 57 40 32 44 47 12 33 22 11 30 121 71 40 8 121 23 4 7 27 12 8 39 17 3 17 47 30 61 24 14 14 0 0 3 39 121 57 23 44 23 19 3 9 27 50 39 68 22 10 2 5 7 15 34 10 0 0 22 62 36 7 9 
165.586 242.898 0.955054 4.86768 59 53 14 4 6 0 0 13 7 7 11 29 71 23 7 3 7 20 42 36 42 27 23 4 17 120 57 34 24 2 0 0 32 50 24 11 15 4 20 68 23 13 8 29 120 36 5 8 120 80 40 10 33 23 10 21 34 60 61 17 17 55 41 37 35 5 0 0 6 10 49 120 30 6 15 33 102 41 26 49 81 9 14 18 27 65 40 46 2 0 0 0 17 120 74 14 67 117 24 0 0 0 1 27 32 92 112 56 11 0 1 10 0 1 18 68 120 45 2 0 0 0 0 0 53 105 3 0 
191.936 245.373 0.983255 3.90685 8 5 2 0 0 0 0 0 12 33 3 0 0 0 0 0 9 138 45 0 0 0 0 0 0 112 138 21 1 0 0 0 4 17 18 0 0 0 0 0 81 46 10 0 0 0 0 2 138 138 15 0 0 0 3 37 43 138 104 35 31 60 19 19 16 30 22 2 0 0 2 12 46 10 24 14 6 7 5 21 138 10 0 0 0 2 72 138 21 4 0 0 6 138 138 83 6 1 0 0 0 1 20 34 0 0 0 1 3 24 35 14 1 0 0 0 0 7 58 68 0 0 0 0 0 50 90 15 
186.968 246.689 1.0601 4.96864 8 0 0 0 0 0 0 10 29 8 0 0 0 0 1 11 30 88 47 4 0 0 0 1 0 21 89 73 3 0 0 0 11 4 0 0 0 0 0 5 103 21 0 0 0 0 0 3 137 137 41 6 0 0 0 14 26 69 93 137 99 2 0 4 14 4 0 0 0 0 0 3 101 3 0 0 0 0 0 26 137 17 0 0 0 1 35 137 33 6 2 27 125 115 103 81 4 1 0 0 0 0 1 8 15 0 0 0 0 0 2 30 19 4 0 0 0 0 48 129 1 1 1 1 6 67 125 40 
232.845 250.574 0.889737 1.42489 10 0 0 0 0 5 135 116 42 3 1 6 10 15 44 125 3 3 3 26 66 16 2 6 11 38 16 8 13 1 0 0 76 5 0 0 0 0 4 25 135 55 8 8 1 0 0 38 23 22 15 100 55 1 0 3 28 18 2 20 15 1 12 20 70 14 3 0 0 0 0 5 135 36 2 2 1 0 0 44 65 34 33 135 42 0 0 10 0 0 2 115 50 5 13 6 59 28 0 0 0 0 0 1 135 108 1 0 0 0 0 3 96 76 40 69 55 16 1 5 0 0 2 82 135 28 0 0 
245.062 257.925 0.948603 5.04475 4 1 0 0 0 37 99 11 17 40 12 0 0 13 46 16 2 22 77 11 1 7 8 1 4 11 60 6 0 0 6 3 70 15 0 0 0 7 21 18 131 131 69 9 1 3 5 30 11 61 131 97 40 35 8 5 0 1 77 26 12 20 10 4 59 2 0 0 0 1 5 60 131 28 4 2 1 15 110 131 11 7 7 19 38 131 131 48 16 0 0 2 7 51 59 46 1 0 0 0 5 3 4 20 2 0 0 0 0 1 79 85 1 0 0 0 0 15 127 55 40 0 0 0 0 2 16 89 
361.145 262.415 1.00592 1.70303 2 6 5 4 4 9 5 1 0 33 64 6 1 8 4 0 1 5 42 39 2 0 1 2 12 6 0 3 0 1 5 6 44 35 5 15 10 0 0 0 135 135 135 46 10 5 3 24 8 28 132 135 135 19 3 5 5 7 4 39 32 4 0 0 55 25 3 4 7 3 0 10 135 38 8 7 12 39 121 135 10 5 7 47 135 135 121 36 0 0 2 20 58 14 2 0 21 6 0 0 1 4 4 11 4 1 2 4 12 31 63 22 1 0 2 4 3 38 77 8 8 5 5 2 5 5 9 9 
361.145 262.415 1.00592 4.33603 15 6 0 0 0 3 9 5 12 37 42 16 2 1 2 1 4 11 64 55 2 1 1 6 6 15 14 10 2 5 5 8 53 20 1 0 0 5 3 10 138 138 97 26 8 7 5 36 11 54 138 138 138 51 6 7 0 8 12 22 38 26 7 0 42 2 0 3 2 11 4 30 138 30 4 3 7 36 128 138 11 7 5 19 129 138 134 44 12 8 1 1 25 50 12 2 2 1 0 6 8 4 2 4 2 3 7 0 0 3 53 44 7 3 4 0 0 34 54 11 21 4 0 0 0 4 5 13 
64.3534 315.036 0.874092 1.28634 20 13 3 5 3 0 0 15 41 58 29 6 4 11 18 68 1 7 40 73 51 36 11 5 2 2 8 22 8 2 2 2 71 35 1 4 12 5 1 5 137 137 92 26 5 6 8 37 10 36 117 137 117 45 10 7 2 14 35 75 35 8 1 1 66 8 4 1 2 3 0 29 137 20 3 2 3 29 137 137 7 3 4 22 82 137 137 31 2 2 2 7 25 51 38 14 4 13 12 2 0 0 2 4 3 2 2 2 16 15 48 23 0 0 0 1 6 27 67 15 0 0 0 0 0 5 17 23 
64.3534 315.036 0.874092 5.77828 6 6 2 4 10 1 4 3 1 22 62 12 11 1 0 1 1 3 65 34 1 0 9 15 0 0 5 12 5 12 23 3 60 20 1 0 0 0 16 16 135 135 135 23 3 3 3 21 8 33 135 135 89 21 4 5 3 33 50 78 30 3 0 0 75 26 5 0 0 0 1 14 135 33 7 4 4 25 91 135 11 7 10 44 111 135 130 37 24 26 12 13 36 49 30 51 22 25 2 0 0 0 0 5 25 14 6 7 12 17 34 37 0 0 0 3 19 90 52 4 1 1 3 1 2 17 29 24 
330.476 341.639 0.969117 2.0698 1 11 2 0 0 2 0 0 0 43 61 3 0 0 0 0 0 5 66 33 0 0 0 0 0 0 3 11 3 1 0 0 61 47 1 0 0 0 0 1 132 132 132 31 6 2 2 16 7 31 132 132 128 10 2 3 0 0 4 52 63 0 0 0 79 7 0 0 0 0 0 37 132 33 6 7 8 23 79 132 9 6 6 45 132 132 91 36 2 5 3 13 88 28 0 0 6 0 0 1 1 0 0 23 20 0 0 0 0 4 42 114 3 0 0 0 27 67 50 23 2 0 0 1 23 17 3 5 
330.476 341.639 0.969117 4.82792 6 12 1 3 4 8 7 2 17 98 45 5 1 0 0 0 2 19 49 68 34 1 0 0 0 0 0 17 33 3 0 0 83 29 0 0 0 1 5 7 131 131 82 21 7 7 6 33 9 35 92 131 131 45 6 6 0 0 0 38 100 9 0 0 60 3 0 0 0 0 2 46 131 16 2 2 5 31 131 131 7 3 2 11 128 131 131 31 0 0 0 1 56 55 2 0 0 0 0 1 1 0 3 10 0 0 0 0 0 3 64 37 0 0 0 0 0 39 66 4 0 0 1 0 1 13 2 0 
237.786 6.58244 1.265 1.04791 13 4 0 0 0 0 0 1 22 57 51 7 0 0 0 1 0 7 60 56 12 0 3 5 2 0 0 6 10 4 7 23 81 18 0 0 0 0 0 2 141 141 83 34 13 5 2 20 13 37 88 141 141 21 2 5 6 0 0 15 71 3 2 17 89 3 0 0 0 0 0 17 141 22 3 4 13 33 62 141 14 5 12 41 141 141 65 41 4 4 28 61 59 4 0 3 38 1 0 0 0 0 0 9 65 2 0 0 0 7 31 72 7 2 9 8 8 25 70 50 4 2 20 46 30 25 24 17 
237.786 6.58244 1.265 4.18759 30 25 23 17 4 2 20 46 8 25 69 51 7 2 9 8 0 7 31 71 65 2 0 0 0 0 0 9 39 1 0 0 59 4 0 3 4 4 28 61 141 141 65 41 14 5 12 41 13 33 62 141 141 22 3 4 0 0 0 17 90 3 0 0 71 3 2 17 6 0 0 15 141 21 2 5 13 37 88 141 12 5 2 20 141 141 83 33 0 0 0 2 81 19 0 0 10 4 7 23 2 0 0 6 12 0 3 5 0 7 60 56 0 0 0 1 22 57 51 6 0 0 0 1 13 4 0 0 
27.7445 13.4734 1.17657 1.37508 10 12 2 0 0 0 0 2 7 59 63 1 0 0 0 0 1 22 102 21 1 0 0 0 1 6 14 12 16 4 0 0 63 42 6 2 0 0 0 4 130 130 116 16 4 5 5 30 8 38 130 130 124 46 6 6 0 0 4 32 106 28 0 0 50 7 3 3 1 0 2 28 130 25 4 2 4 25 121 130 7 5 5 16 99 130 127 38 0 0 0 2 60 90 0 0 7 13 1 1 3 3 2 4 4 0 0 0 6 8 44 46 1 0 0 1 7 50 45 14 0 0 2 6 6 15 1 0 
27.7445 13.4734 1.17657 5.21934 7 17 13 3 0 0 0 1 7 30 56 8 1 0 0 6 0 5 40 38 6 2 2 2 0 1 2 7 3 7 7 1 75 32 4 0 0 0 2 9 132 132 132 35 6 4 3 17 5 26 130 132 126 20 3 3 0 0 1 50 60 6 2 0 108 4 0 0 0 0 1 38 132 31 7 6 7 40 95 132 7 5 6 41 132 132 89 23 0 0 0 15 71 43 0 0 28 0 0 0 0 0 0 30 17 0 0 0 1 19 49 81 0 0 0 0 12 96 37 4 0 0 0 5 11 15 1 0 
317.406 44.3694 1.19213 3.4097 2 8 0 0 2 13 11 1 6 75 32 1 0 2 0 0 12 44 46 22 2 0 0 2 5 2 2 5 2 0 11 21 55 25 0 1 2 0 0 0 142 142 85 20 4 0 0 6 12 47 107 142 109 0 0 1 0 10 20 42 28 0 1 1 85 3 0 0 1 0 0 11 142 30 4 6 12 4 5 128 42 8 6 81 142 20 9 40 0 15 23 41 65 0 0 1 32 0 1 4 0 0 0 9 142 0 0 0 0 2 6 138 31 0 0 4 104 59 29 65 1 2 1 5 50 32 13 5 
225.747 46.4433 1.1712 1.48663 18 18 5 2 6 4 1 3 76 134 30 0 0 0 0 3 28 50 45 30 39 8 1 9 0 0 0 15 97 19 8 2 70 3 0 0 4 12 10 18 134 112 17 4 3 8 7 35 25 45 40 55 134 126 9 7 0 0 0 7 103 118 2 0 48 0 0 0 0 3 10 39 134 7 0 0 1 29 122 134 9 3 0 0 40 134 129 27 0 6 1 0 12 102 12 0 2 1 0 0 0 0 3 14 4 0 0 0 0 3 46 53 7 7 0 0 0 30 42 9 8 33 7 0 0 4 0 1 
225.747 46.4433 1.1712 5.44025 0 6 13 8 0 0 0 0 0 35 62 8 0 0 0 0 1 10 51 35 0 0 0 0 15 25 9 2 0 0 0 3 43 30 4 7 11 1 0 0 133 133 113 36 2 0 0 7 8 29 118 133 32 0 0 1 7 5 19 81 8 0 0 3 85 11 0 1 11 2 0 6 133 36 7 9 5 6 16 129 22 7 9 133 129 60 34 43 0 0 3 91 126 17 0 0 41 3 0 0 1 2 2 16 86 1 0 0 0 0 17 125 11 1 5 12 21 33 42 77 1 0 28 87 57 12 1 4 
102.612 84.9151 1.15772 1.88149 11 6 2 7 2 28 78 11 43 90 26 4 0 7 22 14 16 42 43 34 12 4 8 8 8 14 4 4 15 52 40 10 65 13 4 17 18 15 4 6 138 138 43 23 14 8 6 33 18 46 55 115 138 71 11 7 0 0 1 3 54 72 47 0 44 11 10 1 3 9 6 16 138 13 1 2 9 42 120 138 12 3 1 6 138 138 129 37 7 3 11 13 46 32 10 8 0 4 8 3 5 5 1 1 1 0 0 0 18 31 47 21 11 0 0 1 9 56 53 10 37 1 0 4 13 5 3 17 
102.612 84.9151 1.15772 5.28518 2 9 6 27 24 0 0 1 23 69 37 4 0 0 0 4 15 16 32 24 2 1 2 2 1 1 2 2 2 17 8 0 38 32 7 29 9 4 6 13 139 139 120 41 9 1 1 13 10 36 105 139 139 7 1 3 16 16 8 26 39 6 3 5 64 48 15 0 0 2 6 11 139 50 8 8 15 24 43 139 18 7 6 56 139 139 51 40 9 7 9 18 81 12 8 14 37 79 17 1 0 0 0 0 20 28 20 9 16 18 26 36 0 6 11 11 43 73 32 9 0 87 54 10 16 5 0 0 
130.277 84.7774 1.1851 1.99222 2 29 41 5 0 0 0 0 3 25 113 30 0 0 0 0 1 2 51 78 1 0 0 1 8 3 5 12 0 0 5 21 42 27 14 4 8 3 1 3 128 128 108 39 4 1 0 8 9 25 121 128 50 3 0 2 1 47 128 71 4 0 0 1 53 13 12 4 3 7 4 20 128 26 6 7 8 11 20 128 25 20 33 80 103 37 25 52 16 69 91 33 17 24 13 4 23 13 19 4 1 6 4 11 91 27 12 1 0 2 4 79 116 53 24 16 11 3 5 37 3 9 17 30 106 36 8 1 
130.277 84.7774 1.1851 4.30232 55 14 7 2 0 1 32 127 26 24 29 16 4 16 55 71 29 32 7 3 15 58 48 38 1 1 0 1 38 127 41 2 87 4 0 0 3 2 21 96 127 112 18 5 3 8 26 78 15 43 31 37 127 109 12 8 2 0 3 2 72 78 25 16 94 3 0 0 2 1 0 31 127 15 1 0 2 38 94 127 8 4 2 3 56 127 97 23 5 3 11 7 31 48 10 10 15 0 0 0 2 6 2 28 21 0 0 0 0 8 37 97 5 7 3 1 1 32 37 20 1 2 2 2 15 31 12 5 
305.796 96.506 1.14629 1.72417 25 13 3 13 1 0 2 1 145 114 5 5 3 0 0 0 27 38 9 26 123 22 2 0 0 10 10 2 44 35 0 0 70 12 0 0 0 0 6 18 145 126 5 12 15 1 0 15 38 35 7 60 145 13 1 3 13 18 5 6 54 4 0 1 74 2 0 0 0 0 0 35 145 12 0 1 11 17 26 145 24 3 0 7 145 121 39 44 6 1 0 1 42 21 11 9 25 2 0 0 0 0 0 13 48 0 0 0 0 4 53 128 4 0 0 0 15 51 84 56 1 0 0 2 15 11 7 7 
284.496 116.648 1.23893 0.996169 22 4 0 9 6 2 9 8 5 9 27 77 9 1 2 2 0 0 11 92 20 5 6 1 0 1 2 8 9 18 10 1 29 10 2 12 15 4 9 7 130 115 60 49 6 1 3 10 8 20 53 130 122 0 0 1 0 3 9 50 44 0 0 0 29 4 0 10 16 10 19 45 130 27 5 9 13 13 26 130 21 5 4 71 130 101 32 38 0 0 0 20 108 38 6 3 1 0 0 0 0 13 71 38 16 0 0 0 0 15 112 130 1 0 0 0 27 130 130 30 0 0 0 0 19 57 10 3 
284.496 116.648 1.23893 3.714 6 21 10 14 4 0 0 0 26 134 99 6 0 0 0 0 1 35 134 134 30 0 0 0 0 0 19 75 18 0 0 0 80 20 1 1 0 0 5 9 134 134 22 8 11 7 5 25 23 42 39 97 134 59 5 5 3 6 49 77 72 7 0 0 82 10 6 0 0 0 2 21 134 7 0 0 5 35 51 134 15 3 2 3 95 134 49 27 29 8 4 14 34 20 2 3 16 5 19 18 3 0 0 5 59 1 0 1 0 5 9 71 13 2 10 12 13 21 8 15 7 2 4 4 12 25 7 3 
179.17 135.248 1.23037 6.18122 48 4 0 0 0 0 0 10 49 27 17 2 0 1 3 11 4 9 40 9 0 1 8 8 1 2 6 8 8 5 5 4 89 12 0 0 0 0 0 3 135 102 47 9 0 0 0 4 10 22 106 124 1 0 0 0 0 0 24 77 20 0 0 0 83 0 0 0 0 0 0 21 135 19 5 3 0 0 0 78 85 57 105 117 2 0 0 14 0 2 70 135 60 0 0 0 41 3 0 0 0 0 0 9 135 18 0 0 0 0 0 49 135 87 36 18 13 28 24 40 0 4 21 84 135 66 9 0 
70.3177 143.297 1.2063 0.642428 0 11 42 4 0 0 0 0 0 49 93 3 0 0 0 0 1 15 78 42 1 0 0 0 18 12 11 6 1 0 0 2 43 23 20 1 1 8 14 19 129 129 129 26 4 5 7 31 8 31 129 129 126 32 8 5 1 1 3 31 58 13 10 10 53 0 0 0 0 16 12 51 129 21 5 4 4 24 129 129 7 4 5 29 110 129 129 25 0 0 0 3 52 74 11 3 1 0 0 0 0 1 5 13 0 0 0 0 0 2 74 32 0 0 0 0 0 35 72 1 0 0 0 0 0 14 4 0 
70.3177 143.297 1.2063 5.25477 5 13 0 0 0 0 0 0 11 50 57 1 0 0 0 10 16 20 50 17 14 1 1 11 0 0 0 7 43 8 0 0 71 33 0 0 0 0 0 1 129 129 129 24 4 4 4 22 7 30 129 129 129 25 4 4 0 0 1 36 104 4 0 0 74 2 0 0 0 0 0 34 129 26 7 5 5 28 114 129 8 5 7 31 129 129 127 30 0 0 0 14 80 43 0 0 5 0 0 0 0 0 0 14 13 6 0 0 0 3 50 71 6 10 2 3 5 31 55 11 0 0 16 14 13 10 0 0 
193.05 146.747 1.1747 2.37468 11 2 0 0 0 0 0 2 58 23 0 0 0 0 0 1 64 138 42 12 0 0 0 0 0 21 47 108 30 0 0 0 15 3 0 0 0 0 0 3 138 26 0 0 0 0 0 2 138 138 26 18 10 5 2 21 20 28 30 129 138 24 2 5 19 2 0 0 0 0 0 7 138 9 0 0 0 0 0 9 138 5 0 0 5 30 35 129 16 7 3 6 117 138 35 24 9 14 6 0 0 0 0 0 93 43 0 0 0 0 0 2 92 28 8 3 3 15 14 35 32 7 9 10 11 49 11 9 
179.961 157.611 1.42203 0.388257 109 2 0 0 0 0 0 38 137 23 11 13 33 28 18 116 2 1 5 26 137 70 15 13 0 0 0 1 17 13 68 27 105 2 0 0 0 0 0 22 137 53 9 20 22 8 6 54 14 13 9 87 137 25 3 4 0 0 0 7 46 11 3 0 98 0 0 0 0 0 0 16 137 11 1 3 24 29 8 65 19 2 1 10 137 110 6 11 0 0 0 0 52 21 0 0 52 0 0 0 0 0 0 10 123 0 0 0 10 19 12 82 5 0 0 2 118 56 8 11 0 0 0 1 34 10 0 0 
179.961 157.611 1.42203 3.58673 43 7 0 0 0 0 0 3 119 48 9 18 7 0 0 5 7 15 11 96 119 0 0 0 0 0 0 11 42 0 0 0 60 17 0 0 0 0 0 0 136 92 7 15 21 2 1 12 23 23 8 86 136 8 1 3 0 0 0 23 87 0 0 0 44 9 2 0 0 0 0 8 136 17 2 3 13 12 9 102 24 9 7 68 136 43 10 24 0 0 0 35 103 1 0 0 13 11 65 16 0 0 0 1 136 54 16 8 0 0 3 28 49 32 20 120 122 21 14 17 0 0 0 55 116 4 0 0 
217.407 163.264 1.32018 2.08302 23 0 0 0 0 0 0 29 114 11 3 0 0 0 0 46 64 77 29 11 8 1 0 15 3 10 12 39 121 15 0 0 29 1 0 0 0 0 0 13 131 6 0 0 0 0 0 78 131 49 9 10 23 14 3 82 6 4 4 16 131 62 2 6 21 9 0 0 0 0 0 1 131 20 0 0 0 0 0 27 131 116 21 39 53 13 10 66 3 7 8 55 131 36 4 3 14 3 0 0 0 0 0 1 74 0 0 0 0 0 0 43 102 1 0 1 18 31 45 131 0 0 0 5 131 68 25 13 
213.167 164.438 1.30034 1.89391 58 5 0 0 0 0 0 10 136 38 2 0 0 0 0 39 54 23 10 11 76 66 5 16 0 0 0 3 114 66 0 0 80 19 0 0 0 0 0 2 136 136 19 14 13 4 2 24 26 46 23 49 136 80 4 7 0 0 0 0 99 70 0 0 78 3 0 0 0 0 0 13 136 15 1 2 11 28 40 136 13 4 1 7 136 136 44 38 0 0 1 3 76 28 0 0 42 3 0 0 0 0 0 6 60 1 0 0 0 9 21 58 1 0 0 0 60 66 24 13 0 1 1 5 31 6 0 0 
213.167 164.438 1.30034 5.2141 42 11 0 0 0 0 0 8 45 49 32 26 3 0 0 1 0 2 14 71 59 0 0 0 0 0 0 10 25 0 0 0 94 9 0 0 0 0 1 11 137 123 50 50 12 2 1 14 10 19 39 137 137 10 1 3 0 0 0 24 63 1 0 0 108 24 0 0 0 0 0 2 137 39 3 8 20 28 17 80 15 4 2 44 137 121 17 22 0 0 0 15 91 9 0 0 97 25 0 0 0 0 0 1 137 56 3 13 19 9 5 17 3 3 1 73 137 26 4 2 0 0 0 39 69 0 0 0 
13.5544 177.698 1.30703 1.07727 7 6 0 0 0 1 5 15 20 37 27 1 2 7 11 42 10 15 51 13 6 8 3 6 3 7 7 4 19 5 0 2 53 34 0 0 0 0 0 4 134 134 133 19 2 3 8 34 10 39 134 134 90 25 10 7 0 1 7 40 87 10 0 0 56 3 0 0 0 0 1 27 134 29 8 4 2 12 134 134 9 6 10 39 97 134 134 53 0 0 0 12 95 62 20 0 2 1 0 0 0 1 3 6 10 5 0 0 0 0 39 47 4 1 0 0 1 26 81 20 0 1 1 0 4 36 27 0 
13.5544 177.698 1.30703 2.64759 7 4 19 5 0 2 3 7 7 40 87 10 0 0 0 1 0 12 95 62 20 0 0 0 1 0 4 36 27 0 0 1 51 13 6 8 3 6 10 15 134 134 90 25 10 7 10 39 10 39 97 134 134 53 9 6 0 0 1 26 81 20 4 1 27 1 2 7 11 42 20 37 133 19 2 3 8 34 134 134 8 4 2 12 134 134 134 29 0 0 0 0 39 47 10 5 0 0 0 1 5 15 7 6 0 0 0 0 0 4 53 34 0 0 0 0 1 27 56 3 0 0 0 1 3 6 2 1 
13.5544 177.698 1.30703 6.06565 1 6 3 1 3 1 0 0 0 34 50 3 0 0 0 0 1 10 59 28 0 0 0 0 18 42 16 3 0 0 0 4 52 34 6 0 0 0 0 1 135 135 135 30 7 3 2 17 9 42 135 135 130 14 2 4 17 20 11 29 30 2 12 13 70 16 10 0 0 0 1 17 135 42 8 7 9 33 74 135 12 7 9 48 135 135 89 36 0 9 9 20 51 14 6 1 10 0 0 1 0 1 8 27 23 0 0 0 0 14 56 99 0 0 0 0 2 70 86 8 0 0 0 1 2 12 40 3 
165.472 178.921 1.21306 0.95322 62 0 0 0 0 0 0 44 155 32 3 0 0 0 0 22 46 33 33 47 7 1 0 0 0 5 18 53 32 2 0 0 92 0 0 0 0 0 0 44 155 45 0 0 0 3 1 24 80 28 6 17 36 91 14 6 9 13 21 25 16 34 69 27 127 4 0 0 0 0 0 4 155 8 0 0 2 15 9 57 37 1 0 0 68 155 34 25 1 0 0 0 12 64 148 23 92 9 0 0 0 0 0 3 155 6 0 0 4 8 6 45 11 1 0 3 99 61 8 12 4 2 0 0 48 24 15 9 
237.504 180.303 1.22284 2.15934 1 29 41 3 0 0 0 0 33 122 19 0 0 0 0 0 21 88 39 7 2 0 0 0 47 63 25 0 1 0 0 1 45 41 24 5 0 0 8 14 122 122 74 14 3 2 2 16 9 55 82 118 86 15 3 4 122 16 5 16 19 1 1 45 95 12 0 0 0 0 6 33 122 24 4 3 3 19 42 122 22 20 13 26 74 106 58 30 22 44 104 34 13 3 0 29 54 21 0 0 0 0 0 12 90 28 4 6 2 7 17 43 93 17 3 6 3 19 33 41 122 76 61 30 8 9 9 31 
228.296 182.831 1.23866 5.95969 73 1 0 0 0 0 0 48 86 16 6 9 5 12 21 64 1 4 8 51 40 58 33 5 3 6 6 19 22 11 22 8 124 16 0 0 0 0 0 9 124 116 32 25 3 2 5 33 9 24 43 124 66 20 8 6 19 30 20 53 21 4 0 2 76 2 0 0 0 0 0 50 121 16 3 2 2 8 79 124 7 6 15 28 50 120 124 36 18 5 4 12 24 41 17 26 31 7 0 0 0 0 0 14 116 88 16 0 0 0 11 38 32 90 124 74 3 8 22 6 0 0 46 112 20 4 5 4 
231.913 186.151 1.35261 1.43889 34 40 18 9 11 15 21 18 2 7 15 21 45 33 7 1 6 73 47 8 1 1 0 0 0 28 91 45 6 0 0 0 18 41 19 7 1 8 24 18 34 20 24 56 18 14 5 2 119 119 41 8 4 6 13 34 18 52 81 108 85 69 21 8 47 118 27 14 5 6 17 19 20 19 27 88 112 54 17 14 100 8 0 5 19 35 119 119 8 2 0 1 24 119 119 21 12 6 0 0 1 28 115 27 1 0 0 1 33 119 83 5 0 0 0 0 6 44 57 6 0 0 0 0 1 28 41 1 
171.491 192.499 1.22501 3.12027 13 11 0 0 0 0 1 5 24 60 36 0 0 0 0 5 65 53 43 1 0 0 0 23 72 14 5 2 0 1 6 31 62 56 1 0 0 0 0 1 129 129 106 14 1 0 0 7 16 71 129 102 15 3 2 2 10 27 68 31 15 17 12 6 73 63 2 0 0 0 0 9 129 43 6 4 2 4 6 115 35 9 19 41 99 98 25 50 0 3 10 10 40 129 77 1 54 25 0 0 0 0 0 34 129 80 12 5 0 1 4 50 20 15 15 56 77 80 13 24 0 4 9 31 60 52 8 0 
255.502 224.227 1.14595 2.02189 5 25 3 0 0 0 0 0 4 63 51 4 0 0 0 0 0 7 46 47 2 0 0 0 6 2 0 8 1 0 0 4 58 49 3 0 0 0 0 1 128 128 118 33 9 4 3 21 7 31 110 128 128 18 3 4 1 9 5 37 38 0 0 0 52 15 14 10 4 0 0 21 128 31 5 5 10 29 77 128 9 10 19 42 128 128 75 38 0 53 85 20 41 3 0 0 7 4 2 7 19 15 0 5 35 26 2 0 0 2 19 57 52 70 18 3 4 10 21 23 25 124 117 6 0 0 0 0 
255.502 224.227 1.14595 5.03239 1 0 0 0 5 78 131 13 6 12 16 15 40 87 40 7 0 2 17 52 36 38 7 0 9 14 0 4 11 15 2 1 47 5 0 0 0 32 70 19 131 131 69 33 9 8 20 40 10 33 76 131 131 35 5 5 8 2 0 21 54 12 10 12 44 1 0 1 1 4 3 35 131 23 3 3 7 33 115 131 9 5 3 20 131 131 120 31 0 0 0 1 51 53 7 0 2 0 0 2 6 3 0 9 3 0 0 0 0 10 51 44 0 0 0 0 3 66 55 3 0 0 0 0 3 23 5 0 
104.871 225.238 1.2545 3.06739 0 6 1 6 44 8 0 0 2 52 48 11 1 1 0 0 0 6 49 64 1 0 0 0 5 2 2 8 0 0 1 1 29 36 15 23 20 1 0 1 136 136 115 41 7 4 3 25 9 35 112 136 133 25 4 6 0 0 9 58 36 4 0 0 50 11 11 26 9 6 6 13 136 33 6 9 11 33 55 136 11 6 5 45 136 136 60 35 3 1 5 11 53 34 3 10 15 0 0 1 2 8 36 34 86 5 0 5 9 7 17 90 5 1 0 34 123 36 16 14 1 0 0 14 33 3 2 6 
104.871 225.238 1.2545 5.65783 2 4 3 5 9 2 4 13 30 81 26 4 6 0 0 0 66 89 26 22 18 9 1 0 1 2 4 43 96 14 0 0 62 23 1 0 0 0 1 20 130 130 101 20 8 6 6 25 18 63 91 100 130 72 7 5 4 4 11 20 83 46 1 0 63 1 0 0 0 2 1 40 130 25 4 4 7 43 130 130 11 5 4 15 114 130 130 29 23 4 4 4 23 37 8 21 9 0 0 0 0 0 0 10 7 0 0 0 1 9 59 40 15 16 0 0 0 29 54 9 19 34 6 5 1 2 3 10 
164.49 235.383 1.21485 1.0152 8 3 8 35 8 5 26 28 7 12 94 98 1 0 0 1 0 2 81 118 0 0 0 0 0 23 64 7 0 0 0 0 118 5 1 0 0 0 9 69 119 78 86 43 2 2 4 18 5 12 117 119 25 8 5 2 0 32 119 45 2 0 0 0 119 5 4 1 0 0 2 43 119 11 2 3 2 12 119 118 14 5 21 41 26 42 119 56 3 13 52 26 20 40 19 14 11 1 4 4 4 10 15 22 30 0 0 0 0 2 93 75 77 16 3 0 0 2 37 69 12 47 10 1 0 14 12 10 
164.49 235.383 1.21485 3.20323 15 3 1 0 2 17 55 81 36 17 39 23 16 4 9 49 2 0 9 31 49 38 25 10 0 0 0 1 59 107 10 1 87 3 0 0 0 0 6 112 125 62 20 28 14 5 4 64 7 12 19 125 113 45 9 3 0 0 0 66 91 47 3 0 125 2 0 0 0 0 0 42 125 15 2 3 2 41 60 113 4 2 2 31 59 125 73 12 2 0 0 16 59 102 9 3 98 9 1 0 0 0 0 17 61 7 1 4 13 33 24 45 0 0 0 4 45 125 16 1 4 0 0 0 4 49 14 15 
244.423 238.209 1.25277 0.483795 14 1 0 0 0 0 8 61 36 13 14 14 4 0 1 30 1 2 9 80 58 0 0 1 0 3 10 33 19 0 0 0 56 12 7 7 2 0 0 15 123 97 30 14 3 1 0 23 5 16 34 125 82 5 1 3 0 1 10 62 38 0 0 0 56 19 1 6 10 16 1 11 125 123 39 10 3 5 5 57 10 19 55 124 99 29 6 12 0 0 23 79 38 1 0 0 105 47 0 0 1 8 2 13 125 125 71 20 9 9 4 26 6 35 87 125 125 75 2 2 0 0 4 43 66 47 1 0 
188.674 239.059 1.17084 1.68644 4 1 0 1 0 0 0 0 26 33 1 0 0 0 0 0 15 111 70 4 0 0 0 0 3 17 72 65 7 4 0 0 4 7 2 1 0 0 0 0 127 44 0 0 0 0 0 1 135 135 74 14 2 1 0 18 17 40 99 135 127 14 1 4 6 18 1 0 0 0 0 0 106 29 0 0 0 0 0 22 135 13 1 1 2 13 53 135 18 3 2 14 135 135 79 48 10 18 4 0 0 0 0 0 18 18 1 0 1 1 0 8 12 0 0 0 1 5 59 97 0 0 0 0 10 73 74 19 
236.291 245.065 1.3712 0.157132 4 7 2 0 0 20 17 1 10 12 0 0 0 31 20 2 55 137 31 1 0 4 2 1 42 64 63 49 18 12 4 7 0 0 0 0 0 22 20 0 101 18 0 0 0 3 11 12 137 137 35 4 2 14 20 52 22 60 67 94 96 137 29 12 0 14 48 2 0 0 0 0 71 69 56 1 0 0 0 5 137 30 4 0 1 53 88 117 7 1 0 0 11 137 98 18 0 37 137 8 6 6 1 0 2 40 76 9 14 31 2 0 7 10 6 5 11 47 21 4 10 4 0 1 10 35 6 1 
173.404 245.432 1.22232 4.07091 45 18 0 0 0 0 0 3 52 119 34 1 0 0 0 0 53 46 59 9 1 1 2 8 21 10 3 3 6 34 11 8 122 44 0 0 0 0 0 2 131 131 70 17 4 4 4 28 10 41 111 115 94 49 6 6 4 5 3 10 32 44 31 7 105 15 0 0 0 0 0 29 131 18 2 2 4 24 94 131 7 4 3 13 71 131 119 35 0 0 0 0 13 105 56 0 24 22 9 0 0 0 0 6 18 3 1 1 0 8 46 59 0 0 0 0 0 85 61 7 0 0 0 0 0 34 23 0 
243.311 247.647 1.27265 4.17373 2 0 7 28 7 0 5 9 49 8 1 2 0 0 5 25 42 45 48 58 20 4 0 5 0 3 42 136 22 5 0 0 2 0 1 39 21 4 5 4 110 12 2 15 6 0 0 7 136 136 69 42 4 2 3 21 17 23 74 136 136 18 3 5 6 4 0 4 10 15 6 4 93 13 0 5 11 5 2 11 136 11 1 2 3 16 90 136 15 3 4 32 136 132 94 34 3 2 4 0 5 21 5 2 27 4 1 0 0 3 13 16 17 0 0 0 0 3 87 64 28 4 5 11 6 14 49 56 
218.167 252.336 1.16917 1.37331 43 23 0 0 0 0 0 0 119 114 3 3 1 0 0 0 29 38 6 20 114 35 1 1 0 0 0 0 78 63 0 0 98 21 0 0 0 0 0 8 133 133 8 12 14 7 5 30 19 39 12 47 133 67 5 5 0 0 0 0 126 38 0 0 61 1 0 0 0 0 1 41 131 7 0 0 6 35 109 133 7 1 0 1 111 133 93 24 0 0 0 0 36 68 3 0 4 3 0 0 1 4 4 9 1 0 0 0 1 15 72 30 0 0 0 0 1 61 49 2 0 0 0 0 1 20 2 0 
218.167 252.336 1.16917 4.87403 8 15 0 0 0 0 0 0 4 64 47 2 0 0 0 0 2 13 53 38 1 0 0 0 0 0 0 16 8 2 0 0 54 50 0 0 0 0 0 0 135 135 94 29 5 0 0 7 9 30 96 135 101 1 0 2 0 0 0 63 50 0 0 0 92 14 0 0 0 0 0 14 135 30 4 7 11 11 8 135 23 6 4 57 135 57 12 40 0 0 0 25 135 1 0 0 49 5 0 0 0 0 0 10 135 5 0 0 1 3 3 81 29 3 1 17 130 30 6 27 0 0 0 10 111 4 0 0 
228.308 252.542 1.3444 1.58056 62 1 0 0 0 1 50 55 88 14 11 44 9 1 4 30 11 10 7 54 12 4 23 9 0 1 7 3 5 19 56 2 107 7 0 0 0 0 0 13 143 45 21 38 8 1 0 26 14 13 21 143 136 21 5 1 0 0 0 9 51 32 43 1 103 21 0 0 0 0 0 1 143 25 1 4 21 16 6 43 23 4 1 15 143 115 5 12 0 0 0 0 72 61 5 0 94 14 0 0 0 0 0 1 143 88 9 23 23 1 0 4 12 17 7 73 143 17 0 1 0 0 0 4 69 17 0 0 
238.98 10.5943 1.51868 4.11973 2 4 22 62 10 1 0 1 22 54 75 24 3 0 2 16 2 15 128 50 1 0 1 4 0 4 40 42 36 0 0 0 2 0 1 14 33 39 24 16 64 13 4 6 15 16 24 100 128 111 91 73 16 1 7 42 2 12 44 128 128 3 0 0 4 0 0 4 7 11 18 23 111 7 3 16 11 4 2 27 128 61 15 19 35 52 68 128 7 7 9 46 128 128 37 14 30 7 2 1 0 0 2 15 23 9 14 27 1 0 0 13 20 0 3 8 1 24 79 85 0 0 0 0 32 74 37 4 
190.883 18.3143 1.49928 3.65285 26 1 0 0 0 2 5 36 42 23 13 1 0 7 8 48 10 9 26 12 2 16 8 7 14 8 2 1 1 9 9 7 85 9 0 0 0 2 5 12 135 135 57 17 3 0 0 8 11 32 81 129 103 5 2 2 3 0 1 11 39 44 35 4 108 1 0 0 0 0 0 12 135 22 4 5 11 1 1 83 41 6 4 97 135 18 4 25 0 1 4 44 108 17 3 0 53 1 0 0 0 0 0 12 135 0 0 0 0 5 31 132 17 0 0 12 57 135 97 43 0 0 0 7 48 74 20 6 
288.063 71.3095 1.6697 3.43494 30 12 1 0 0 0 0 1 136 98 9 4 0 3 7 37 20 30 21 100 62 38 12 14 0 0 0 40 72 10 0 0 75 7 0 0 0 0 0 5 136 107 9 6 4 8 7 28 39 38 19 72 136 109 10 7 0 0 0 23 136 50 0 0 43 1 0 0 0 0 1 21 136 5 0 0 1 26 111 136 12 1 0 0 35 136 136 30 0 0 0 0 18 83 23 0 1 1 4 2 1 0 2 7 1 2 7 0 0 1 39 37 0 0 1 0 0 18 54 7 0 0 0 0 1 13 14 0 
309.58 123.994 1.73836 0.115351 4 1 0 0 7 11 12 20 12 33 43 30 10 15 8 7 0 3 27 84 40 18 0 0 0 0 4 10 10 2 5 3 53 7 8 2 1 8 8 12 143 143 68 61 21 9 4 26 19 31 54 143 143 39 4 4 0 0 1 24 51 7 7 1 30 17 52 51 11 0 0 10 143 13 2 15 25 61 108 143 15 3 1 18 143 143 82 30 0 0 1 12 42 19 1 0 4 15 24 49 78 47 6 3 0 0 0 10 50 39 51 28 0 0 0 1 25 49 42 9 0 0 0 0 11 14 10 0 
309.58 123.994 1.73836 3.39088 18 17 8 0 0 0 0 1 22 46 52 9 0 0 0 2 72 32 44 24 0 0 1 33 46 16 2 3 9 39 45 58 46 18 2 0 0 0 1 9 143 143 85 36 14 2 1 23 22 53 100 143 143 8 4 19 2 1 0 12 31 19 51 27 44 6 4 0 0 0 1 30 143 32 4 6 18 22 57 143 21 7 4 40 143 129 85 75 2 9 10 22 54 6 3 0 7 3 6 1 0 0 6 8 34 7 0 0 0 2 27 85 19 20 5 2 8 29 53 38 4 6 17 15 3 2 0 0 
177.292 140.99 1.68038 6.10472 5 0 0 0 0 0 0 0 101 27 0 0 0 0 0 2 81 71 59 31 0 0 0 1 0 1 33 76 13 0 0 0 5 1 0 0 0 0 0 0 136 6 0 0 0 0 0 19 136 77 41 29 1 1 1 22 12 21 57 136 90 10 1 1 6 2 0 0 0 0 0 0 136 26 0 0 0 0 0 5 136 47 7 4 2 17 46 99 15 9 8 34 108 104 65 21 9 8 0 0 0 0 0 0 121 109 0 0 0 0 0 1 97 136 52 46 22 15 16 21 38 27 21 50 30 23 24 12 
185.211 147.095 1.47938 2.361 113 37 0 0 0 0 0 9 93 53 26 53 83 26 9 20 0 7 30 62 113 11 0 0 1 68 56 3 1 0 0 0 113 15 0 0 0 0 2 32 72 6 2 3 31 83 51 59 53 88 82 13 40 37 7 11 6 66 106 16 19 46 14 4 74 113 14 0 0 0 0 2 24 43 88 49 11 9 5 6 62 18 15 22 21 45 72 53 3 3 4 3 14 113 86 9 111 62 6 0 0 0 4 27 18 25 40 32 46 84 19 16 0 0 2 15 83 113 15 0 0 0 0 0 2 74 23 0 
181.961 150.22 1.45718 0.223165 82 0 0 0 0 0 0 85 56 5 4 2 6 42 53 111 14 6 11 20 31 69 20 5 21 21 78 73 4 0 0 3 107 5 0 0 0 0 0 22 122 94 37 18 5 5 7 34 30 21 48 93 67 24 8 19 62 19 26 21 11 9 47 119 121 4 0 0 0 0 0 8 122 28 3 4 11 18 11 77 13 5 3 18 122 122 16 20 0 0 0 0 30 31 78 63 96 12 0 0 0 0 0 0 122 64 4 9 19 7 1 8 7 8 3 23 122 37 1 1 0 0 0 0 38 14 5 1 
191.024 149.863 1.64144 2.45449 33 7 0 0 0 0 0 1 43 59 21 12 0 0 0 0 0 8 19 73 15 0 0 0 0 0 6 20 4 0 0 0 77 10 0 0 0 0 0 3 128 128 50 37 11 2 0 11 14 31 52 128 128 7 1 2 0 51 37 26 23 0 0 0 88 2 0 0 0 0 0 10 128 17 2 5 13 27 26 118 43 38 27 41 128 99 29 33 20 124 128 19 24 17 4 5 48 34 1 0 0 0 0 1 111 81 23 4 1 7 7 25 46 24 52 31 13 27 18 28 32 21 13 6 18 111 73 31 
186.772 152.232 1.7579 3.66378 2 14 3 0 0 0 0 0 108 12 0 0 0 0 0 17 120 17 3 25 74 9 4 55 0 0 0 56 120 4 0 0 1 27 46 0 0 0 0 0 60 25 86 6 0 0 0 12 120 43 21 36 25 8 10 58 8 7 8 120 120 15 7 6 55 64 38 0 0 0 6 62 37 67 120 77 16 11 43 52 61 19 35 72 41 23 54 57 10 31 30 67 76 32 34 15 12 1 0 0 0 0 34 89 9 2 2 7 9 15 120 118 22 12 1 13 22 22 88 64 56 48 20 28 11 6 18 50 
186.772 152.232 1.7579 5.36795 1 91 94 0 0 0 0 0 9 119 119 18 12 7 6 4 39 52 43 24 34 13 26 45 7 9 4 6 33 87 57 27 5 59 96 9 7 65 85 8 24 45 23 9 17 81 119 27 53 80 37 26 57 49 46 13 2 16 21 34 119 45 8 4 0 0 0 0 0 52 119 5 62 1 0 0 0 31 70 26 119 47 9 9 38 45 39 97 5 6 5 15 119 105 14 6 0 0 0 0 0 0 10 11 26 0 0 0 0 0 1 29 31 0 0 0 4 39 39 70 0 0 0 0 36 76 14 2 
211.4 168.307 1.56848 5.28422 4 0 0 4 10 5 2 8 60 21 0 1 2 1 0 7 45 57 41 42 6 0 0 1 0 1 10 76 47 0 0 0 3 0 0 0 1 9 7 11 141 9 0 0 0 4 3 21 144 112 52 69 26 6 2 27 5 10 25 144 144 12 1 3 4 2 0 0 0 1 1 1 144 20 0 0 0 0 0 4 144 33 2 11 39 25 11 69 10 3 1 58 144 51 7 11 3 5 4 1 0 0 0 0 119 24 0 0 0 0 0 3 144 24 1 6 15 14 10 43 5 1 0 48 118 38 8 5 
218.739 168.609 1.40535 5.2626 69 7 0 0 0 1 0 3 140 34 6 6 5 6 5 46 38 11 10 68 140 59 9 22 0 0 0 22 124 6 0 0 93 21 0 0 0 0 0 0 140 52 1 4 6 5 4 27 34 10 2 70 140 43 7 13 0 0 0 70 135 3 0 0 84 33 0 0 0 0 0 1 140 26 0 1 3 10 14 61 16 2 0 18 91 105 29 20 0 0 0 55 125 17 1 0 61 57 0 0 0 0 0 0 81 71 2 3 19 10 5 11 2 2 1 2 65 66 11 2 0 0 0 20 30 17 7 0 
233.218 190.435 1.55956 5.772 59 7 0 0 0 0 0 17 88 32 13 5 3 9 36 99 5 5 15 30 33 58 46 16 18 15 11 16 12 13 12 27 91 26 0 0 0 0 0 7 126 126 85 31 4 2 6 26 9 25 93 126 92 19 10 8 1 0 0 25 37 25 17 21 126 10 0 0 0 0 0 10 126 28 6 6 5 22 68 126 10 4 6 43 126 126 99 32 0 0 0 6 74 67 4 0 90 36 1 0 0 0 0 1 53 35 8 22 23 21 27 22 0 0 0 11 22 62 74 9 0 0 0 0 33 43 8 1 
236.626 202.541 1.5431 5.88072 59 3 0 0 0 0 0 5 137 26 2 3 2 2 9 41 15 4 2 11 28 84 89 34 0 0 0 0 35 56 34 2 91 8 0 0 0 0 0 3 137 94 19 28 5 0 0 7 17 22 26 137 72 10 4 2 0 0 9 55 45 14 9 2 101 4 0 0 0 0 0 5 137 23 2 7 5 4 2 51 44 5 4 79 137 75 5 21 0 0 1 30 107 66 0 0 79 7 0 0 0 0 0 3 137 21 0 1 8 5 5 34 25 4 0 6 137 77 8 9 0 0 0 10 70 55 2 0 
240.324 210.685 1.43429 3.29842 53 1 0 0 0 0 23 118 13 5 10 24 38 55 111 89 0 0 3 39 119 65 12 0 0 0 0 7 28 4 0 0 44 7 0 0 0 0 31 64 96 90 41 17 3 8 39 31 5 16 53 119 45 11 4 1 0 0 0 88 37 0 0 0 90 33 0 0 0 0 1 15 119 35 6 5 1 0 1 100 38 9 13 119 73 0 1 38 0 0 1 119 78 0 0 0 40 8 1 0 0 0 1 24 119 2 0 0 0 0 3 81 89 7 9 48 7 1 21 79 0 0 3 119 69 7 12 8 
240.324 210.685 1.43429 5.67399 42 19 0 0 0 0 0 0 121 74 0 0 0 0 0 4 89 17 1 21 60 60 7 13 0 0 0 33 79 76 0 0 84 30 0 0 0 0 0 0 121 77 0 0 6 6 6 25 32 16 0 1 118 121 11 8 0 0 0 3 80 102 3 0 39 114 39 4 0 0 0 1 89 29 36 35 11 22 52 68 4 0 0 5 40 121 76 14 0 0 0 1 22 94 30 0 117 98 32 13 5 2 2 18 10 19 37 116 113 18 8 7 0 0 0 45 80 35 7 0 1 5 0 7 23 14 3 0 
160.889 212.368 1.7576 0.486711 16 0 0 0 0 0 22 35 31 1 1 0 0 1 25 80 27 4 9 28 49 25 15 67 0 0 1 46 93 14 0 0 41 6 0 0 2 3 10 24 59 6 0 0 11 29 16 39 136 107 76 55 9 8 9 46 6 16 78 136 31 4 0 0 42 9 3 0 3 11 5 10 82 10 2 0 15 29 4 13 136 50 22 22 4 4 47 136 23 10 27 136 118 49 87 71 12 11 11 3 1 3 1 5 11 6 9 4 3 10 6 6 20 1 0 0 0 6 81 129 10 0 0 1 20 23 109 119 
239.634 239.33 1.68237 0.776508 1 2 3 0 0 0 33 34 49 9 5 2 0 1 16 59 36 21 33 93 9 0 0 9 0 5 20 83 9 0 0 0 10 27 24 4 3 2 1 3 107 13 12 7 9 4 0 45 133 95 57 61 18 0 0 49 0 10 62 133 56 2 0 0 29 8 1 1 10 20 2 6 111 10 0 1 17 30 4 43 133 118 37 25 32 31 29 133 9 14 29 72 133 111 19 17 12 1 0 0 10 27 5 5 19 7 0 0 7 22 4 35 85 21 0 0 5 26 43 133 5 1 0 2 73 91 33 28 
188.212 242.949 1.80287 1.66151 9 11 0 0 0 0 0 0 10 84 31 4 0 0 0 0 2 27 38 40 30 3 0 0 0 0 0 10 27 2 0 0 54 35 2 0 0 0 0 0 142 142 112 44 13 6 4 26 14 42 102 142 142 32 4 6 0 0 0 25 67 5 0 0 54 39 1 0 0 0 0 7 142 34 5 6 14 46 97 142 14 6 5 30 142 142 90 42 0 0 0 4 69 20 0 0 7 18 8 0 1 7 5 1 17 16 3 0 0 11 37 34 4 20 44 39 20 34 25 6 0 0 8 43 25 1 0 0 
188.212 242.949 1.80287 4.88769 19 1 0 0 0 1 22 65 15 31 28 8 8 28 45 28 0 12 36 32 17 11 0 0 1 5 2 1 10 23 8 0 72 15 0 0 0 0 0 8 141 141 93 46 14 5 5 33 14 41 94 141 141 30 5 7 0 0 0 8 59 31 1 0 64 3 0 0 0 0 0 26 141 28 4 7 14 38 99 141 13 6 4 30 141 141 112 46 0 0 0 1 61 30 2 0 24 1 0 0 0 0 0 10 35 2 0 0 2 20 32 45 0 0 0 0 13 83 30 5 0 0 0 0 10 11 0 0 
240.915 244.307 1.76143 0.503576 18 8 19 8 4 5 0 5 130 50 13 11 5 1 0 14 14 15 19 108 70 0 0 2 2 14 19 35 10 0 0 0 41 12 1 2 6 38 6 7 140 140 46 20 10 10 4 35 23 55 68 140 140 63 4 7 1 4 10 40 47 21 0 1 42 10 2 0 1 22 7 22 140 44 4 3 9 50 55 140 21 8 4 13 129 140 56 42 13 9 9 3 23 33 1 1 4 89 46 1 1 1 0 0 35 67 24 5 17 20 10 23 10 0 2 13 35 52 10 8 36 7 3 11 9 5 5 15 
240.915 244.307 1.76143 4.17317 16 1 2 6 1 3 21 29 31 13 17 32 38 32 6 14 1 2 13 58 53 45 0 0 23 18 3 3 1 2 0 0 55 7 3 28 12 1 2 8 137 128 91 91 17 4 3 20 12 22 79 137 137 14 3 4 31 20 4 29 25 0 0 1 49 4 0 5 9 12 5 10 137 22 5 10 15 27 91 137 15 4 5 106 137 99 72 46 10 2 1 66 63 6 7 5 8 3 8 5 7 9 7 7 9 0 0 0 2 10 69 78 6 0 0 22 27 17 65 98 0 0 10 54 43 10 9 4 
65.2824 344.22 1.42731 2.55861 1 36 7 0 0 0 0 0 2 109 66 3 0 0 0 0 22 32 73 33 3 0 2 7 12 1 0 5 5 18 42 19 64 78 2 0 0 0 0 1 125 125 84 25 3 2 2 18 7 28 93 125 110 15 3 4 0 0 0 41 82 11 14 0 96 16 0 0 0 0 0 25 125 22 3 4 3 21 67 125 8 4 4 34 120 125 100 27 0 0 0 10 77 67 5 3 17 0 0 0 0 1 8 31 17 0 0 0 0 31 83 69 0 0 0 0 1 125 70 3 0 0 0 0 1 28 22 10 
65.2824 344.22 1.42731 5.08081 6 15 4 2 2 4 6 2 2 56 100 12 3 0 0 0 0 7 119 34 2 0 0 0 0 0 36 50 8 0 0 0 62 59 10 10 0 0 0 1 119 119 104 21 6 5 4 19 5 20 119 119 119 40 4 3 0 0 8 36 94 24 0 0 48 11 6 16 13 13 11 34 119 15 2 2 5 36 118 119 4 2 2 10 95 119 101 16 0 0 0 0 41 84 5 0 0 0 0 0 10 44 27 14 0 0 0 0 0 13 118 42 0 0 0 0 0 53 94 2 0 0 0 0 0 33 14 0 
179.853 60.6732 2.0352 3.38356 21 25 2 0 0 0 2 27 15 55 57 1 0 3 27 33 33 27 64 13 2 8 18 7 10 9 17 18 22 40 7 3 83 31 13 16 7 0 0 3 121 121 121 18 4 4 4 20 12 32 121 121 117 30 5 4 12 8 3 27 92 25 2 9 49 61 83 19 12 0 0 2 121 38 24 11 9 38 83 114 13 4 4 22 108 121 121 32 5 0 14 45 77 21 4 11 30 36 36 18 8 1 1 51 5 5 49 75 37 20 24 12 13 8 43 37 14 33 44 17 9 2 6 14 13 39 27 11 
272.316 87.8985 1.95274 0.843819 32 2 0 0 0 0 1 15 134 23 0 0 0 0 1 52 134 19 3 10 104 116 18 43 0 0 1 12 134 83 0 0 29 4 0 0 0 11 21 12 134 82 0 0 7 9 7 26 71 35 0 1 134 134 6 10 2 0 0 0 76 97 3 1 34 0 0 0 0 19 8 10 134 3 0 0 6 37 36 118 19 1 0 0 109 134 34 26 14 0 0 0 20 47 4 11 13 0 0 0 0 1 1 7 21 0 0 0 0 17 42 48 1 1 0 0 8 71 30 5 5 3 4 1 2 5 0 4 
272.316 87.8985 1.95274 4.46245 8 13 0 3 7 2 0 0 12 56 43 26 0 0 0 0 1 4 17 64 9 0 0 0 8 18 2 2 0 0 0 0 67 16 1 6 1 2 0 0 150 103 54 70 9 0 0 4 12 15 33 150 94 0 0 0 7 27 10 22 12 0 0 0 67 14 5 17 4 0 0 1 150 17 3 17 23 0 0 42 45 7 7 148 150 1 0 10 0 5 12 51 36 0 0 0 31 4 2 3 4 2 0 6 150 18 4 9 3 0 0 58 89 22 19 150 111 4 4 19 0 0 61 107 25 0 0 0 
182.665 140.534 2.01944 6.12143 62 15 0 0 0 0 0 2 57 59 47 18 0 0 0 4 0 2 27 63 35 2 1 1 0 0 0 9 51 3 0 0 121 5 0 0 0 0 0 8 124 68 41 33 4 2 2 16 9 14 37 124 124 11 3 2 0 0 0 30 99 2 0 0 107 27 0 0 0 0 0 2 124 54 10 9 5 14 32 67 11 13 14 64 124 69 38 14 0 1 7 111 90 1 0 0 94 83 0 0 0 0 0 0 97 107 23 19 22 40 11 7 39 28 24 48 25 35 20 49 7 7 16 124 82 11 9 15 
186.768 152.923 1.93824 3.7013 5 13 1 0 0 0 0 0 118 16 0 0 0 0 0 14 118 23 7 48 79 3 0 31 0 0 0 70 118 0 0 0 1 35 33 0 0 0 0 0 85 43 64 0 0 0 0 18 118 29 16 37 41 6 4 54 4 3 3 118 118 7 2 3 43 58 24 0 0 0 4 47 45 98 118 30 8 6 30 51 64 24 49 44 35 24 40 36 10 22 29 98 81 21 18 9 12 1 0 0 0 0 28 82 13 5 3 4 4 10 118 118 20 7 1 7 16 24 114 79 42 29 18 32 10 7 29 71 
186.768 152.923 1.93824 5.17368 1 52 122 2 0 0 0 1 3 100 122 6 1 3 5 4 20 94 122 24 17 9 6 13 26 63 22 7 19 40 36 32 6 27 60 3 0 21 122 42 16 27 43 6 2 39 122 42 41 43 37 24 37 39 69 31 1 6 16 19 79 89 34 15 0 0 0 0 0 4 102 25 87 2 0 0 0 7 74 41 122 45 11 8 34 55 44 77 2 4 6 11 122 122 11 3 4 0 0 1 0 0 1 13 48 0 0 0 0 0 1 32 27 0 0 0 4 64 57 53 0 0 0 0 24 93 12 0 
167.47 205.193 2.08396 3.01755 42 3 0 0 0 0 0 9 118 28 0 0 0 0 1 74 118 23 8 27 73 118 76 118 0 1 5 27 118 118 8 0 65 28 0 0 0 0 0 0 118 118 7 3 5 1 1 20 30 33 11 23 118 78 38 30 0 4 17 16 54 58 3 0 54 34 2 0 0 0 0 5 118 32 5 1 5 4 6 98 23 4 1 46 110 19 8 31 0 0 0 43 73 9 0 0 49 99 22 0 0 0 0 1 42 74 84 13 5 8 1 12 17 6 6 19 27 26 8 9 0 0 0 38 73 11 0 0 
164.865 216.44 1.83482 0.193838 23 3 0 0 0 3 5 24 72 28 9 6 4 6 5 48 5 5 9 37 100 41 4 7 0 0 0 15 67 4 0 0 57 19 0 0 0 15 9 7 133 133 46 37 5 1 3 25 13 32 48 133 132 6 2 5 0 0 0 103 64 0 0 0 48 9 1 2 0 3 6 24 133 21 3 5 5 6 48 133 12 4 3 64 133 93 78 84 0 0 0 52 119 23 0 0 0 0 7 5 1 6 8 8 33 3 2 1 0 0 19 122 29 1 0 0 38 37 33 75 0 0 0 2 66 25 2 2 
164.865 216.44 1.83482 2.81205 51 20 0 0 0 0 0 8 24 134 23 11 2 0 0 0 2 29 20 52 88 21 1 0 3 0 0 5 30 27 10 11 134 17 0 0 0 0 0 9 134 134 38 35 14 7 4 19 10 25 32 134 134 42 3 3 1 1 6 37 68 8 0 2 99 73 3 0 0 0 0 5 134 26 3 3 11 70 73 111 7 2 2 12 124 134 54 15 2 0 5 5 31 41 3 3 59 78 9 2 4 2 0 6 6 16 8 8 68 47 19 9 0 1 12 10 29 64 11 0 0 1 11 3 6 22 2 0 
239.194 239.128 1.83995 0.763965 1 2 1 0 0 0 45 40 44 7 4 4 1 1 26 59 38 20 35 103 1 0 0 7 1 8 26 98 2 0 0 0 15 32 13 1 1 0 2 4 124 17 12 3 4 3 1 28 135 97 52 74 5 0 0 16 2 12 46 135 52 1 0 0 40 7 1 0 3 14 2 8 108 6 1 1 9 35 9 50 135 83 22 23 25 32 32 135 11 11 16 68 135 118 23 19 15 0 0 0 3 20 9 14 23 20 0 0 5 27 5 32 90 37 1 0 3 21 36 135 5 1 1 5 52 87 30 24 
290.983 249.655 1.96543 0.488877 47 21 1 0 0 0 0 14 118 70 23 19 7 0 0 18 9 16 18 98 120 1 0 0 2 0 1 11 42 16 0 0 61 32 4 0 0 0 0 6 135 131 13 30 18 2 1 18 26 28 15 135 135 7 1 3 2 2 34 89 45 1 0 0 59 14 10 25 2 0 0 6 135 21 1 4 8 21 37 118 20 2 2 41 135 135 62 32 0 0 14 45 37 51 18 0 16 51 28 45 9 5 1 2 33 57 30 19 24 11 16 22 1 0 0 8 59 97 40 6 15 8 3 0 6 36 21 5 
284.537 140.794 2.70213 0.121442 9 13 0 0 0 0 3 12 15 88 21 0 0 4 30 23 9 135 51 2 1 7 6 3 4 68 28 11 17 47 14 1 56 16 0 0 0 0 0 8 135 135 52 9 9 8 3 25 21 95 96 45 134 135 9 5 0 6 1 0 19 135 39 0 35 2 1 3 1 0 0 23 135 16 1 1 8 47 83 135 17 5 1 3 111 135 82 35 0 0 0 0 19 68 10 0 2 1 0 11 11 1 0 4 5 2 1 0 0 7 38 42 0 0 0 1 5 47 36 5 0 0 0 0 2 8 4 0 
284.537 140.794 2.70213 3.80185 5 6 0 0 0 0 0 7 3 34 47 12 1 2 0 1 0 2 31 41 0 0 2 6 0 0 1 3 3 8 6 4 55 27 1 0 0 0 0 1 141 141 108 67 10 1 0 13 13 21 79 141 114 6 1 3 0 0 2 46 29 0 0 0 81 32 1 0 0 0 0 4 141 52 4 11 17 40 28 89 21 3 4 64 141 141 31 27 0 0 8 16 70 20 0 0 85 67 0 0 0 0 0 3 78 71 1 1 47 50 7 9 6 8 5 7 80 95 6 2 23 74 87 26 13 5 0 1 
175.169 152.534 2.58563 0.23275 5 0 0 0 0 0 0 5 128 2 0 0 0 0 0 106 130 17 16 34 28 17 16 128 4 10 54 131 43 10 5 5 2 0 0 0 0 0 0 0 133 2 0 0 0 0 0 24 133 33 6 7 31 24 5 49 12 12 18 23 58 72 92 30 3 0 0 0 0 0 0 0 133 9 0 0 0 0 0 3 133 23 0 0 69 48 8 34 4 0 0 0 133 101 29 3 3 3 0 0 0 0 0 0 97 22 0 0 0 0 0 5 123 7 0 0 32 52 14 45 0 0 0 0 67 64 3 1 
164.813 187.03 2.44605 0.539457 97 52 0 0 0 0 0 0 115 115 12 7 2 1 14 7 5 23 20 88 115 7 14 1 0 0 0 45 115 0 0 0 115 115 2 0 0 1 1 3 115 51 0 1 5 41 110 40 42 4 1 45 88 24 88 47 2 0 0 115 115 5 0 0 48 92 5 0 1 2 5 11 31 21 20 15 13 26 20 20 92 27 7 14 19 32 17 28 3 0 3 51 115 68 5 2 4 6 3 1 6 36 31 17 8 2 4 1 0 2 54 87 19 5 6 11 6 4 14 72 5 2 30 94 31 7 2 15 
164.813 187.03 2.44605 5.24745 31 17 4 5 3 1 6 36 6 11 47 91 5 0 1 2 1 3 115 115 2 0 0 1 0 0 95 53 0 0 0 0 53 88 9 2 4 1 0 2 20 20 31 21 20 15 13 26 110 40 115 52 0 1 4 41 14 7 115 115 12 7 2 1 14 71 20 5 6 11 6 4 17 27 92 27 7 14 19 32 88 48 42 4 1 44 89 24 14 1 6 24 20 87 115 7 2 14 4 2 29 95 32 7 5 2 3 0 2 51 115 69 0 0 2 0 0 114 115 5 0 0 0 0 0 44 115 0 
192.418 141.309 3.13272 2.59065 6 0 0 0 0 0 0 9 79 20 0 0 0 0 1 28 60 67 72 64 0 0 0 3 0 57 97 50 0 1 0 0 6 5 1 0 0 0 0 1 133 17 1 0 0 0 0 26 133 60 44 47 4 3 2 73 4 54 91 40 15 127 6 4 8 8 1 1 1 0 0 1 133 44 1 0 0 0 0 7 133 73 4 4 34 42 14 58 6 7 3 3 128 133 9 4 13 1 0 0 0 0 0 6 119 28 0 0 0 0 0 7 80 8 0 1 22 74 48 63 0 0 0 0 74 133 13 2 
175.499 145.408 3.19633 0.0316394 3 0 0 0 0 0 0 3 106 12 0 0 0 0 0 42 78 53 45 62 17 0 0 13 0 0 8 92 61 0 0 0 2 0 0 0 0 0 0 0 134 6 0 0 0 0 0 32 134 42 24 54 36 4 3 70 3 2 16 134 109 3 1 3 2 1 0 0 0 0 0 0 134 43 0 0 0 0 0 3 134 74 2 4 14 46 13 20 4 2 13 86 49 65 92 11 4 6 0 0 0 0 0 0 134 54 0 0 0 0 1 5 134 29 0 0 36 124 18 17 0 0 0 0 24 90 71 3 
169.674 179.192 4.05893 0.831245 49 0 0 0 2 1 5 135 30 1 1 32 135 27 26 135 0 0 1 69 86 18 4 0 0 0 0 7 14 31 3 0 70 0 0 0 0 0 0 45 135 41 18 39 12 3 6 67 16 15 21 135 87 3 2 2 0 0 0 88 44 1 0 0 66 26 10 1 0 0 0 1 135 32 2 4 2 2 22 53 22 3 2 104 92 11 39 35 0 0 2 135 88 0 0 0 21 61 30 2 0 0 0 2 71 44 0 0 0 12 29 25 8 0 1 10 10 3 54 76 8 4 23 121 15 0 6 25 
184.896 147.431 6.68233 0.0745583 48 9 0 0 2 5 0 13 78 30 16 75 20 0 0 15 10 9 6 90 31 0 2 4 8 6 3 8 7 9 17 8 61 0 0 0 2 2 0 16 139 46 24 78 15 3 1 28 20 11 19 139 116 12 2 2 0 0 27 43 12 4 10 1 52 33 3 9 4 0 0 0 139 52 2 8 13 56 28 37 27 7 14 67 88 139 56 28 13 19 128 63 10 2 10 43 20 123 31 11 1 0 0 2 38 106 13 11 92 50 5 5 2 0 0 1 58 74 43 25 12 2 5 6 1 0 34 139 
165.397 243.815 6.42054 4.50436 7 5 4 4 1 1 5 3 9 23 62 6 0 0 0 1 16 32 60 5 0 0 0 7 1 10 26 26 2 0 0 0 62 10 0 0 0 0 0 8 128 128 108 14 0 2 2 13 12 41 128 116 9 11 7 4 1 8 128 77 0 1 1 1 63 2 0 0 0 0 0 16 128 27 4 2 7 32 22 79 25 9 25 30 22 124 128 42 3 5 64 32 1 12 128 51 34 21 6 0 0 0 0 3 110 14 5 3 9 53 44 51 3 0 0 0 16 128 69 6 0 0 0 0 0 7 103 32 
