80.0699 24.1841 1.10747 0.75748 13 4 0 1 9 16 18 13 1 24 38 8 35 21 3 0 0 4 49 44 10 0 0 0 0 2 3 15 7 1 0 0 34 20 3 8 3 10 26 11 136 136 123 43 9 11 12 39 11 36 122 136 136 31 8 8 7 4 1 30 54 7 0 5 35 7 1 3 3 4 6 24 136 32 6 8 8 33 136 136 10 5 5 45 136 136 136 40 1 0 0 7 55 40 2 5 4 2 1 0 2 6 7 9 2 0 0 0 0 15 64 21 0 0 0 0 2 42 52 4 1 0 0 1 5 14 4 1 
80.0699 24.1841 1.10747 3.45153 4 9 2 10 10 0 0 1 5 43 53 4 0 0 0 0 0 6 59 37 0 0 0 0 0 2 24 7 0 0 0 0 51 38 3 3 12 5 2 1 136 136 136 39 10 7 5 27 10 32 136 136 136 34 5 6 0 0 10 28 45 6 1 0 63 7 0 0 0 0 1 31 136 29 7 7 11 47 133 136 10 6 10 34 136 136 116 34 7 3 7 6 29 25 4 5 8 6 0 0 0 0 0 11 17 28 3 0 0 5 37 34 4 21 34 18 6 29 27 3 7 1 11 22 9 3 1 6 
80.0699 24.1841 1.10747 5.05627 24 6 0 0 0 0 0 2 10 27 46 6 1 0 0 1 7 6 28 26 4 6 7 3 13 24 10 3 1 6 6 1 60 36 0 0 0 0 0 6 136 136 136 34 5 6 10 32 11 35 136 136 115 35 10 6 33 15 6 29 27 3 5 24 53 4 0 0 0 0 5 43 136 39 10 7 5 27 136 136 7 7 11 46 132 136 136 28 2 0 0 5 38 35 18 25 2 9 8 0 0 1 4 9 3 4 12 4 1 1 52 37 0 0 0 0 1 31 63 7 0 0 0 0 1 11 8 4 
91.4101 39.4571 0.980783 0.022464 1 15 5 0 0 0 4 1 0 38 66 7 0 1 2 0 0 4 75 34 1 0 2 0 0 1 8 14 4 0 0 0 45 64 10 3 0 0 0 2 131 131 131 26 5 4 5 25 7 27 131 131 124 25 5 4 0 0 6 63 69 3 0 0 50 11 9 4 0 0 3 30 131 31 8 5 6 25 120 131 8 5 7 31 131 131 131 33 0 0 1 14 86 37 0 0 16 4 4 2 0 0 2 20 3 1 4 6 5 7 41 39 0 0 0 1 7 35 62 9 0 0 0 10 20 9 3 1 
91.4101 39.4571 0.980783 1.69 7 16 4 0 0 0 0 1 6 66 66 3 0 0 0 0 1 15 86 34 0 0 0 0 0 11 17 8 7 1 0 0 80 31 1 0 1 0 0 6 131 131 124 27 5 5 7 29 8 32 131 131 131 34 8 5 0 2 7 35 63 8 0 0 68 6 0 1 2 0 0 37 131 22 5 4 5 27 131 131 9 4 6 26 119 131 131 33 6 6 4 5 40 40 4 2 4 0 0 1 6 1 2 14 7 1 0 0 0 2 48 64 12 4 0 0 3 29 51 13 3 1 0 0 4 20 12 3 
362.255 109.704 0.899521 1.94035 5 7 2 3 8 21 7 1 57 69 15 1 1 11 3 14 46 30 24 14 9 18 11 22 0 1 4 36 34 23 4 1 55 21 0 2 43 30 4 5 138 138 73 22 8 7 4 25 12 51 82 128 138 48 8 6 1 1 1 8 46 47 51 9 96 7 0 0 37 23 0 15 138 29 3 4 11 45 50 138 11 5 4 17 138 138 48 30 3 0 2 2 40 67 29 4 48 6 10 14 7 4 0 10 94 6 1 0 9 17 14 63 1 1 17 22 87 58 11 8 1 4 58 23 9 5 0 1 
362.255 109.704 0.899521 5.46347 19 1 0 0 3 60 47 27 46 22 24 57 12 2 2 17 1 1 8 118 65 0 1 0 88 8 0 7 10 0 1 12 88 21 1 2 0 5 19 20 136 136 57 56 11 3 4 34 9 21 48 136 136 18 4 4 69 5 1 39 46 1 0 18 63 69 24 2 0 0 0 7 136 33 10 6 10 29 62 136 9 4 4 40 136 136 65 32 21 20 2 10 59 17 0 3 32 25 11 1 0 1 7 26 33 25 11 8 3 8 16 28 1 5 6 55 66 37 13 4 9 11 2 13 20 3 0 1 
349.504 111.011 0.927797 1.6782 38 30 9 0 0 0 0 8 26 57 90 48 0 0 0 0 0 0 28 121 10 0 0 0 1 0 10 42 3 0 0 0 121 26 7 0 0 0 0 8 121 77 35 46 5 0 0 6 5 8 22 121 103 1 0 1 0 0 4 83 63 0 0 0 108 31 4 0 0 0 2 10 121 26 3 5 7 5 13 84 11 8 13 115 119 15 15 21 0 0 61 121 39 0 0 0 80 99 6 0 0 0 0 5 40 117 71 0 0 0 2 21 8 65 62 61 4 0 2 7 0 0 30 120 25 2 0 0 
349.504 111.011 0.927797 4.32027 39 1 0 0 0 0 3 120 115 5 0 0 0 1 9 111 18 1 1 6 9 23 111 42 0 0 0 29 38 43 99 19 110 24 0 0 0 0 0 27 120 72 7 6 4 4 2 33 16 17 11 37 115 64 21 7 0 0 0 1 38 120 75 5 114 3 0 0 0 0 0 46 120 8 0 0 3 29 23 100 8 1 0 2 97 120 22 16 0 0 0 3 36 88 11 3 45 0 0 0 0 0 0 46 40 0 0 0 0 23 54 108 0 0 0 0 39 114 33 6 3 0 0 2 15 18 10 9 
382.845 121.487 1.05585 2.26217 0 10 35 14 0 0 0 0 0 42 100 14 0 0 0 1 0 7 95 45 0 0 1 1 5 8 9 13 3 0 0 2 48 32 8 10 16 6 0 2 131 131 127 31 5 6 4 22 8 29 131 131 126 40 4 4 0 0 4 52 89 10 3 4 50 5 1 5 8 11 14 29 131 24 3 4 5 40 104 131 8 5 4 23 118 131 99 28 0 2 7 6 79 54 0 0 8 0 0 0 0 15 20 16 19 6 0 0 0 7 46 60 1 4 2 10 13 52 34 5 5 22 25 6 7 9 3 4 
382.845 121.487 1.05585 4.1607 2 17 6 1 11 6 3 0 2 53 92 6 2 0 0 1 7 9 78 36 0 0 2 14 5 12 9 6 3 3 5 8 89 42 2 0 0 0 2 17 130 130 130 35 4 6 8 27 5 21 130 130 93 37 7 4 1 5 6 38 45 13 8 3 100 1 0 0 3 1 1 49 130 23 6 5 4 33 130 130 5 4 7 33 101 130 130 20 0 0 0 14 67 57 10 0 28 0 0 0 0 0 1 19 25 7 3 0 0 5 46 46 2 12 18 4 2 27 49 4 0 3 3 32 11 5 3 0 
382.845 121.487 1.05585 6.16826 3 7 5 8 7 3 3 3 3 37 76 24 5 0 0 0 11 23 50 37 3 0 3 4 8 2 4 17 5 1 4 14 67 21 1 1 6 4 10 18 130 130 126 40 6 3 5 24 8 21 104 130 117 21 5 5 4 0 0 35 47 16 12 12 69 2 0 0 5 10 4 59 130 23 5 6 6 31 123 130 7 4 5 38 130 130 130 26 0 0 0 4 56 83 12 0 4 6 6 0 0 2 2 22 4 2 4 1 0 12 70 68 0 1 1 0 5 79 60 4 0 3 7 4 2 20 5 0 
304.025 132.006 0.973498 1.81328 41 0 0 0 0 0 5 70 146 36 18 12 1 0 2 43 20 16 38 113 59 7 0 0 0 0 1 37 76 11 0 0 97 7 0 0 0 0 1 15 146 62 1 2 12 1 0 27 54 16 3 24 146 45 0 4 0 3 25 28 87 31 0 0 81 24 7 0 0 0 0 9 146 41 1 0 8 2 2 64 44 10 18 95 135 9 3 18 0 17 66 75 20 0 0 0 65 22 1 0 0 0 0 14 146 55 1 0 0 0 0 30 62 28 36 84 8 1 1 14 0 3 20 97 35 17 0 0 
313.04 156.732 0.934445 2.01018 70 5 0 0 0 2 2 16 52 38 35 39 7 5 3 5 12 6 24 88 14 9 2 2 9 3 6 16 7 0 5 3 103 20 16 1 0 0 0 18 132 132 62 48 12 6 6 33 12 23 51 132 132 35 9 7 1 0 1 11 41 12 37 15 33 53 123 17 4 2 1 4 132 22 20 16 20 50 98 132 7 2 2 19 132 132 102 24 0 0 0 1 38 45 17 9 1 10 18 11 20 43 51 2 0 0 2 7 48 68 36 7 0 0 0 0 37 88 18 0 0 0 0 0 3 9 2 3 
313.04 156.732 0.934445 5.0405 1 8 4 6 0 0 0 0 20 87 25 0 0 0 0 0 40 83 35 7 0 0 0 3 16 40 69 5 1 3 6 7 35 43 20 16 0 0 0 0 131 131 114 23 7 3 2 16 21 53 111 127 131 27 15 15 9 7 6 3 25 34 123 28 41 11 29 18 3 0 1 13 131 37 8 7 13 31 50 131 12 6 6 27 131 131 53 40 0 0 0 8 85 29 38 3 8 1 2 2 11 6 5 14 22 12 4 1 8 9 21 90 5 2 2 5 68 52 27 28 1 3 1 8 61 6 0 0 
243.183 175.814 0.875169 0.244266 36 35 0 0 0 0 0 0 25 68 42 10 1 0 0 0 0 4 52 59 8 12 0 0 0 4 31 21 6 10 0 0 107 54 0 0 0 0 0 7 128 128 104 24 2 2 2 17 4 24 128 128 58 18 2 3 0 13 64 68 22 8 4 0 128 8 2 0 0 0 1 42 128 28 5 3 3 16 91 128 6 4 6 34 82 128 105 29 1 0 1 9 31 79 27 9 20 6 9 4 2 2 6 20 7 0 0 0 0 3 91 87 0 0 0 0 0 69 97 17 13 0 0 0 0 25 9 11 
243.183 175.814 0.875169 2.26299 57 12 1 1 0 0 1 37 13 26 52 33 14 1 1 8 0 1 72 77 9 5 0 0 0 0 4 31 12 4 2 2 106 22 5 1 0 0 0 25 121 121 82 21 3 4 5 26 6 20 103 121 118 33 5 4 0 0 1 53 117 11 0 0 66 10 8 3 0 0 8 27 121 13 2 1 2 22 121 121 5 2 2 12 81 121 121 21 1 0 0 5 65 93 14 2 1 0 0 0 0 10 40 11 0 0 0 0 0 13 119 27 0 0 0 0 3 75 87 2 7 0 0 1 1 32 19 8 
203.569 224.916 1.0639 0.476403 19 3 0 0 0 28 48 21 41 17 26 33 12 14 16 18 3 22 69 49 19 13 0 0 7 15 8 9 39 27 3 3 88 1 0 0 14 41 16 26 134 81 54 33 5 3 3 27 15 21 84 134 105 23 2 3 0 0 3 25 131 24 0 0 102 45 1 5 26 6 0 2 134 46 2 3 6 32 29 74 16 3 2 16 124 134 36 23 0 0 0 3 110 81 4 0 58 61 7 20 15 1 0 2 73 29 0 0 4 66 22 15 0 0 0 0 22 134 14 1 0 0 0 0 16 103 5 0 
54.2437 243.808 1.10675 1.27763 5 1 0 0 0 8 8 9 35 36 21 4 1 0 1 16 8 8 27 29 14 2 0 3 17 0 0 2 1 0 2 38 42 25 3 0 0 1 0 4 144 144 110 40 11 6 4 28 14 46 122 144 144 30 4 6 12 1 0 15 33 5 1 14 49 17 6 2 0 0 0 10 144 42 6 8 12 44 95 144 16 7 6 34 144 144 102 47 21 3 0 1 40 26 3 20 6 6 3 0 0 2 7 6 11 1 0 0 0 14 62 45 0 0 0 0 7 81 57 6 7 0 0 0 2 13 5 27 
54.2437 243.808 1.10675 4.52773 3 19 6 18 2 0 0 0 7 83 54 7 0 0 0 0 0 12 54 46 14 2 0 0 0 2 4 3 6 7 4 1 47 27 5 25 14 1 0 1 144 144 104 53 15 7 6 37 11 40 89 144 144 37 6 8 0 0 0 11 48 14 6 1 34 4 2 15 12 1 0 14 144 27 4 7 13 42 122 144 10 5 4 31 144 144 113 42 0 2 0 6 48 21 1 0 0 0 5 41 12 0 0 2 12 1 0 5 5 6 27 31 2 0 0 18 33 31 23 5 0 7 9 13 6 1 0 0 
355.931 251.546 1.07031 3.13132 4 9 2 0 0 0 3 4 3 9 26 8 3 12 4 1 1 1 25 20 2 9 7 4 9 2 3 2 0 0 16 21 39 12 0 0 0 3 9 9 125 135 117 31 4 0 0 7 7 22 124 135 70 0 0 1 0 2 17 41 14 0 1 0 65 20 9 0 0 0 0 5 135 45 12 16 12 0 3 91 53 10 12 135 135 25 9 24 0 0 2 66 78 17 1 0 24 49 35 1 2 2 3 7 97 15 17 4 11 16 60 102 18 1 0 17 69 135 135 54 0 0 0 3 38 71 16 0 
355.931 251.546 1.07031 5.75322 17 10 7 1 0 0 0 4 96 138 69 4 0 0 0 2 26 62 138 137 63 13 1 1 8 28 28 50 27 8 7 9 50 4 0 0 0 0 5 24 138 92 2 0 7 12 10 50 67 28 9 26 138 138 15 12 2 3 1 8 73 74 55 18 21 0 2 7 6 2 4 28 106 8 1 0 2 25 86 138 8 2 0 1 80 138 94 36 0 0 2 1 25 50 10 1 5 5 9 3 2 2 0 1 4 6 16 1 0 3 14 25 0 1 2 9 9 22 18 6 0 0 5 10 5 2 0 0 
21.1099 257.114 1.0207 0.612322 13 1 0 0 0 41 74 59 55 25 10 4 6 27 103 130 2 5 13 24 63 120 60 11 1 4 7 8 11 15 17 5 42 10 1 2 1 28 14 15 130 130 55 15 4 7 23 69 17 52 91 130 83 57 18 9 1 2 10 46 28 11 4 1 39 9 6 7 7 4 0 15 130 44 6 4 4 31 82 130 16 7 6 22 63 130 130 47 15 4 7 14 12 22 17 49 6 51 25 3 1 0 0 0 21 63 13 7 7 3 12 17 2 3 9 15 32 27 23 10 21 4 5 1 1 2 8 49 
236.849 263.625 0.93732 0.129908 4 10 11 6 0 0 0 1 1 25 91 15 0 0 0 1 0 1 69 46 1 2 1 0 0 0 6 13 0 0 0 0 51 48 11 0 0 0 1 7 131 131 131 34 7 7 6 30 6 22 131 131 131 44 6 4 0 0 3 43 60 14 0 0 41 3 1 0 4 5 11 52 129 23 5 5 6 40 131 131 6 4 5 24 122 131 129 22 0 0 0 2 48 54 0 0 0 0 0 0 14 6 6 8 0 0 0 0 1 9 70 35 0 0 0 0 1 44 52 3 0 0 0 3 6 6 0 0 
236.849 263.625 0.93732 1.99857 7 13 3 0 0 0 0 0 1 31 72 12 0 0 0 0 0 5 56 37 0 0 0 0 0 2 2 7 1 2 0 0 79 36 1 1 0 0 0 3 131 131 131 39 5 4 6 24 5 22 131 131 119 23 6 4 0 0 1 51 53 2 0 0 88 4 0 2 1 1 0 30 131 30 7 7 6 31 131 131 5 5 6 41 131 131 125 23 0 1 5 9 72 32 0 0 20 4 0 0 0 1 1 9 11 0 0 0 0 5 61 47 2 0 0 5 9 41 44 12 0 6 11 6 7 7 0 0 
236.849 263.625 0.93732 4.11653 3 11 1 0 1 1 1 1 4 59 51 3 0 0 0 4 5 16 65 28 1 0 0 5 2 3 2 9 15 7 0 0 59 36 1 0 0 0 1 5 136 136 116 29 4 4 5 28 9 37 136 136 116 34 6 5 0 0 2 44 62 16 0 0 61 2 0 0 0 0 2 37 136 28 5 5 4 31 123 136 9 5 5 34 107 136 136 34 0 0 0 6 41 83 8 0 10 2 0 0 0 0 0 10 6 0 0 0 0 9 61 48 1 0 0 0 0 57 59 4 6 4 4 0 0 11 3 1 
39.5311 265.99 1.00797 2.70945 1 2 0 1 20 61 62 6 1 15 29 3 7 49 33 1 0 1 61 20 6 30 5 0 0 0 39 21 4 1 0 0 28 23 4 14 11 12 15 1 99 121 102 10 1 3 3 10 5 26 121 121 27 10 1 2 0 0 115 57 7 6 1 0 44 3 0 2 8 24 14 22 121 38 7 2 3 6 10 121 36 32 64 97 63 39 13 28 0 0 23 92 43 40 8 0 43 4 0 0 0 10 6 8 121 32 0 0 0 0 3 67 116 46 52 64 16 20 38 85 0 0 15 113 121 66 14 1 
39.5311 265.99 1.00797 4.3158 46 19 3 0 0 0 0 1 117 50 9 7 1 0 0 1 27 100 45 37 6 0 0 0 19 113 120 70 18 3 0 1 66 18 7 27 3 0 0 1 120 118 28 10 1 2 5 26 68 91 62 36 13 31 40 33 49 52 12 18 40 94 120 43 29 3 7 50 30 0 1 15 102 9 1 4 3 10 99 120 6 2 3 6 11 120 120 35 0 0 0 0 3 67 120 23 0 2 24 65 54 5 1 2 4 14 10 15 17 1 29 23 0 3 9 24 12 22 40 3 0 0 0 13 7 8 36 3 
135.481 273.262 1.01198 0.81451 26 28 3 2 3 0 0 0 62 115 26 9 0 0 0 0 2 19 32 106 84 0 0 0 0 0 0 34 70 0 0 0 70 17 3 1 0 0 1 5 129 110 15 15 9 3 1 12 15 27 18 98 129 14 1 2 0 0 7 53 108 0 0 0 70 9 1 0 0 0 0 9 129 14 1 2 10 20 15 100 16 4 3 39 129 79 15 22 0 0 2 55 89 2 0 0 49 8 0 0 0 0 0 9 129 75 10 3 0 1 1 18 18 38 58 129 34 4 1 3 0 0 4 125 62 0 0 0 
135.481 273.262 1.01198 3.97781 56 0 0 0 0 0 6 129 29 4 2 3 22 41 62 129 0 1 1 20 129 67 8 2 0 0 0 10 46 6 0 0 87 1 0 0 0 0 2 58 129 75 15 23 16 4 3 42 9 19 15 106 129 12 1 2 0 0 0 10 68 8 1 0 102 0 0 0 0 0 8 56 129 13 1 2 15 25 18 105 9 3 1 14 129 105 15 16 0 0 1 6 72 17 3 1 65 0 0 0 0 0 0 35 85 0 0 0 2 17 31 110 0 0 0 0 63 112 27 11 3 0 0 0 29 28 2 2 
310.653 275.397 1.06355 0.430554 5 8 7 3 0 0 0 1 14 58 36 2 0 0 0 0 35 19 40 23 0 0 0 14 46 4 0 1 0 2 12 31 49 40 9 2 0 0 0 3 124 124 124 28 6 5 5 29 12 47 124 124 103 32 6 6 12 10 6 23 34 31 14 7 46 100 62 7 0 0 0 5 124 52 36 27 13 38 87 124 13 11 10 31 110 124 100 32 8 18 41 32 38 26 3 1 84 66 36 15 8 6 10 27 5 8 24 57 113 38 24 10 20 3 7 9 25 37 29 25 24 10 7 13 15 3 24 41 
310.653 275.397 1.06355 1.34792 9 3 0 0 0 0 15 36 10 27 32 1 0 2 32 42 10 8 28 34 25 13 8 13 3 26 46 28 13 5 0 0 70 21 0 0 0 0 0 20 123 123 123 27 6 5 7 34 14 36 122 123 123 26 8 7 30 28 17 23 25 7 19 25 54 12 1 0 0 0 3 35 123 34 6 5 6 21 107 123 11 16 25 46 123 123 106 40 2 7 11 27 44 21 28 16 10 8 3 0 0 0 3 11 109 46 2 0 0 0 13 51 50 64 65 56 13 13 23 31 0 9 27 80 30 25 5 0 
310.653 275.397 1.06355 2.80852 33 28 23 14 3 0 0 13 24 28 27 5 9 18 26 38 5 15 39 24 34 28 6 5 23 64 23 15 7 0 0 12 30 22 21 15 10 22 12 7 124 124 124 28 7 7 13 35 20 45 124 124 99 40 10 12 67 87 25 17 18 21 25 46 34 1 0 0 22 44 12 29 124 28 6 5 7 34 124 124 8 5 6 22 98 124 124 39 11 0 0 0 11 47 114 78 0 0 0 0 4 29 13 3 0 0 0 0 0 15 69 27 2 0 0 0 2 37 52 13 3 0 0 0 3 10 16 10 
310.653 275.397 1.06355 4.32894 22 12 7 1 0 12 24 53 32 19 16 17 17 37 63 97 0 0 10 45 111 91 17 1 0 0 2 10 20 12 3 0 36 25 34 34 8 5 4 12 124 124 97 40 9 11 18 44 6 23 95 124 124 42 9 5 0 0 2 37 51 13 2 0 29 5 5 15 23 41 27 30 124 28 7 7 13 35 124 124 6 5 7 34 124 124 124 29 0 0 0 12 67 30 1 0 28 19 5 0 0 8 27 26 18 14 12 27 12 7 32 18 0 0 17 44 13 31 34 1 0 0 2 25 15 4 0 0 
44.7482 292.022 1.05193 0.904616 69 0 1 0 0 2 11 118 127 0 0 13 75 9 4 139 2 0 0 50 139 9 1 4 0 1 4 16 27 2 4 2 80 11 3 6 1 0 0 20 139 34 4 17 31 6 3 70 23 10 5 76 139 17 1 5 1 32 27 12 47 0 0 0 52 73 6 2 0 0 0 0 139 54 5 3 14 28 23 53 16 13 4 13 139 94 20 14 19 59 17 17 28 1 0 0 33 139 10 0 0 0 0 0 22 79 47 52 15 4 3 5 4 3 4 50 64 23 9 7 41 17 10 5 4 8 12 34 
44.7482 292.022 1.05193 4.07563 5 9 14 37 40 15 8 4 63 21 8 6 2 2 5 57 11 4 3 5 26 88 46 47 0 0 0 0 34 135 7 0 27 1 0 0 23 57 16 17 137 88 20 15 17 12 4 15 14 26 22 56 137 48 4 3 0 0 0 0 55 64 5 2 44 0 0 0 2 35 26 13 137 14 1 5 22 9 5 85 33 6 3 79 137 25 4 19 1 0 0 27 82 9 3 5 23 2 3 1 0 1 5 17 137 7 1 3 1 0 0 59 83 8 5 137 107 0 0 18 0 2 11 136 68 0 0 0 
27.5492 301.063 0.928563 0.489813 15 38 3 0 0 0 0 0 39 76 24 3 0 0 0 0 2 11 40 62 29 1 0 0 0 0 1 46 25 3 2 1 71 52 2 0 0 0 0 5 128 128 82 14 2 2 2 13 7 39 125 128 63 14 2 3 0 0 4 128 51 1 0 0 116 3 0 0 0 0 0 31 128 27 3 2 3 17 38 128 11 6 5 31 81 128 55 34 0 0 0 28 119 73 1 0 28 0 0 4 2 0 0 31 58 0 0 0 0 5 19 128 2 0 0 0 12 92 36 26 0 0 0 2 59 54 1 0 
61.3918 307.895 0.8805 3.90917 133 6 0 0 0 0 0 22 134 33 3 0 0 2 4 58 24 11 9 20 61 69 11 16 0 0 0 28 134 35 0 0 134 17 0 0 0 0 0 16 134 25 0 0 7 7 4 44 31 2 0 0 97 134 9 11 0 0 0 2 57 125 3 0 134 46 0 0 0 0 0 2 134 22 0 0 4 27 24 49 9 0 0 0 93 134 19 9 0 0 0 0 44 73 2 0 83 17 0 0 0 0 0 14 45 1 0 0 0 28 47 49 0 0 0 0 11 97 34 1 0 0 0 0 18 27 2 0 
388.42 61.9914 1.17673 1.24087 4 9 2 8 6 6 8 5 49 60 22 2 1 3 2 4 17 19 48 29 6 3 0 8 14 1 1 8 2 1 11 43 35 24 4 9 19 4 1 3 137 137 91 17 5 3 4 30 14 61 137 137 125 22 6 8 9 15 6 48 49 4 2 9 36 2 0 0 7 18 21 30 137 30 5 3 4 15 85 137 14 8 7 32 126 137 137 66 21 13 1 7 52 54 7 8 4 4 2 0 0 1 4 6 38 8 1 0 0 1 24 89 17 32 42 8 0 32 55 24 24 23 25 10 1 9 3 3 
379.981 93.477 1.23145 0.799812 14 10 6 1 1 4 16 38 9 14 21 26 49 8 6 18 0 1 15 59 42 31 4 0 0 0 0 7 3 9 16 2 41 3 0 1 0 1 28 56 141 134 77 44 11 4 8 38 11 29 92 141 134 23 1 2 2 0 0 52 53 3 1 1 71 0 0 4 12 4 2 21 141 27 5 5 10 51 39 141 18 6 6 36 141 141 33 26 1 5 5 8 70 38 0 0 18 7 0 0 16 6 0 13 53 15 3 2 3 30 44 102 2 0 0 2 29 140 32 11 19 15 6 0 5 14 1 7 
343.463 108.681 1.17418 0.688947 4 3 4 3 19 7 1 2 7 33 52 2 2 0 0 1 9 62 71 2 0 0 0 1 0 104 77 7 3 0 0 0 49 10 1 0 1 15 10 8 128 128 84 5 0 0 0 5 17 95 128 60 0 0 0 0 17 91 42 12 28 48 5 3 69 1 0 0 0 4 4 24 128 28 7 2 0 0 0 108 96 19 53 80 35 16 2 33 2 2 10 30 128 63 2 0 20 18 27 0 0 0 0 8 128 22 8 0 0 0 2 94 84 1 0 1 20 98 43 74 0 0 0 4 77 93 24 0 
331.603 114.321 1.34147 0.857403 9 5 0 0 1 2 12 6 29 68 37 0 0 0 1 6 113 82 60 0 0 0 1 72 62 15 1 0 29 101 33 67 51 14 0 0 4 3 0 5 126 126 53 1 1 1 1 10 27 113 126 21 31 20 2 4 10 18 9 49 90 26 2 1 57 2 0 1 1 3 1 16 126 20 2 0 1 11 12 126 43 8 5 5 37 115 36 68 58 11 11 67 29 11 10 38 10 1 0 0 2 2 1 11 126 7 0 0 0 2 4 118 40 4 0 3 20 51 25 70 41 1 0 5 8 17 40 95 
288.73 134.622 1.17399 1.0236 51 6 0 0 0 0 0 23 126 85 9 5 1 0 0 11 24 20 10 20 42 51 53 35 0 0 0 0 15 91 109 1 103 3 0 0 0 0 0 10 136 86 13 18 12 5 2 15 20 24 15 87 136 43 3 3 1 5 4 15 84 21 12 0 96 5 0 0 0 0 0 10 136 13 1 2 9 39 32 102 12 3 6 17 136 136 28 18 1 19 49 20 35 7 0 0 51 53 2 0 0 0 0 0 112 98 27 19 3 6 4 13 2 8 50 104 15 17 3 2 13 14 17 22 4 0 0 7 
277.818 144.622 1.30999 4.55406 38 6 2 0 0 0 0 12 122 16 0 0 0 0 5 122 25 4 0 12 39 108 68 102 0 0 1 14 33 122 35 0 38 25 10 0 0 0 0 0 122 117 10 13 11 0 1 20 26 31 15 76 122 87 25 15 0 10 28 15 21 77 12 0 34 20 18 0 0 0 0 2 122 18 4 4 9 2 12 122 21 3 27 109 106 10 26 73 0 6 88 87 34 2 1 1 37 16 10 2 0 0 0 4 15 5 12 14 0 0 4 76 1 0 5 6 1 1 51 122 0 0 9 22 51 21 51 18 
321.336 170.489 1.22718 2.07428 10 5 2 1 1 18 33 33 8 17 32 13 45 42 20 21 0 2 41 57 26 10 0 0 0 1 1 12 9 2 1 0 50 15 0 4 7 11 13 12 134 134 118 33 8 6 9 36 8 33 133 134 134 32 6 5 0 1 1 46 63 5 0 0 46 3 0 9 16 1 0 21 134 30 6 5 6 32 118 134 8 6 6 31 134 134 123 34 0 0 2 5 60 51 5 0 2 0 1 8 25 4 1 4 2 0 0 3 3 9 52 42 3 2 2 2 7 59 50 7 3 6 33 6 6 9 0 0 
321.336 170.489 1.22718 5.41571 6 8 1 6 8 13 18 2 6 55 53 8 1 0 0 1 3 6 46 39 3 0 0 3 29 2 0 3 1 0 3 27 70 45 2 0 0 1 7 5 132 132 122 37 8 6 6 31 6 30 112 132 132 27 5 5 10 0 0 23 43 2 2 12 57 8 1 0 0 1 1 46 132 31 6 6 7 33 132 132 9 8 10 38 132 132 128 33 4 20 25 22 49 10 0 3 4 0 0 0 0 2 1 14 11 1 0 0 0 2 49 58 73 22 9 4 2 15 46 20 13 18 32 31 16 10 3 2 
130.718 216.14 1.19983 2.53917 83 0 0 0 0 0 0 47 79 11 3 0 0 4 30 88 3 7 10 33 71 95 40 16 0 0 0 28 85 34 0 0 111 10 0 0 0 0 0 33 116 109 23 3 1 0 2 29 11 39 51 116 91 4 2 4 0 0 0 116 110 0 0 0 105 21 0 0 0 0 0 12 116 19 1 0 1 3 19 116 13 5 3 26 81 43 55 48 0 0 0 75 116 9 2 0 20 2 0 0 0 0 17 37 19 0 0 0 0 0 56 116 0 0 0 0 4 10 106 98 0 0 0 35 44 8 20 23 
82.6815 220.299 1.17202 0.504541 27 4 0 1 2 3 17 37 20 36 32 19 5 2 3 3 0 3 15 40 36 16 6 1 0 0 0 3 16 48 11 0 83 5 0 0 0 0 7 59 129 98 36 34 4 0 0 14 5 15 30 129 129 4 0 1 0 0 0 39 71 26 3 0 129 9 0 0 0 2 3 25 129 32 3 8 6 1 0 49 28 4 3 129 129 6 2 15 0 0 0 107 127 4 0 0 118 32 0 0 0 0 0 13 129 37 3 1 1 1 10 42 12 1 1 18 81 69 32 14 0 0 0 19 129 44 0 0 
82.6815 220.299 1.17202 3.19098 68 41 1 0 0 0 0 3 132 128 16 1 0 0 0 0 21 43 41 29 35 21 4 3 3 0 0 3 53 132 31 5 108 32 6 0 0 0 0 3 132 49 1 1 10 5 3 15 33 9 2 7 132 132 3 4 0 0 0 1 116 132 1 0 57 42 37 0 0 0 0 2 132 19 0 0 3 29 38 79 7 0 0 1 124 132 36 16 0 1 3 10 85 64 0 0 13 17 19 9 3 0 1 5 21 4 1 2 3 19 33 36 1 1 4 19 42 56 12 2 0 0 1 23 45 7 0 0 
191.854 226.674 1.35235 0.919986 115 1 0 0 0 0 0 56 67 2 7 77 58 0 0 43 97 12 20 75 29 0 0 36 86 2 0 0 31 41 14 61 83 13 0 0 0 0 0 39 131 40 26 51 12 7 1 55 49 24 46 131 87 47 6 14 56 5 2 9 54 25 11 44 67 42 0 0 0 0 0 1 131 36 1 3 19 61 27 55 17 2 0 7 103 131 35 36 12 0 0 0 22 40 44 101 54 61 0 0 0 0 0 0 79 63 5 24 69 15 3 8 5 3 1 28 123 44 3 3 34 11 1 4 4 3 3 14 
191.854 226.674 1.35235 4.62054 15 0 0 2 3 7 24 119 28 4 4 39 70 6 9 95 0 0 2 50 112 5 0 0 0 0 0 6 19 6 0 0 48 11 24 21 11 0 1 23 123 69 27 54 17 1 2 40 13 14 19 123 119 2 1 4 0 0 8 72 25 2 0 0 44 33 93 33 1 0 0 14 123 24 29 35 15 9 60 84 11 2 8 123 67 31 123 57 0 0 33 123 8 0 9 15 69 5 7 11 2 0 1 79 18 6 18 113 30 6 20 13 2 0 10 73 20 8 67 64 20 2 3 38 6 0 12 81 
175.143 240.121 1.37814 1.53486 48 86 70 6 1 2 10 56 2 50 92 35 96 30 13 8 0 0 9 41 126 36 4 0 0 1 20 12 12 17 5 0 30 5 1 0 0 3 70 126 78 12 11 39 41 34 69 94 7 4 18 126 73 3 0 0 11 40 47 45 5 0 0 0 79 14 0 0 0 0 8 43 126 36 1 6 3 0 3 45 29 8 32 126 38 2 2 19 10 17 29 96 47 31 4 1 66 4 0 0 0 0 0 45 118 7 0 0 0 0 4 126 17 2 3 10 29 13 12 88 0 0 0 15 126 51 3 3 
175.143 240.121 1.37814 4.01393 12 22 60 6 3 19 21 16 93 104 25 2 3 4 5 34 12 36 10 19 83 9 1 6 0 0 0 13 120 28 0 0 42 1 0 0 0 15 39 49 120 21 0 0 3 10 7 49 25 6 0 7 60 120 7 11 0 0 0 3 114 120 4 0 50 61 20 3 0 0 0 21 120 94 16 11 9 17 6 23 9 5 11 69 120 120 8 5 0 0 0 12 45 83 5 0 24 65 20 1 0 0 28 29 37 92 20 14 6 3 72 77 1 6 14 104 120 32 36 14 0 0 0 26 83 4 0 0 
66.7136 241.13 1.19017 0.129291 70 9 0 0 1 1 1 10 133 57 5 0 0 0 0 10 30 40 22 42 114 22 0 0 0 0 0 5 113 78 9 0 97 25 0 0 0 0 0 12 133 81 0 0 6 15 7 35 49 26 3 7 133 133 7 6 0 0 0 0 133 87 0 0 39 15 5 2 5 4 1 22 123 11 1 1 3 38 66 133 6 0 0 4 85 133 60 18 0 0 0 3 55 51 0 0 17 53 1 0 5 6 1 1 17 69 29 25 12 8 9 11 0 0 5 44 70 32 7 0 0 0 0 3 33 16 0 0 
66.7136 241.13 1.19017 3.84565 62 1 0 0 0 1 15 63 11 8 10 11 48 40 30 23 4 3 15 34 38 8 0 3 6 1 1 4 16 24 26 18 54 5 0 0 0 0 6 49 133 121 60 30 4 2 9 18 10 24 79 133 58 0 0 0 0 0 3 69 51 2 0 0 81 0 0 0 0 0 0 29 133 24 5 11 6 0 0 89 60 7 6 133 133 7 3 24 0 0 0 133 71 0 0 0 34 2 3 2 0 0 0 19 133 0 0 0 0 0 4 133 39 0 0 23 54 26 30 80 0 0 0 65 105 10 2 0 
171.254 243.543 1.15598 3.9452 0 29 105 0 0 0 0 0 14 132 52 0 0 0 0 0 9 132 41 7 8 0 0 0 0 12 31 18 44 18 0 0 13 23 103 13 4 17 16 10 88 132 56 2 1 1 2 17 9 95 31 21 76 7 0 2 0 0 1 13 132 23 0 0 56 5 0 0 1 23 47 33 132 31 1 0 2 4 6 64 23 7 1 9 76 51 7 15 0 0 0 9 132 83 1 0 91 18 0 0 0 0 2 23 132 34 0 0 3 17 7 15 10 4 0 2 32 132 14 3 0 0 0 0 27 132 20 0 
175.737 249.793 1.10417 5.34886 61 1 0 0 0 0 1 41 131 13 0 0 0 0 5 104 35 3 0 3 11 29 131 96 0 0 0 1 3 14 131 74 114 9 0 0 0 0 1 14 131 65 5 7 4 3 4 21 26 18 7 49 117 51 28 8 0 0 0 3 31 41 96 27 82 38 0 0 0 0 0 10 131 10 0 0 1 14 76 131 8 1 0 5 46 131 131 24 3 1 0 0 14 82 35 4 18 28 0 0 0 0 1 3 9 2 0 0 1 23 41 23 0 0 0 1 1 47 65 2 8 0 0 0 0 8 20 22 
35.3571 262.565 1.28682 0.437009 4 48 19 1 0 0 0 1 5 65 40 7 1 0 0 0 0 7 53 78 15 4 0 0 25 10 9 24 1 1 0 3 52 23 5 0 0 0 5 18 127 127 105 12 1 2 6 25 7 42 127 127 23 18 12 5 5 6 88 127 16 1 1 1 50 4 1 5 1 0 6 40 127 28 5 2 1 10 95 127 12 8 20 41 23 70 127 81 1 1 27 65 67 105 49 18 9 2 3 11 4 1 2 8 54 3 0 0 0 0 14 60 19 0 0 0 2 64 58 42 3 0 0 0 2 117 44 5 
35.3571 262.565 1.28682 1.65568 1 18 18 18 1 0 4 3 12 124 39 0 0 0 3 11 16 124 89 36 15 6 3 2 0 2 27 84 75 6 8 7 54 38 16 5 0 0 1 11 124 124 67 9 7 5 6 32 18 87 55 39 123 90 18 7 0 0 1 47 124 47 11 0 66 1 0 0 0 1 5 45 108 14 1 1 5 25 124 124 6 3 1 5 71 124 124 35 0 0 0 9 27 41 61 13 24 3 1 0 1 10 6 8 0 1 1 0 1 16 53 28 1 5 3 0 1 29 62 10 0 1 1 2 1 5 32 11 
35.3571 262.565 1.28682 5.41897 5 10 3 1 8 13 1 0 11 42 44 1 0 1 0 0 5 14 42 46 2 0 0 0 0 3 21 46 1 0 0 0 24 66 22 1 2 1 0 0 104 126 126 25 4 1 1 16 6 27 126 126 92 12 1 4 0 1 6 47 43 19 6 0 38 60 23 0 0 0 6 28 126 66 10 8 12 18 18 112 15 7 8 49 126 126 22 30 0 1 4 9 91 67 6 1 10 2 0 0 0 0 29 98 52 13 0 1 9 15 50 126 7 3 1 5 126 109 40 16 1 6 27 7 34 14 0 0 
58.5152 262.658 1.39598 0.22968 60 33 7 0 0 1 1 32 30 39 38 13 17 2 3 36 0 4 29 88 97 4 0 0 0 2 34 29 14 0 0 0 52 1 0 1 5 4 6 65 137 133 48 26 11 9 5 64 18 41 72 137 137 66 4 4 0 0 15 41 57 42 1 0 48 1 2 6 3 6 7 30 137 18 2 2 7 54 118 137 14 5 2 9 90 137 111 29 5 2 0 0 21 84 9 2 2 10 19 20 4 9 9 9 6 35 33 8 4 9 52 50 0 2 5 8 12 46 51 5 4 2 0 0 1 10 23 5 
58.5152 262.658 1.39598 4.083 22 7 0 0 9 23 22 54 3 40 61 11 28 35 7 2 9 15 43 38 1 1 5 2 2 2 17 12 0 0 3 7 52 43 2 0 1 1 2 5 133 133 120 60 7 3 3 18 11 25 107 133 77 7 3 5 3 4 63 57 7 0 0 3 82 16 2 6 2 0 0 9 133 26 4 10 9 16 82 133 15 5 16 86 123 94 120 54 1 1 56 62 39 20 1 4 27 4 0 0 0 0 5 19 18 0 0 0 0 25 76 44 8 0 0 0 0 19 93 94 3 0 1 2 26 58 19 30 
53.255 274.641 1.64488 3.26298 72 3 3 2 0 0 0 25 151 15 5 4 13 16 5 82 31 6 8 22 151 97 5 14 0 1 25 39 66 7 0 0 45 10 6 12 1 0 0 11 151 33 1 6 27 11 2 70 68 11 5 31 151 49 3 9 2 13 27 29 46 16 3 0 22 34 34 13 1 0 0 1 151 49 2 0 8 45 71 59 28 3 0 2 71 143 98 36 6 3 0 8 39 58 18 10 5 64 50 4 2 1 0 1 10 36 97 79 18 21 33 11 8 10 15 28 11 21 43 28 5 1 2 7 18 37 23 14 
281.668 138.501 1.5379 1.28475 86 0 0 0 0 0 0 52 112 6 4 18 51 33 19 103 2 17 25 43 85 23 3 1 16 69 14 3 2 1 0 6 66 22 4 1 0 0 0 14 114 66 31 11 4 6 6 48 12 19 96 114 10 4 2 8 9 6 6 60 11 6 12 25 37 54 15 0 0 0 2 5 114 34 4 1 0 0 47 114 85 10 25 94 13 1 27 114 9 2 7 114 114 17 4 3 12 19 4 0 0 0 11 22 18 87 30 0 0 0 35 28 114 92 30 13 23 22 13 59 14 1 1 15 114 96 5 7 
276.105 140.844 1.63955 1.08386 10 27 16 3 0 0 0 0 109 83 10 3 0 0 1 21 19 20 37 94 13 2 1 18 7 6 4 40 16 2 4 14 13 22 11 0 0 0 4 20 63 31 7 0 0 0 29 94 118 23 8 55 38 9 8 84 3 2 2 58 118 36 7 2 39 71 31 0 0 0 2 12 32 118 118 6 1 0 6 9 89 74 58 34 78 78 12 14 2 0 0 2 99 118 10 1 83 23 4 0 0 0 0 51 118 69 35 13 8 1 1 91 20 15 21 77 118 23 3 15 0 0 0 4 104 32 3 0 
276.105 140.844 1.63955 2.13842 11 43 33 23 10 3 7 8 3 34 121 10 0 3 10 6 1 4 75 121 27 4 2 4 0 0 0 44 35 7 0 0 36 19 6 0 1 7 37 121 12 17 30 1 0 49 121 78 35 15 37 106 56 11 58 105 1 4 61 121 56 2 0 0 39 6 0 0 0 5 14 53 55 12 0 0 1 49 40 30 121 73 27 9 2 2 19 65 24 26 121 121 7 10 47 31 9 5 1 0 1 8 14 4 52 9 0 0 0 7 15 39 91 13 0 0 0 0 95 85 5 0 1 4 2 27 121 39 
312.5 145.36 1.58155 0.638538 5 4 2 3 26 106 11 1 25 97 27 2 16 30 3 0 6 50 88 53 20 3 2 6 0 0 8 18 28 27 12 5 45 6 0 0 5 76 30 17 126 126 12 3 10 13 5 29 23 62 37 43 126 126 3 4 0 0 0 6 59 126 15 1 45 6 20 24 4 6 5 29 126 12 1 0 7 35 80 126 11 2 1 12 126 126 75 29 0 4 26 21 58 53 4 1 4 8 23 61 43 15 2 0 10 7 3 1 8 45 46 24 7 4 5 10 15 17 55 65 11 20 81 30 17 9 12 21 
312.5 145.36 1.58155 4.19686 1 10 84 40 8 9 4 2 29 54 62 15 2 1 0 0 10 10 16 40 23 16 25 18 19 3 2 5 2 18 81 27 41 6 12 9 6 38 47 64 142 128 98 49 8 0 0 31 13 26 60 142 114 2 0 0 25 52 14 46 19 0 2 1 100 39 2 1 0 5 4 17 142 31 3 8 19 19 17 73 32 5 4 62 142 93 18 20 55 57 2 17 60 6 0 0 39 63 20 0 0 0 0 2 80 16 4 0 1 16 59 59 4 0 3 5 46 106 56 13 74 19 0 1 13 12 1 19 
298.191 145.959 1.61694 1.17483 0 1 1 61 115 53 1 0 0 16 49 28 58 20 6 6 19 17 40 11 2 4 18 61 4 2 0 1 29 45 39 16 25 7 1 13 60 115 78 7 101 115 107 42 27 13 7 16 7 22 82 115 103 23 1 2 1 1 0 8 73 48 1 0 50 67 20 15 30 20 20 5 115 70 9 7 20 44 23 54 7 2 3 24 115 115 25 15 0 0 3 18 40 36 9 9 17 81 36 16 9 1 1 9 11 55 14 7 103 56 5 7 0 0 0 0 115 115 8 3 0 0 0 0 4 16 28 15 
298.191 145.959 1.61694 4.51831 27 15 19 4 0 0 0 0 120 54 3 1 0 1 1 8 55 11 4 10 40 103 9 9 40 3 0 2 17 72 30 35 44 36 22 11 0 0 4 10 120 120 22 20 8 3 4 31 17 25 20 93 120 50 6 7 32 82 29 14 52 24 5 20 87 22 0 0 0 0 3 18 115 19 1 3 6 20 77 120 21 7 4 23 85 120 114 47 100 111 23 6 15 10 5 61 52 33 19 1 1 0 0 4 12 14 26 38 20 16 27 10 20 9 15 18 3 30 45 17 117 37 0 0 0 1 2 72 
109.705 196.875 1.46703 0.771908 73 8 2 4 0 0 0 8 89 25 19 21 0 0 0 12 2 4 48 113 0 0 0 0 0 0 23 133 4 0 0 0 73 4 2 9 8 6 1 13 133 97 25 9 3 1 0 18 15 31 81 83 45 30 8 2 0 0 48 108 5 12 24 9 70 1 0 0 6 25 6 31 133 31 2 3 9 8 4 95 29 10 4 26 133 103 20 22 19 0 0 10 29 33 50 66 74 25 0 0 0 7 4 5 133 123 5 8 7 4 1 10 22 26 8 82 133 26 2 2 20 1 0 23 55 11 10 22 
104.247 202.737 1.48455 1.07954 89 3 0 0 1 1 1 77 63 9 7 17 61 12 7 75 1 0 1 43 99 34 24 11 18 3 3 4 1 2 25 65 77 0 0 0 3 6 3 68 135 25 8 30 16 3 2 71 13 9 8 135 128 11 1 3 4 0 1 23 42 21 23 16 108 14 0 0 1 6 2 12 135 57 2 8 19 14 3 23 16 5 1 27 135 96 3 5 0 0 0 3 96 38 1 0 109 31 1 1 1 0 0 3 135 55 3 22 32 3 0 20 6 4 1 58 135 18 0 2 0 0 0 9 77 4 0 0 
116.413 209.903 1.49262 2.84864 0 0 0 37 25 15 69 14 5 4 17 130 13 1 6 7 0 1 9 130 14 0 0 0 0 0 7 16 5 0 0 0 46 0 0 0 0 0 88 68 130 55 40 74 9 1 9 40 9 12 30 130 107 3 0 1 0 0 22 73 15 0 0 0 126 10 0 0 0 0 4 25 130 25 2 5 11 23 21 64 12 3 2 67 130 105 23 16 0 3 25 71 41 7 0 0 123 35 0 0 0 0 0 1 122 40 1 7 29 13 4 6 3 18 12 15 56 76 7 2 7 106 53 5 5 8 2 0 
116.413 209.903 1.49262 5.49073 22 1 0 0 0 0 26 54 32 45 32 1 0 13 33 15 34 84 40 3 1 12 11 13 18 10 0 0 33 108 2 5 69 2 0 0 0 0 0 50 128 119 34 6 5 6 2 22 15 52 58 36 109 110 3 2 0 1 0 0 52 128 1 0 72 0 0 0 0 0 1 39 128 14 1 1 8 36 24 128 13 4 1 20 128 128 21 22 0 0 1 24 68 65 0 0 39 1 0 0 0 0 1 11 128 1 0 1 3 4 4 78 26 5 20 88 33 13 3 16 0 0 28 119 9 0 0 0 
174.548 235.798 1.5162 1.29629 49 0 0 0 0 0 0 32 126 53 35 5 0 0 0 66 22 49 126 31 26 13 9 26 0 6 47 31 84 40 1 0 24 0 0 0 0 0 0 42 94 7 0 0 0 0 4 126 91 21 8 19 39 25 38 126 3 3 4 89 126 27 2 0 19 0 0 0 0 0 1 19 126 48 0 0 0 0 0 34 126 91 3 16 7 0 0 26 14 7 8 126 74 1 0 2 9 9 8 0 0 0 0 2 126 15 2 0 0 0 0 39 126 11 0 1 0 0 1 98 13 0 1 26 64 50 6 22 
179.689 235.737 1.52275 0.66449 36 21 0 0 0 0 0 0 53 79 9 6 7 0 0 0 5 12 11 34 94 13 0 0 7 13 7 8 17 5 1 2 94 21 0 0 0 0 0 1 128 128 59 28 2 0 0 12 10 19 120 128 35 8 1 3 0 8 79 96 13 3 0 0 74 74 9 0 0 0 0 3 128 95 14 5 6 9 12 60 21 7 18 60 61 128 37 22 0 0 12 41 30 84 42 1 46 128 20 0 0 0 0 0 22 128 24 6 51 12 0 1 1 3 4 10 128 81 4 0 0 0 2 18 27 30 24 1 
179.689 235.737 1.52275 2.74562 49 20 1 0 0 0 6 23 63 38 50 50 5 0 0 8 3 41 121 61 5 0 0 0 18 89 77 0 0 0 0 6 86 40 12 0 0 0 9 18 125 76 43 21 3 7 6 22 17 39 117 68 27 66 37 14 5 59 62 0 0 8 73 51 23 66 39 0 0 4 28 10 115 21 3 0 1 48 125 89 6 0 0 2 12 125 125 22 0 0 0 0 0 26 125 110 0 1 0 0 0 7 77 12 0 0 0 0 0 34 105 7 0 0 0 0 0 57 56 0 0 0 0 0 0 12 48 10 
114.736 298.886 1.57964 0.994939 59 0 0 0 0 0 0 46 67 13 10 67 27 0 0 22 0 0 2 110 58 0 0 0 0 0 0 15 12 0 0 0 85 3 0 0 0 0 0 21 140 21 11 52 15 0 0 28 14 5 5 140 140 0 0 0 0 0 0 44 46 0 0 0 67 32 0 0 0 0 0 2 140 66 3 13 16 0 0 14 33 13 4 118 140 0 0 1 0 0 0 43 104 0 0 0 83 17 0 0 0 0 0 0 140 68 4 9 7 2 4 19 24 16 5 86 140 19 7 6 0 0 0 42 110 2 0 0 
114.736 298.886 1.57964 3.77246 43 8 0 0 0 0 0 4 134 61 0 0 0 0 1 4 103 36 13 15 61 93 11 12 0 0 1 12 121 104 0 0 85 9 0 0 0 0 0 1 134 52 0 0 8 8 2 8 54 9 0 0 116 134 11 9 0 0 0 0 52 128 1 0 82 1 0 0 0 0 0 13 134 4 0 0 17 23 6 67 17 0 0 0 134 127 5 13 0 0 0 0 36 40 3 0 50 1 0 0 0 0 0 5 117 2 0 1 12 14 5 45 6 0 0 6 114 49 4 8 0 0 0 1 31 6 0 0 
298.035 132.351 2.00971 1.51427 15 14 2 0 0 0 0 2 125 93 2 3 3 0 0 17 35 33 6 37 125 9 0 3 3 2 3 10 49 11 23 37 53 33 2 0 0 0 0 0 125 125 3 13 8 3 1 18 28 30 4 110 125 41 2 5 16 36 35 49 49 15 2 6 55 8 0 0 0 0 1 25 125 12 1 5 6 15 12 125 26 5 3 50 114 125 19 29 67 23 5 11 23 41 9 35 7 0 0 2 7 0 2 24 125 3 1 4 2 0 2 125 43 8 13 87 85 12 9 62 28 46 21 29 17 2 1 3 
312.751 145.157 1.76377 0.620019 10 17 11 5 29 102 6 1 13 66 26 2 33 47 2 0 14 40 64 37 14 4 2 7 1 0 3 22 42 23 10 2 35 4 0 0 12 123 40 15 123 123 20 5 7 18 9 29 18 56 47 58 123 119 3 4 0 0 0 7 59 122 35 0 45 4 26 46 13 18 8 23 123 11 2 1 5 33 76 123 10 2 4 10 123 123 69 25 2 8 34 19 51 60 6 1 3 4 24 71 55 37 2 1 8 2 2 4 4 54 61 27 7 4 11 8 12 21 67 65 6 9 62 30 15 13 15 18 
312.751 145.157 1.76377 4.20503 2 15 97 32 4 5 3 1 21 74 68 11 0 0 0 0 17 12 18 41 11 10 46 32 37 8 1 4 4 19 82 35 48 8 13 9 6 34 64 36 134 125 92 44 6 0 2 22 10 23 62 134 102 3 1 1 64 85 12 39 16 0 3 4 101 41 4 1 4 8 9 13 134 28 4 7 14 20 22 86 25 7 5 55 134 105 24 23 88 64 3 14 39 6 1 3 27 65 25 0 0 0 5 4 65 19 3 2 1 12 37 57 7 1 2 12 30 85 36 13 90 11 0 2 7 8 1 30 
268.279 145.983 1.92831 4.23997 26 3 2 8 1 0 1 52 10 18 52 42 4 0 0 11 0 12 54 42 10 0 0 0 0 0 1 26 35 0 0 0 61 3 1 1 0 0 0 53 135 99 80 36 2 0 0 25 17 22 82 135 71 0 0 1 0 0 0 90 65 0 0 0 66 45 8 0 0 0 0 1 135 61 4 8 7 14 21 62 37 4 4 87 135 125 60 28 0 0 0 47 131 51 5 0 60 80 5 0 0 0 0 3 93 78 2 13 52 28 15 19 2 0 0 33 52 122 61 4 0 0 0 11 30 51 10 0 
129.892 216.096 2.13586 2.37439 88 7 0 0 0 0 0 5 126 78 10 1 1 3 2 22 20 38 26 14 86 88 17 9 0 0 0 1 35 81 61 0 102 22 0 0 0 0 0 5 126 65 6 10 9 5 4 33 24 16 6 68 126 61 7 11 0 0 0 15 80 31 14 0 61 17 0 0 0 0 6 37 126 16 0 2 5 5 38 126 11 2 1 41 126 31 42 65 0 0 0 36 126 4 1 0 2 0 0 0 0 3 13 21 35 16 0 0 0 0 24 112 78 63 10 35 38 4 15 61 1 5 5 78 119 1 0 0 
129.892 216.096 2.13586 5.37475 120 2 0 0 0 0 0 30 91 6 8 41 46 59 14 39 0 0 7 115 57 47 0 0 0 2 8 25 4 3 0 0 128 9 1 1 0 0 0 7 128 44 27 55 11 3 1 16 6 7 21 128 126 23 0 1 0 0 5 52 49 17 0 0 79 59 33 0 0 0 0 3 128 88 10 11 33 25 7 34 7 2 3 16 128 112 6 7 0 0 0 1 76 45 0 0 34 75 74 0 0 4 7 3 45 75 13 9 38 61 45 12 0 0 1 6 128 79 7 0 0 0 0 0 64 13 0 0 
129.957 280.833 2.04448 0.730206 46 4 0 0 0 0 0 9 111 40 6 14 24 0 0 2 4 4 4 64 125 0 0 0 0 0 0 16 24 0 0 0 91 9 0 0 0 0 0 7 137 117 27 37 14 0 0 6 11 20 23 137 137 2 0 1 0 0 0 53 56 0 0 0 87 1 0 0 0 0 0 26 137 19 2 6 20 16 6 115 25 4 2 38 137 97 6 23 0 0 0 14 90 35 0 0 46 4 0 0 0 0 0 11 137 7 0 0 19 12 1 45 22 0 0 2 137 81 2 10 0 0 0 1 47 23 0 0 
129.957 280.833 2.04448 3.62527 11 32 0 0 0 0 0 0 87 133 2 1 1 0 0 0 45 67 4 10 133 36 0 0 0 0 0 1 90 38 0 0 72 33 0 0 0 0 0 14 133 133 5 8 15 5 2 23 22 43 7 39 133 42 2 4 0 0 0 9 117 14 0 0 91 2 0 0 0 0 0 20 133 11 0 0 11 35 26 114 12 1 0 1 133 133 25 21 0 0 0 0 70 27 0 0 67 2 0 0 0 0 0 8 119 16 0 0 21 28 9 21 2 0 0 0 83 75 4 2 0 0 0 1 32 6 0 0 
51.9263 283.646 2.03097 0.210597 62 36 3 0 0 0 2 18 96 64 34 26 42 0 0 13 6 6 12 65 142 13 3 0 0 0 0 3 20 11 20 11 64 1 0 0 0 0 18 85 142 30 2 23 42 5 4 46 19 8 2 132 142 14 1 2 0 0 0 32 68 2 7 5 80 38 5 1 1 1 9 27 142 35 0 2 12 80 39 47 8 1 0 27 142 142 41 7 0 0 2 43 77 11 0 0 20 95 49 2 3 7 1 0 31 40 1 5 38 110 11 2 0 3 14 7 21 85 16 0 0 3 39 15 13 6 0 0 
51.9263 283.646 2.03097 3.22198 20 5 0 0 0 0 28 22 14 67 27 0 0 0 16 6 26 130 21 1 12 24 1 7 5 23 5 0 10 80 47 3 86 9 0 1 0 0 1 29 145 145 56 5 7 2 0 14 10 88 61 29 145 62 0 1 1 2 4 13 77 79 15 1 90 4 7 8 0 0 0 14 145 18 2 1 24 14 3 61 34 6 4 31 145 61 3 10 0 0 10 76 66 3 0 0 38 20 20 13 0 0 0 1 145 20 1 0 14 17 23 38 21 0 0 11 102 66 28 9 0 0 3 23 65 33 0 0 
57.927 310.503 2.02745 3.99099 17 21 5 1 0 0 2 6 23 98 34 3 0 0 0 0 0 18 64 106 8 0 0 0 0 1 48 60 6 0 0 0 75 6 0 0 0 0 1 29 136 136 44 15 6 1 0 15 15 45 79 136 124 11 1 2 0 0 62 46 27 10 19 0 90 7 0 0 0 0 0 12 136 21 2 3 12 26 13 93 32 5 3 16 136 136 14 24 0 0 0 1 51 40 12 0 57 18 0 0 0 0 0 4 130 6 0 0 1 21 37 74 4 0 0 0 23 127 42 14 0 0 0 0 6 56 9 0 
343.367 111.726 2.59318 0.674493 62 5 0 0 0 9 6 27 6 39 30 0 6 45 7 7 0 30 89 32 15 4 0 0 1 7 13 20 22 6 17 4 66 7 0 0 0 0 0 32 125 125 71 4 5 4 2 24 13 63 123 56 125 54 2 4 0 1 6 18 116 34 8 2 75 94 6 0 0 0 0 13 125 111 21 5 17 36 22 51 18 4 3 5 125 125 29 17 1 2 4 2 70 49 9 2 125 39 3 0 0 0 1 38 36 34 13 20 56 13 17 52 0 5 10 44 125 60 4 2 2 9 31 25 14 10 1 0 
343.367 111.726 2.59318 4.14682 33 9 2 1 3 19 17 56 84 18 21 11 2 5 4 109 5 2 18 75 122 71 4 8 0 0 0 28 72 13 0 0 98 20 1 0 1 10 18 17 128 128 20 37 20 8 3 32 9 16 14 128 128 74 4 4 0 0 5 47 49 13 0 0 107 12 9 0 1 2 1 19 128 14 2 8 10 64 54 97 9 4 2 51 128 128 38 9 3 6 7 61 38 12 0 0 24 12 14 1 0 3 2 18 34 3 3 0 1 40 67 66 19 15 0 0 1 75 28 3 25 33 8 24 31 8 0 0 
82.104 222.308 2.41425 0.567896 38 39 3 0 0 0 0 13 46 65 10 5 8 5 1 7 7 3 2 9 109 52 3 1 0 0 0 0 73 38 0 0 54 4 3 1 1 4 4 43 143 43 20 38 17 0 0 39 12 9 12 129 143 17 0 0 0 0 0 11 96 33 0 0 62 8 1 3 3 10 11 16 143 28 1 7 30 11 1 25 32 3 1 45 143 58 0 3 0 0 0 17 139 13 0 0 50 35 1 3 2 0 1 3 143 39 1 1 20 46 16 32 8 0 0 0 138 143 9 6 0 0 0 0 66 46 0 0 
82.104 222.308 2.41425 3.50103 38 46 0 0 0 0 0 0 93 138 7 0 0 0 0 0 27 118 38 23 92 42 2 1 2 0 0 3 59 96 5 1 118 28 0 0 0 0 0 0 138 119 0 0 16 6 1 17 39 35 2 5 138 113 1 4 5 3 7 5 79 45 1 3 77 81 0 0 0 0 0 1 138 39 0 0 12 18 14 72 18 1 0 15 138 78 16 23 1 6 11 21 54 5 3 1 52 92 6 0 0 0 0 0 49 61 8 2 15 24 6 7 1 0 0 6 53 69 19 3 0 0 0 8 41 21 4 0 
146.133 243.235 2.62395 1.80075 61 3 0 0 0 0 1 84 54 15 7 22 40 23 21 97 1 3 5 60 127 36 2 0 0 0 0 31 31 13 3 0 65 4 1 1 0 0 0 27 135 87 18 50 25 6 6 48 21 23 15 135 135 29 8 5 3 0 1 31 45 6 9 8 33 16 24 16 11 0 0 14 135 13 12 7 12 31 104 135 11 2 0 36 135 135 125 26 2 1 6 29 48 17 4 1 1 6 84 32 7 12 11 1 3 3 37 21 33 41 20 14 0 0 0 0 10 72 39 1 0 0 1 1 1 12 34 0 
146.133 243.235 2.62395 4.65652 5 4 14 3 1 1 3 8 5 34 68 5 0 0 0 1 13 68 38 9 1 0 6 9 13 39 29 9 0 0 22 37 64 11 1 4 8 2 2 13 135 135 128 24 9 5 0 12 12 29 119 135 135 30 9 8 13 3 0 11 31 8 39 54 74 22 12 6 0 0 0 7 135 38 8 5 25 54 18 87 19 6 7 28 135 135 13 19 5 1 0 3 41 25 5 3 65 30 4 0 0 0 0 22 109 72 11 17 15 13 6 25 3 5 5 73 123 30 4 4 0 0 0 12 41 13 0 0 
107.985 303.834 2.45878 1.02528 67 6 0 0 0 0 0 15 137 30 11 59 18 0 0 14 6 6 5 137 118 0 0 0 0 0 0 20 21 0 0 0 90 26 0 0 0 0 0 1 137 75 6 31 28 5 4 20 24 15 5 137 137 22 4 4 0 0 3 51 57 1 0 0 67 27 0 0 0 0 1 9 137 9 0 2 8 37 108 124 8 1 0 15 124 137 106 19 0 0 1 15 34 42 15 0 11 5 0 0 0 7 11 8 3 0 0 0 0 46 69 15 0 0 0 0 0 63 51 0 1 0 0 0 0 10 12 3 
107.985 303.834 2.45878 4.01743 0 9 16 3 1 0 0 0 0 45 63 1 0 0 0 0 0 35 82 13 1 0 0 0 0 12 19 7 5 2 0 0 42 29 12 0 0 0 0 20 132 135 115 17 8 2 0 8 8 34 125 116 135 18 0 1 0 0 4 12 52 36 0 0 88 1 0 0 0 0 0 33 135 23 4 4 29 27 6 86 23 5 4 15 135 135 5 15 0 0 0 0 60 43 0 0 41 0 0 0 0 0 0 21 135 0 0 0 20 17 7 123 9 0 0 3 135 59 6 22 0 0 0 2 35 16 0 0 
13.7121 318.433 2.65286 0.237737 27 19 2 1 3 4 3 11 50 123 19 0 0 0 0 6 32 89 91 10 10 7 5 15 8 4 11 34 127 64 11 12 61 1 0 0 0 3 14 36 133 120 7 1 11 7 2 32 35 63 37 13 110 108 40 8 0 0 6 81 80 30 65 15 71 3 0 0 0 0 2 27 133 9 0 0 8 39 33 133 19 2 0 0 92 133 53 29 0 0 0 3 11 40 77 35 38 5 0 0 0 0 0 5 118 4 0 0 10 19 11 52 5 4 6 3 44 77 16 8 0 2 8 12 10 14 19 12 
170.452 242.254 3.51736 1.17017 86 4 0 0 0 0 0 13 127 43 69 31 12 4 0 21 4 4 70 111 79 3 0 0 0 0 3 53 28 0 0 0 78 22 0 0 0 0 0 14 137 45 8 22 27 5 1 45 32 9 7 132 137 57 2 5 0 0 8 55 44 29 10 0 64 58 0 0 0 0 0 0 137 38 0 2 14 52 23 47 16 1 0 11 137 137 20 13 0 0 0 2 25 68 36 6 51 81 7 3 1 0 0 2 49 71 18 14 68 58 9 9 0 0 0 1 89 95 7 1 0 0 0 0 32 7 2 1 
