245.802 57.4376 0.982297 1.89379 8 7 0 0 0 0 0 2 15 58 37 2 0 0 5 18 4 14 41 32 17 9 7 9 9 49 7 3 14 6 0 0 59 24 0 0 0 0 0 2 135 135 107 32 8 7 7 35 13 47 113 135 135 41 8 8 68 54 5 23 34 5 0 29 54 26 4 0 0 0 0 13 135 29 5 4 7 33 128 135 9 5 4 26 135 135 132 38 17 0 0 2 27 31 9 87 5 27 19 2 1 0 0 2 3 2 8 5 10 10 30 18 0 0 0 2 14 39 31 3 10 3 0 2 7 3 1 10 
245.802 57.4376 0.982297 5.52033 9 7 0 0 0 0 1 7 14 25 28 3 0 2 4 7 0 2 22 28 20 23 6 1 0 0 0 2 13 13 0 0 51 22 10 5 1 0 0 11 134 134 131 37 7 5 4 29 7 33 116 134 134 21 4 6 0 0 0 34 46 2 0 1 36 7 60 68 12 0 0 14 134 38 9 14 15 31 105 134 8 7 8 48 134 134 111 46 0 0 0 14 67 24 0 0 0 0 10 47 81 29 17 3 12 0 0 4 45 14 32 49 8 7 16 8 8 44 33 13 0 8 47 27 5 4 0 0 
340.529 62.4921 0.934888 1.52937 3 8 4 1 1 2 3 1 1 40 72 7 0 2 2 0 0 4 58 50 2 0 0 0 0 0 0 7 1 0 0 0 68 43 4 0 0 0 0 3 134 134 134 36 9 6 6 27 7 31 121 134 134 30 6 4 0 1 1 31 56 2 0 0 52 16 6 0 0 0 4 29 134 27 5 4 8 34 134 134 7 4 5 27 134 134 126 27 2 7 5 7 62 18 0 0 0 0 0 0 0 6 14 8 2 0 0 0 0 5 69 39 13 6 6 2 3 30 48 8 2 6 21 11 4 4 0 0 
340.529 62.4921 0.934888 4.59861 4 3 0 0 2 7 19 12 4 31 44 7 11 7 8 4 0 4 66 42 4 0 0 0 0 6 15 9 0 0 0 0 61 20 0 0 2 8 4 6 134 134 124 28 7 4 5 27 8 35 134 134 134 30 4 4 0 0 6 32 48 15 6 0 58 2 0 0 0 0 1 30 134 31 6 4 7 33 122 134 9 6 7 27 134 134 134 36 0 0 0 3 64 47 6 0 1 0 0 0 0 0 0 8 2 1 0 0 0 4 60 51 1 2 2 0 1 39 72 7 1 1 4 1 4 8 3 1 
114.787 63.7343 1.01133 5.50589 21 9 1 3 1 0 0 1 24 58 36 5 0 0 0 4 15 34 38 25 5 0 3 10 69 13 3 6 8 0 1 25 62 38 1 2 5 2 0 4 130 130 116 30 7 4 7 27 18 48 117 130 111 23 7 5 83 74 22 25 16 2 1 9 74 18 5 0 1 2 0 18 130 33 7 5 8 32 111 130 21 6 8 36 113 130 130 34 91 6 1 4 17 19 17 52 19 14 9 1 1 0 0 8 36 5 0 0 8 18 34 37 22 11 0 0 12 37 45 12 60 6 0 0 0 2 9 26 
156.109 76.2472 1.04065 0.935994 30 6 1 0 0 1 11 33 16 16 11 5 4 9 26 33 0 2 13 27 23 38 7 2 17 10 0 3 2 2 4 12 44 23 1 0 0 4 6 11 132 132 68 30 3 0 2 15 9 25 92 132 44 3 1 2 23 20 22 65 11 0 2 11 80 11 2 0 0 0 0 22 132 34 6 6 4 1 5 119 48 24 27 132 97 6 8 40 1 10 15 132 53 7 5 0 29 30 30 4 1 0 0 5 132 109 1 0 0 0 0 36 94 65 14 47 38 10 6 13 0 0 2 132 108 11 1 0 
156.109 76.2472 1.04065 3.29822 8 3 9 19 11 25 28 11 133 72 6 3 0 0 5 13 93 64 11 4 5 61 44 16 0 1 6 45 47 108 79 0 64 6 1 3 13 22 13 18 133 104 3 3 6 8 10 42 39 29 5 10 119 133 40 16 0 0 0 0 38 133 81 5 38 19 30 7 2 0 0 10 130 12 6 2 6 44 96 126 7 2 0 1 47 133 104 19 0 0 0 0 29 87 11 5 8 20 18 8 3 1 6 12 1 1 4 27 44 25 22 6 0 0 3 9 19 40 28 1 0 3 16 4 10 7 2 0 
211.135 78.6906 0.996999 1.16739 15 5 0 0 0 1 8 9 6 37 37 4 2 18 18 5 0 7 53 48 7 15 7 0 0 2 2 10 4 2 0 0 41 16 0 0 0 1 7 5 142 142 100 28 9 6 5 23 14 48 129 142 142 35 3 5 0 2 2 30 56 8 0 1 56 5 0 0 0 1 1 14 142 38 4 5 13 42 56 142 16 6 4 22 142 142 60 41 0 0 0 1 53 32 3 2 36 17 0 0 0 0 0 3 90 50 2 5 18 14 12 36 2 2 1 19 109 59 10 5 0 0 0 1 17 5 0 0 
211.135 78.6906 0.996999 4.583 51 6 0 0 0 0 0 18 77 32 14 20 29 8 2 42 0 2 9 57 109 15 0 0 0 1 0 3 8 0 0 0 78 16 1 0 0 0 0 8 141 141 68 62 17 6 4 38 10 25 56 141 141 21 4 6 1 1 4 21 39 1 0 0 58 4 3 2 0 1 1 22 141 22 4 8 13 38 122 141 9 6 5 34 141 141 109 34 0 5 10 7 45 14 0 0 1 0 0 0 2 4 3 7 9 5 0 0 0 6 57 50 7 23 8 1 3 37 46 7 3 10 11 11 16 5 1 1 
177.158 87.1061 1.04758 3.07809 2 7 5 2 0 0 0 0 18 68 27 0 0 0 0 0 56 100 38 1 0 0 0 0 19 19 11 19 18 3 0 1 48 36 5 1 0 0 0 7 132 132 132 11 2 2 5 26 11 97 132 97 76 36 7 6 3 11 17 18 57 44 7 2 60 4 0 0 0 0 1 43 132 40 8 3 3 11 73 132 20 12 13 40 116 132 101 55 13 1 3 24 54 36 10 16 19 10 0 2 0 0 0 6 132 32 0 0 0 0 7 55 48 24 1 11 29 42 14 17 0 1 1 22 36 27 4 1 
177.158 87.1061 1.04758 4.20814 15 2 1 0 0 0 15 92 58 21 19 19 3 0 4 36 7 15 26 64 27 5 10 4 2 6 14 9 6 28 21 4 70 4 0 0 0 0 4 58 134 134 49 21 5 5 7 57 16 44 87 134 89 42 11 9 2 13 51 59 23 5 2 3 52 4 0 0 0 0 1 35 134 21 3 2 3 23 134 134 10 6 4 16 57 134 134 73 4 1 3 27 15 21 53 95 4 2 0 0 0 0 5 8 1 0 0 0 0 6 59 35 1 0 0 0 0 13 93 35 2 0 0 0 0 4 54 86 
30.4426 95.8473 1.09931 0.995524 0 4 0 1 1 2 5 1 0 27 42 3 0 2 0 0 0 2 42 29 0 0 0 0 0 0 1 5 0 0 0 0 41 27 0 1 4 0 0 1 137 137 137 37 6 4 7 29 9 33 137 137 112 25 8 6 0 0 2 49 43 2 0 0 44 3 0 0 0 0 2 24 137 32 8 7 6 26 137 137 9 6 8 49 137 137 137 37 0 0 0 9 66 44 3 0 0 0 0 1 0 0 1 6 0 0 0 0 0 2 49 38 0 0 0 0 0 32 63 4 0 0 0 0 0 10 3 0 
30.4426 95.8473 1.09931 3.13392 2 7 1 0 1 0 1 0 2 54 55 9 0 0 0 0 0 5 49 58 0 0 0 0 0 0 0 7 0 0 0 0 58 23 0 0 0 0 0 3 139 139 117 40 8 7 9 35 9 36 116 139 139 43 9 6 0 0 0 33 55 4 0 0 44 1 0 0 0 0 0 26 139 26 5 5 7 41 139 139 9 5 5 30 130 139 139 32 0 0 0 3 48 31 1 0 1 1 2 1 0 0 0 4 0 0 1 2 0 4 43 28 0 3 2 0 0 26 42 2 0 3 3 3 1 3 0 0 
30.4426 95.8473 1.09931 5.70438 1 6 0 0 0 1 0 0 2 24 44 3 0 0 0 0 0 1 41 27 0 1 4 0 5 1 0 4 0 1 1 2 49 38 0 0 0 0 0 2 137 137 137 32 8 7 6 26 7 28 137 137 137 37 6 4 0 0 0 27 42 3 0 2 63 4 0 0 0 0 0 32 137 37 9 6 8 49 137 137 8 6 9 33 137 137 112 25 0 0 0 2 42 29 0 0 3 0 0 0 0 0 1 10 3 0 0 0 0 9 66 44 0 0 0 0 2 49 43 2 0 0 0 0 1 5 0 0 
83.5505 105.696 1.03382 3.16407 70 21 1 0 0 0 0 1 61 71 34 1 0 0 0 6 42 35 36 7 0 0 0 16 10 11 8 27 19 2 1 0 108 29 6 0 0 0 0 1 127 127 68 14 2 1 1 11 19 46 115 96 55 20 3 3 5 7 3 16 36 68 17 1 86 45 2 0 0 0 0 6 127 29 4 3 4 13 16 127 19 5 7 21 127 127 26 43 0 0 0 0 50 127 17 0 23 17 0 0 0 0 17 30 47 1 0 0 0 6 48 127 3 0 0 0 48 127 78 33 0 0 1 3 49 70 6 0 
71.8078 125.124 1.11185 1.09905 7 5 13 14 5 0 0 11 16 26 22 7 3 10 11 27 3 3 21 39 8 22 83 23 0 0 0 7 11 13 51 32 38 13 5 11 33 39 3 4 133 133 106 35 8 8 7 32 9 33 117 133 130 38 9 8 0 0 0 35 65 15 32 19 37 3 5 8 15 25 6 17 133 29 7 6 8 34 133 133 9 6 7 37 130 133 133 34 1 2 5 8 66 57 3 1 1 0 3 6 15 3 4 10 0 0 6 6 14 11 43 30 0 0 0 3 16 58 40 4 6 2 2 3 4 11 5 9 
71.8078 125.124 1.11185 3.38156 1 11 8 22 13 1 0 1 4 47 73 7 1 2 2 5 2 13 73 32 3 2 0 0 2 13 21 6 0 0 0 1 46 43 8 33 35 0 0 1 131 131 131 38 8 7 7 30 7 27 131 131 131 39 7 6 6 15 7 31 41 4 0 5 48 10 16 79 31 2 0 12 131 29 10 8 9 46 130 131 7 7 13 31 120 131 119 26 10 15 10 6 31 25 2 5 0 1 7 25 23 26 41 14 5 4 3 3 23 24 32 13 12 28 36 2 2 28 23 6 2 10 37 20 5 7 4 2 
71.8078 125.124 1.11185 5.37579 8 7 1 0 2 7 8 12 3 30 32 6 1 7 15 12 24 5 30 22 1 4 5 43 10 1 2 16 12 16 13 26 55 26 0 0 0 2 6 27 133 133 133 38 7 7 6 29 10 27 133 133 101 30 7 12 2 6 22 31 18 10 13 9 63 4 6 2 2 1 4 51 133 32 9 6 7 39 133 133 12 8 10 41 110 133 133 32 24 28 19 16 26 20 6 8 2 2 3 2 4 10 6 13 11 23 1 0 0 5 55 62 18 63 8 0 0 24 54 9 54 74 12 12 4 5 12 15 
92.4594 137.962 1.09111 2.1433 33 1 0 0 0 0 5 68 16 18 14 10 8 9 27 52 29 113 44 13 17 8 2 2 17 74 82 102 18 1 0 2 57 13 0 0 0 0 0 14 115 115 57 14 4 3 4 28 64 90 89 56 55 18 25 47 39 31 18 50 58 30 75 79 65 15 0 0 0 0 0 5 115 36 6 3 5 12 35 115 12 7 7 15 99 107 65 45 54 6 3 1 18 19 33 115 39 55 0 0 0 0 0 1 86 115 28 12 6 3 6 12 2 14 26 47 97 23 9 4 20 0 0 6 28 12 6 60 
92.3204 143.235 0.995141 4.62373 13 18 8 1 2 42 51 15 59 14 3 3 8 28 42 114 6 5 4 19 118 78 19 18 3 42 18 10 40 3 0 0 38 3 0 2 24 49 37 11 118 114 22 21 7 11 17 47 18 47 34 118 114 35 10 8 18 110 72 42 24 5 1 3 41 0 0 0 18 36 13 18 118 13 1 3 3 26 118 118 22 11 3 19 45 118 118 61 43 32 10 9 21 67 91 92 2 0 7 6 4 9 10 5 15 8 5 2 0 4 64 30 24 27 11 7 1 12 46 18 1 1 4 19 27 37 48 20 
372.406 148.426 0.972457 2.99616 25 3 0 0 0 0 0 16 89 45 1 0 0 0 0 93 121 35 8 11 1 0 0 78 30 6 8 121 90 3 2 11 63 12 0 0 0 0 0 1 121 121 12 0 0 1 1 13 105 102 21 1 1 18 31 49 19 0 0 18 74 59 69 43 62 0 0 0 0 0 0 13 121 13 0 0 0 5 21 121 17 5 2 0 0 100 118 44 0 0 0 0 2 108 121 8 18 1 0 0 0 0 0 8 64 2 0 0 0 2 14 89 3 0 0 0 1 88 48 28 0 0 0 0 1 84 30 2 
72.1331 151.34 1.04258 0.0182081 1 4 1 0 0 0 0 3 1 33 41 0 0 0 11 16 0 9 68 12 0 4 18 7 13 4 14 6 0 1 2 26 38 24 4 0 0 0 0 2 137 137 137 23 3 4 6 34 9 44 137 137 87 30 8 8 3 9 24 54 38 8 1 2 48 3 0 0 0 0 1 20 137 37 8 5 4 18 131 137 9 8 10 41 100 137 137 50 4 3 2 7 45 64 9 4 8 2 0 0 0 0 0 4 9 7 1 0 0 1 43 35 3 54 8 0 0 18 70 7 1 50 61 6 0 6 4 0 
72.1331 151.34 1.04258 1.63395 15 5 0 0 1 27 12 6 22 52 40 9 1 2 3 8 3 6 44 64 9 4 3 5 58 5 0 6 4 0 2 65 69 11 0 4 16 6 0 10 137 137 89 31 8 8 9 45 10 39 98 137 137 50 9 9 5 0 0 19 69 7 4 53 41 0 0 0 14 15 1 33 137 21 3 4 6 35 137 137 8 5 4 18 129 137 137 36 1 0 0 1 41 36 9 5 1 0 0 0 0 4 1 4 4 0 0 0 0 2 38 25 0 0 0 0 2 20 46 2 0 0 0 0 0 4 8 1 
72.1331 151.34 1.04258 5.17409 2 4 2 0 0 0 0 0 1 25 35 4 1 0 0 0 1 4 40 26 1 0 0 0 24 14 4 4 0 0 0 2 30 44 6 0 0 0 0 2 130 136 136 32 7 3 3 22 8 38 136 136 133 15 4 4 23 1 2 45 31 0 1 12 49 9 11 11 0 0 0 28 136 44 10 7 9 25 92 136 10 8 9 57 136 136 110 44 4 5 2 29 74 13 0 2 3 2 69 73 1 0 0 4 8 1 11 33 2 2 39 62 3 4 1 2 6 35 63 17 5 12 14 11 9 5 1 1 
380.727 168.249 0.902323 2.54875 29 24 0 0 0 0 0 0 41 102 17 6 0 0 0 0 2 20 21 52 75 0 0 0 0 0 1 9 48 0 0 0 100 33 0 0 0 0 0 3 132 132 44 30 10 1 0 10 8 26 40 132 132 4 0 2 0 0 3 22 76 0 0 0 113 2 0 0 0 0 0 32 132 18 2 4 14 20 29 132 12 3 2 25 132 120 31 27 1 1 1 4 91 18 0 1 25 3 0 0 0 0 0 28 27 0 0 0 0 11 80 124 0 0 0 0 32 125 84 15 8 10 1 0 14 25 2 2 
380.727 168.249 0.902323 5.55231 9 17 1 2 6 8 3 0 29 130 69 9 1 0 0 0 0 19 90 113 25 0 0 0 0 0 1 31 28 5 1 0 75 22 0 0 0 1 1 2 131 131 26 18 10 3 2 16 16 30 33 124 131 22 2 3 0 0 0 22 130 4 0 0 92 4 0 0 0 0 2 13 131 10 0 1 7 33 45 124 10 2 0 5 131 131 44 23 0 0 0 0 93 39 0 0 63 5 0 0 0 0 0 8 57 2 0 0 2 35 29 36 0 0 0 0 28 118 16 2 0 0 0 0 20 25 0 0 
258.967 168.648 0.993414 4.7242 19 27 14 8 1 0 0 2 62 87 70 26 3 0 0 2 2 12 41 93 63 8 0 0 0 0 5 8 28 11 0 0 59 6 4 7 16 17 1 6 141 141 33 49 17 8 4 32 19 33 31 141 141 35 3 6 0 4 39 41 36 3 0 0 36 0 0 0 21 21 11 31 141 16 1 4 10 47 116 141 18 5 1 21 132 141 120 43 20 18 12 7 21 17 2 8 1 1 1 0 19 7 2 7 1 0 2 2 1 6 57 43 22 2 0 0 0 27 61 22 44 12 0 0 0 1 1 25 
122.746 170.595 0.99039 1.83889 26 7 0 0 0 0 0 3 56 53 21 5 0 1 3 18 4 7 18 31 7 14 20 11 1 3 1 10 9 9 17 5 78 32 0 0 0 0 0 0 138 138 78 36 5 0 1 10 8 29 74 138 111 4 4 3 2 48 15 32 22 2 8 1 128 5 0 0 0 0 0 7 138 25 4 7 9 20 21 113 17 5 5 55 138 138 31 33 14 23 5 13 37 31 16 43 83 5 0 0 0 0 0 6 131 2 0 0 1 50 36 54 2 0 0 0 36 138 25 10 0 0 0 0 6 29 24 58 
122.746 170.595 0.99039 4.51739 1 5 15 35 30 11 12 1 4 103 73 35 23 1 0 0 0 107 128 20 20 6 0 0 0 5 38 27 61 32 0 0 40 6 2 2 3 21 49 10 128 128 45 13 11 8 8 27 12 56 56 48 128 97 5 4 0 0 0 2 107 114 0 0 44 5 15 19 3 2 6 13 128 12 2 2 6 42 92 128 8 2 0 2 112 128 82 23 0 0 0 0 45 72 0 0 4 14 29 14 7 0 0 2 3 1 7 8 36 37 36 17 0 0 0 0 16 87 29 1 0 0 0 0 2 10 0 0 
261.724 180.341 0.881025 0.288133 8 23 16 4 0 0 0 0 10 77 100 19 0 0 0 0 0 4 61 125 0 0 0 0 0 5 9 30 0 0 0 0 80 24 3 8 4 0 0 3 131 131 79 31 5 5 5 27 7 26 81 131 126 41 5 5 0 1 11 69 51 19 0 0 49 2 0 6 6 6 7 31 131 16 2 3 4 35 125 131 6 3 3 18 97 131 125 24 0 3 1 3 34 83 9 0 0 0 0 0 0 2 15 20 1 0 1 0 1 19 60 33 0 13 9 1 1 59 49 1 1 55 38 0 0 9 2 0 
261.724 180.341 0.881025 4.26942 8 8 2 4 9 10 2 2 9 47 51 4 0 0 0 1 6 11 46 35 0 0 4 5 3 1 0 7 5 7 20 9 75 33 0 0 17 8 1 2 129 129 112 31 3 2 3 20 6 25 119 129 74 13 4 4 0 0 1 79 42 5 3 1 91 9 0 0 9 3 0 21 129 27 5 5 4 16 115 129 7 4 6 50 107 129 129 31 0 0 0 21 92 79 9 0 19 4 0 2 2 1 2 10 8 0 0 0 1 17 88 39 0 0 0 0 0 43 129 3 0 0 0 0 6 43 20 0 
264.695 189.03 1.10928 0.995653 8 5 8 27 55 12 0 3 49 59 14 1 1 1 0 19 26 32 26 7 3 2 1 16 3 1 1 2 24 46 7 3 48 32 0 11 115 54 1 1 127 127 85 22 3 3 4 30 10 45 127 127 84 27 6 8 1 1 3 17 110 39 0 0 53 38 3 2 14 21 5 15 127 38 6 5 3 15 114 127 9 5 8 35 86 127 127 44 19 6 0 3 60 102 7 2 12 3 0 0 0 2 14 37 13 20 8 2 0 4 73 32 0 6 16 29 10 51 60 3 20 4 1 5 4 19 8 8 
223.466 191.526 1.04871 0.557184 4 8 5 0 0 0 0 2 1 36 49 3 0 0 0 0 0 9 45 35 6 0 0 0 0 0 0 8 9 2 0 0 52 21 0 0 0 0 1 5 134 134 114 28 6 5 2 18 8 34 117 134 134 28 2 4 0 0 0 31 62 5 0 0 90 7 0 0 0 0 0 8 134 40 7 8 15 35 32 116 15 7 7 40 134 134 31 24 0 0 0 4 80 19 0 0 45 23 9 0 0 0 0 5 128 18 1 4 12 12 28 70 5 2 0 21 134 67 25 10 0 0 0 3 49 7 0 0 
223.466 191.526 1.04871 3.92226 80 19 0 0 0 0 0 18 90 55 44 37 24 2 1 40 1 2 14 83 134 7 1 1 0 0 0 5 24 13 1 0 99 6 0 0 0 0 0 26 134 119 33 39 22 7 7 67 10 23 30 134 134 28 6 7 0 0 0 25 60 1 0 0 62 1 0 0 0 0 0 33 134 21 3 5 8 33 117 134 6 4 3 26 134 134 112 30 0 0 1 10 46 24 0 0 6 2 0 0 0 0 0 9 7 0 0 0 0 7 39 46 0 0 0 0 0 44 45 4 0 0 0 0 2 10 8 0 
220.963 195.256 0.945148 0.353726 34 11 0 0 0 0 0 1 126 97 8 0 0 1 8 35 77 52 49 69 104 125 44 37 0 0 1 40 126 76 0 0 53 42 15 0 0 0 0 1 126 92 1 3 8 6 12 45 29 11 1 9 126 126 45 28 0 0 0 0 103 83 0 0 24 15 16 1 0 7 15 19 76 10 0 0 3 14 76 126 3 1 0 2 103 126 77 22 0 0 0 0 62 38 0 0 0 0 0 0 0 4 29 11 0 0 0 0 0 3 55 31 0 0 0 0 3 46 48 4 0 0 0 1 5 15 0 0 
220.963 195.256 0.945148 3.77491 7 13 1 0 0 0 3 1 3 37 51 3 0 0 0 0 0 12 60 18 0 0 0 0 0 13 26 11 4 3 1 0 67 31 0 0 0 0 0 2 98 129 86 20 3 0 0 11 4 14 81 129 82 5 1 1 0 3 3 13 41 31 15 0 94 8 0 0 0 0 0 15 129 94 20 13 9 3 1 55 16 21 25 102 129 20 1 8 0 0 0 12 112 9 1 0 89 13 0 0 0 0 0 9 129 127 18 13 7 9 22 81 15 29 25 108 129 77 28 16 0 0 0 18 108 11 0 0 
205.393 198.031 1.11463 1.45746 5 10 0 0 0 2 0 1 4 65 54 7 0 0 1 1 0 9 69 65 2 0 0 0 0 6 26 9 0 0 0 0 66 17 0 0 0 0 0 3 138 138 108 31 12 8 7 32 13 45 122 138 138 43 7 6 9 19 24 20 35 6 2 12 46 1 1 1 0 0 0 22 138 23 4 4 10 40 130 138 12 10 5 17 138 138 123 38 8 23 8 2 32 21 4 18 1 1 8 5 2 0 0 3 18 7 6 0 0 2 31 42 14 14 6 3 4 25 33 11 10 20 6 2 10 19 21 10 
205.393 198.031 1.11463 4.79583 8 20 21 9 10 8 2 1 3 20 37 14 21 9 4 1 0 2 34 43 9 3 5 1 0 0 0 3 1 3 5 3 38 17 4 9 12 34 6 3 138 138 134 40 13 7 4 22 11 36 129 138 138 18 3 5 0 0 0 28 42 1 1 0 36 6 9 22 10 17 8 13 138 34 8 7 13 40 110 138 13 6 7 42 138 138 107 41 0 0 0 10 64 23 0 0 0 0 0 0 2 26 29 4 2 0 0 0 0 9 77 53 0 1 1 0 4 64 59 10 0 1 4 3 5 12 0 0 
155.033 199.551 0.916819 2.52663 74 10 0 0 0 0 0 21 96 89 30 1 0 0 0 6 10 30 43 53 8 3 5 3 0 0 0 45 61 29 8 1 130 10 0 0 0 0 0 25 130 130 28 9 3 4 2 27 16 41 52 112 72 49 6 6 1 0 3 119 45 10 3 5 101 1 0 0 0 0 0 67 130 17 1 1 2 30 60 130 10 4 2 8 42 130 101 49 4 0 0 12 27 50 55 63 28 0 0 0 0 0 0 41 64 1 0 0 0 6 21 130 17 6 13 29 8 40 31 27 0 0 4 30 13 24 37 18 
150.144 201.499 0.972038 5.81314 35 0 0 0 0 0 0 23 68 19 4 0 0 0 1 64 22 18 26 9 2 2 25 70 4 12 21 74 39 6 10 11 59 5 0 0 0 0 0 15 122 122 35 6 0 0 0 13 28 106 116 74 0 0 6 15 37 122 95 75 16 2 3 6 60 3 0 0 0 0 0 14 122 22 3 2 0 0 2 122 62 43 23 32 2 1 16 122 83 80 16 18 38 41 46 86 14 1 0 0 0 0 0 15 89 0 0 0 0 0 0 122 79 16 3 0 0 0 9 122 6 5 4 2 10 26 43 70 
219.546 212.851 0.973075 3.7298 30 3 3 2 2 2 44 34 33 36 43 10 3 0 11 22 6 31 39 41 70 4 1 0 1 85 69 17 29 5 11 2 53 1 0 1 0 0 79 59 124 101 15 13 5 5 13 49 36 65 34 112 95 39 10 14 79 124 60 26 19 28 46 63 92 3 0 15 6 0 3 22 124 12 0 1 2 35 59 124 15 3 1 8 31 124 108 48 13 1 0 0 7 53 101 115 37 4 2 25 17 0 0 7 50 2 0 0 0 14 39 56 0 0 0 0 0 42 63 12 0 0 0 0 2 34 58 22 
49.2094 214.275 0.979158 0.130086 3 5 0 0 0 1 23 15 9 48 37 1 0 2 26 12 10 23 74 13 0 2 5 11 26 43 13 5 4 1 2 19 54 32 0 0 1 1 3 5 130 130 116 19 4 2 3 26 11 64 130 130 71 11 4 6 6 59 28 31 38 8 0 0 66 92 37 0 0 0 1 10 130 71 38 7 4 10 46 130 18 11 12 49 108 84 77 59 0 2 3 25 89 30 0 0 82 96 42 4 1 1 4 43 23 29 54 28 21 17 13 31 34 13 6 10 11 8 14 33 0 0 2 17 115 21 1 0 
342.837 216.724 1.03303 5.46441 20 8 1 0 0 0 0 4 129 49 0 0 0 0 0 15 129 19 0 0 19 37 10 53 4 0 0 0 129 113 6 8 61 16 0 0 0 0 0 3 129 129 8 0 0 1 3 23 68 82 19 9 66 71 14 15 0 0 0 0 129 100 1 0 63 9 0 0 0 0 0 10 129 14 1 0 0 4 36 129 17 6 3 6 34 123 97 54 0 0 0 7 78 78 3 0 26 7 0 0 0 0 0 6 78 22 0 0 0 0 3 52 56 26 9 18 5 5 9 23 1 4 9 81 31 5 0 0 
166.315 219.868 1.07243 0.28217 15 0 0 0 0 3 13 47 4 20 16 2 18 25 66 40 1 6 24 57 83 17 6 2 23 6 2 18 11 0 3 30 48 10 0 0 0 4 12 32 134 134 107 17 8 8 11 25 9 50 133 134 134 34 3 4 1 0 13 90 47 2 1 7 63 4 0 0 0 2 13 44 134 36 7 3 7 48 71 134 12 8 8 25 134 134 70 31 4 1 17 32 33 29 12 20 27 30 3 0 0 0 2 13 39 14 0 0 0 16 43 59 4 3 5 25 17 70 32 9 15 1 2 18 6 6 6 33 
166.315 219.868 1.07243 3.93572 7 6 9 10 6 4 20 21 10 46 50 43 14 3 1 1 0 3 35 92 25 7 0 0 0 3 26 27 6 0 0 0 68 30 20 8 0 1 12 16 134 134 85 68 11 7 5 26 10 23 67 134 134 31 4 4 2 7 22 47 25 2 0 0 31 8 14 4 0 6 53 33 134 20 3 7 10 47 126 134 12 12 14 36 134 134 86 30 5 25 42 23 21 12 0 0 2 7 16 5 0 1 34 10 1 0 7 12 0 5 67 80 54 15 9 0 3 17 34 74 41 35 54 32 3 0 0 11 
229.62 220.122 0.954175 0.271022 48 1 0 1 0 0 11 56 16 17 17 36 24 6 15 27 0 4 25 113 30 0 0 0 6 16 4 19 9 0 0 1 51 7 3 14 13 0 10 36 125 125 60 23 5 3 9 46 10 38 79 125 125 15 5 6 4 1 1 38 75 2 1 8 59 20 1 7 29 17 0 9 125 52 12 5 5 13 57 125 10 6 6 39 125 115 82 45 0 0 7 55 78 7 0 0 15 125 32 3 9 4 0 1 12 125 92 30 6 5 7 14 0 2 19 76 51 19 13 5 0 0 1 23 55 5 0 0 
229.62 220.122 0.954175 3.22777 48 5 0 0 0 1 1 16 74 28 13 4 0 0 2 39 25 11 11 12 6 49 96 62 1 2 3 3 10 125 105 1 89 9 0 2 1 1 3 34 125 125 69 43 10 6 5 26 5 18 50 125 125 59 26 7 12 17 1 5 52 57 15 1 92 4 1 5 6 3 0 27 125 19 3 6 11 45 83 125 5 3 4 39 125 125 57 18 29 8 2 16 47 17 1 16 23 0 0 0 1 10 5 26 55 1 0 0 0 6 19 86 16 5 12 55 31 22 11 11 1 0 2 42 40 2 1 5 
224.75 225.775 0.949939 1.14839 19 0 1 3 1 7 68 117 77 51 18 2 10 36 62 28 9 30 92 52 18 6 0 0 0 0 29 84 11 5 1 0 48 6 6 39 21 0 2 21 120 57 4 1 4 6 5 30 46 24 13 17 114 94 11 5 8 2 4 16 27 40 21 6 23 7 44 120 37 1 0 5 120 12 3 12 12 14 50 120 16 28 24 1 34 116 64 30 12 15 27 16 18 30 4 2 1 1 6 33 98 41 7 3 57 17 0 11 40 5 9 38 113 120 66 12 2 4 12 36 3 25 69 109 92 21 4 4 
197.357 229.769 1.05602 0.338978 1 2 3 9 19 21 13 1 6 51 40 6 2 2 0 0 45 39 50 17 0 0 0 5 21 7 6 13 29 1 0 8 45 13 0 0 0 7 30 19 136 136 102 30 6 6 5 30 19 51 131 136 114 25 4 9 11 1 2 22 49 6 1 9 56 1 0 0 0 0 3 35 136 31 6 5 7 27 115 136 18 7 7 35 129 136 136 58 16 6 2 13 43 18 4 6 4 3 4 4 0 0 0 6 8 3 0 0 0 2 53 64 37 12 0 0 0 19 81 35 49 4 0 9 4 1 2 24 
220.948 230.614 1.03643 0.32443 1 2 0 0 5 81 46 5 53 48 20 1 12 43 5 15 54 43 22 7 0 18 71 63 2 7 4 3 6 53 71 11 61 18 0 0 2 47 20 10 125 125 105 22 5 5 6 26 9 31 115 125 83 36 20 11 2 12 9 11 15 16 45 9 80 2 0 0 0 8 4 43 125 27 6 4 5 28 113 125 7 4 7 25 101 125 125 31 0 0 0 1 18 57 86 6 9 3 1 3 0 0 1 16 4 1 0 0 1 10 70 55 0 0 0 0 0 60 78 6 0 0 0 0 2 16 18 1 
220.948 230.614 1.03643 1.73526 14 4 4 38 94 21 4 18 13 15 12 13 43 15 3 9 0 2 12 43 85 28 0 1 0 0 1 11 32 6 0 0 29 6 0 4 35 61 77 64 114 126 75 32 20 17 11 33 7 28 87 126 126 30 6 4 0 0 0 51 84 7 0 0 26 1 5 53 22 4 27 42 110 24 4 5 6 23 126 126 6 5 5 30 117 126 126 30 0 0 1 11 76 52 2 0 0 0 0 60 57 5 2 2 0 0 0 33 23 8 66 24 0 0 0 1 3 43 84 6 1 3 0 0 1 14 8 6 
220.948 230.614 1.03643 4.18433 10 16 1 0 0 4 1 2 3 52 71 10 2 0 0 0 1 4 62 68 2 0 0 0 40 22 2 10 0 0 0 1 70 65 2 0 0 0 0 2 124 124 124 36 5 5 6 27 5 21 112 124 118 27 5 4 45 27 8 47 30 2 0 1 67 78 9 0 0 0 0 10 124 40 8 5 6 33 94 124 4 8 19 48 124 124 86 19 58 19 5 27 46 15 0 8 1 68 22 1 3 2 1 0 17 46 10 3 10 14 18 7 19 82 60 41 34 17 13 0 21 2 13 54 76 13 4 24 
166.9 239.353 0.952906 0.219751 9 5 23 31 26 31 2 3 20 16 15 9 5 10 7 20 0 0 8 21 47 47 4 1 1 0 0 0 17 38 41 12 60 14 0 0 14 93 10 8 122 122 83 44 6 4 3 15 4 12 65 122 122 15 1 2 8 6 5 31 81 14 2 4 109 22 0 0 3 28 5 18 122 41 6 7 10 31 31 85 6 4 7 54 122 122 30 16 27 97 42 30 83 9 0 1 96 71 0 0 0 1 0 11 80 72 21 42 17 13 5 10 0 6 91 61 43 49 4 0 66 59 56 24 18 7 13 20 
166.9 239.353 0.952906 2.8704 16 5 0 1 11 81 124 53 31 70 15 0 8 57 41 45 54 48 27 1 0 4 27 88 20 1 0 0 62 89 20 28 72 44 3 0 9 7 23 8 124 124 49 7 4 4 5 30 15 58 78 44 106 83 10 8 3 1 1 1 47 124 40 2 42 73 24 4 0 0 0 5 124 35 5 2 4 22 50 124 8 4 6 7 104 124 63 35 0 23 33 4 52 62 1 0 9 47 15 13 5 0 0 0 7 16 12 10 19 10 13 15 11 30 28 5 16 39 15 8 3 62 80 5 6 5 0 1 
181.482 240.388 0.953998 1.45055 7 11 11 27 10 2 19 28 13 53 27 6 5 15 45 31 2 13 40 36 8 5 5 3 31 55 2 6 3 2 11 4 43 23 4 15 17 17 25 25 129 129 86 28 8 6 7 30 11 41 114 129 100 48 9 7 42 39 6 24 22 16 29 30 49 13 11 47 14 1 10 24 129 22 3 3 4 32 127 129 8 5 6 21 84 129 129 31 1 2 6 2 16 54 72 28 1 7 5 43 129 19 7 5 3 18 19 1 0 7 44 26 0 37 68 6 3 36 29 2 0 19 71 30 6 4 3 1 
181.482 240.388 0.953998 5.59708 2 8 3 12 43 18 0 0 5 45 33 10 11 3 14 19 4 17 36 44 7 24 34 6 9 34 45 19 5 14 8 6 49 18 0 4 63 40 4 6 129 129 129 36 5 5 4 25 9 29 129 129 101 21 6 7 8 19 9 39 40 12 39 16 69 23 2 0 28 29 3 16 129 47 12 7 5 30 89 129 7 6 10 54 129 129 112 31 23 49 15 22 54 20 3 10 26 92 12 0 0 2 1 1 19 50 32 43 20 8 24 22 2 4 1 27 23 36 46 7 10 11 17 6 2 6 10 21 
390.646 243.495 0.958847 5.61991 23 3 0 0 0 2 3 17 130 49 4 0 0 0 2 34 73 46 46 31 16 59 43 34 0 0 25 45 32 61 33 0 52 17 0 1 1 1 1 4 130 130 16 14 7 4 5 40 31 35 19 56 130 100 45 19 65 29 5 1 30 65 60 23 31 4 0 0 0 0 0 23 130 15 1 2 5 16 83 130 10 3 2 11 126 130 119 50 122 11 0 0 31 37 6 84 2 14 5 0 0 0 0 2 1 3 9 8 1 1 29 32 3 1 4 4 1 26 54 13 19 4 0 0 0 6 6 32 
172.861 244.163 0.918825 0.920421 8 5 7 2 4 6 4 12 4 33 52 13 0 0 2 3 0 6 87 46 2 1 6 0 0 0 22 27 8 1 6 5 36 34 17 54 3 0 4 10 123 123 96 18 5 3 5 22 7 37 123 123 123 29 4 4 0 0 6 33 99 14 0 0 33 17 21 116 58 3 0 5 123 56 19 12 10 32 47 123 9 6 7 26 123 123 51 27 0 0 12 12 67 37 0 0 3 49 40 31 48 6 0 0 11 101 59 42 33 10 5 8 0 3 17 70 94 33 5 1 0 5 46 20 7 2 0 0 
172.861 244.163 0.918825 4.46246 26 0 0 0 1 22 18 58 45 8 6 6 20 50 42 96 8 1 4 23 43 90 25 35 49 7 5 1 0 4 51 120 63 11 0 0 0 14 26 26 121 121 57 45 10 10 12 49 6 17 48 121 121 37 13 11 0 0 2 11 45 13 87 58 84 2 0 0 0 1 6 40 121 20 4 6 6 35 111 121 5 3 4 29 121 121 95 19 0 1 18 13 50 18 5 2 21 0 1 1 0 0 7 28 8 1 0 0 0 15 98 38 0 2 3 0 2 44 70 4 0 0 3 3 2 13 21 1 
201.011 243.901 0.973184 0.347248 47 5 0 0 0 0 3 65 45 4 4 18 39 20 4 63 1 2 5 38 65 45 38 11 0 1 1 3 7 86 72 5 41 1 0 0 0 0 17 69 122 81 36 38 13 8 8 66 11 21 41 122 122 39 11 4 0 0 1 94 61 26 11 0 59 3 1 2 0 0 13 41 122 16 2 3 5 27 122 122 19 9 6 29 91 122 122 38 9 9 30 100 40 10 1 2 2 0 0 1 1 11 48 11 0 0 0 0 0 17 103 27 52 3 0 0 0 10 68 87 32 8 10 19 24 38 32 40 
201.011 243.901 0.973184 4.95788 51 17 1 0 0 0 0 6 17 37 60 4 1 1 0 1 11 61 49 3 0 0 0 0 3 50 44 8 0 0 0 0 95 39 3 0 0 0 0 12 121 121 121 21 2 3 4 25 7 57 121 101 30 34 11 7 3 65 71 5 2 10 23 17 56 85 76 8 3 0 0 7 121 38 17 10 7 31 97 121 12 5 12 25 34 121 121 41 26 13 3 3 4 32 69 54 22 21 25 10 12 32 39 38 0 0 4 6 18 106 54 10 27 0 0 0 0 67 73 34 84 12 1 3 4 1 4 55 
48.3606 247.352 1.07072 0.463228 25 20 6 3 1 1 9 36 6 9 30 73 48 4 5 10 0 0 25 78 21 0 0 0 0 0 5 11 0 0 1 2 79 13 0 0 0 0 5 33 120 106 93 48 11 4 3 17 6 15 91 120 98 20 1 2 0 1 8 61 38 5 0 0 78 60 14 0 0 0 0 12 120 51 26 8 11 31 25 73 9 4 19 76 120 115 20 14 0 0 13 91 59 10 0 0 84 117 32 0 0 0 0 18 26 78 120 36 1 3 3 15 0 0 53 120 29 7 2 1 0 0 8 71 88 15 0 0 
48.3606 247.352 1.07072 2.75991 11 13 5 4 2 1 2 2 108 63 15 0 0 0 0 12 126 55 12 0 0 0 0 30 92 28 7 13 21 2 2 32 83 22 1 0 0 0 1 10 126 126 85 5 2 5 4 21 47 61 104 41 45 66 17 35 31 0 0 2 16 39 94 126 86 20 1 0 0 0 0 16 126 39 6 2 2 35 68 126 7 6 6 8 39 126 83 23 0 0 0 0 8 70 112 42 66 37 0 0 0 0 0 5 40 35 6 10 26 20 20 22 0 0 0 5 39 73 22 2 0 0 0 0 7 42 15 0 
48.3606 247.352 1.07072 3.75466 93 5 0 0 0 0 18 77 13 5 3 2 1 7 101 103 0 2 3 18 47 116 94 8 0 0 0 13 73 99 8 0 50 3 0 0 0 0 39 103 116 85 20 19 11 4 31 70 10 24 22 108 116 44 15 6 0 0 0 26 78 27 1 0 44 2 0 0 0 1 10 54 100 14 1 2 6 13 110 116 11 4 3 23 116 95 111 49 0 0 15 44 65 7 0 0 0 0 1 1 0 2 8 10 6 0 0 0 0 0 39 62 34 2 3 3 1 5 38 94 5 1 10 22 21 21 16 15 
218.489 248.826 1.10343 1.99713 3 8 14 9 7 8 5 1 1 26 49 9 10 2 0 0 0 2 44 30 0 0 0 0 0 3 7 4 0 0 0 0 38 22 10 9 2 11 13 4 129 129 128 39 10 9 6 28 11 36 129 129 129 35 5 5 9 73 64 29 16 1 0 0 29 7 19 28 29 18 2 20 129 29 5 6 11 50 111 129 21 13 10 29 114 129 106 46 68 49 18 7 13 13 13 79 1 0 0 2 24 28 8 5 14 9 0 0 1 10 38 30 35 82 53 15 4 26 32 14 12 9 35 37 17 9 14 50 
218.489 248.826 1.10343 5.80603 4 12 32 65 61 17 5 3 5 29 36 13 10 0 0 1 34 6 32 20 2 3 12 26 6 1 1 10 17 27 30 10 27 20 25 21 43 68 31 8 124 124 124 45 13 7 6 30 11 26 117 124 124 26 10 8 9 16 3 26 33 8 11 2 18 12 67 74 47 18 4 8 124 25 9 18 29 36 124 124 9 4 5 42 124 124 124 40 8 3 0 6 35 33 7 10 2 1 2 6 40 86 45 10 0 0 0 0 23 41 42 14 0 0 0 0 0 29 42 3 1 0 0 0 0 5 2 6 
158.535 276.13 1.03437 0.946474 40 7 2 2 2 7 9 48 71 22 26 69 9 0 0 28 1 3 11 137 113 2 0 0 0 0 3 33 35 3 0 0 67 9 24 24 2 1 5 41 137 54 13 39 29 5 2 33 15 11 8 137 137 23 1 3 0 16 27 30 67 3 0 0 37 33 80 94 27 8 1 3 137 43 9 13 28 39 17 45 11 1 6 45 137 132 13 11 0 11 43 22 33 7 0 0 19 4 2 13 30 60 70 32 81 9 0 11 27 17 14 73 1 0 1 36 120 53 4 4 3 1 4 5 17 39 10 6 
158.535 276.13 1.03437 3.97363 7 27 13 6 6 2 7 6 112 65 4 0 0 0 2 23 44 26 14 53 78 9 0 10 16 41 67 46 37 3 0 2 36 6 0 0 0 9 49 24 138 138 16 8 10 1 7 32 33 48 22 33 138 60 8 10 39 20 7 4 33 36 52 96 90 10 0 0 0 8 20 22 138 31 2 2 18 18 9 101 27 6 2 20 138 92 13 27 4 1 2 23 57 17 34 49 47 6 0 0 0 0 1 45 116 4 0 0 3 6 9 138 6 0 0 30 97 29 15 43 4 13 11 44 32 4 0 2 
90.058 293.409 0.894231 6.24427 3 0 0 0 0 0 102 117 9 14 4 0 0 30 117 50 2 5 7 4 2 16 117 66 0 0 0 0 5 98 109 9 41 7 0 0 0 0 18 25 117 117 35 11 3 2 19 32 10 37 50 87 114 28 22 9 0 0 0 8 54 52 46 0 40 1 0 0 0 0 0 19 117 18 2 2 3 13 67 117 13 17 15 20 99 113 83 36 0 5 33 57 54 11 0 0 1 0 0 0 0 0 1 6 22 0 0 0 0 0 29 56 113 58 23 3 0 8 29 42 13 25 58 88 34 14 8 8 
93.5062 298.035 1.04031 2.31782 40 8 0 0 1 0 0 14 33 25 15 13 20 1 0 9 0 1 10 41 67 5 0 0 0 0 0 3 13 1 0 0 56 10 1 1 2 0 0 14 123 123 71 39 7 5 5 35 6 22 71 123 123 35 5 5 0 0 0 26 44 5 0 0 44 32 13 13 0 0 0 6 123 65 38 19 9 33 68 123 6 4 11 47 123 123 68 24 0 0 0 2 35 28 0 0 25 77 61 70 3 0 1 6 48 123 100 69 45 35 29 24 0 1 19 98 123 65 8 0 0 0 0 2 11 3 0 0 
93.5062 298.035 1.04031 4.7263 0 3 0 0 0 0 0 0 2 29 33 0 0 0 0 0 83 120 49 1 0 0 1 13 38 88 120 67 18 16 16 20 38 34 1 0 0 0 0 0 111 120 120 20 6 4 4 19 63 53 120 101 85 36 30 53 33 11 5 12 24 63 120 79 50 54 2 0 0 0 0 4 120 42 7 4 8 46 75 120 6 4 6 19 96 120 78 19 14 0 0 0 11 38 39 18 13 40 1 0 0 0 10 11 7 12 0 0 16 44 26 10 0 1 0 0 23 60 12 1 12 6 2 0 0 2 3 2 
93.5062 298.035 1.04031 5.97041 115 27 1 0 0 0 12 77 62 36 26 24 73 98 94 87 0 0 6 27 110 80 30 0 0 0 0 2 4 6 48 10 51 6 0 0 0 0 8 50 115 115 67 31 9 24 51 70 6 22 70 115 115 27 7 4 1 0 2 34 28 3 0 1 41 1 0 0 0 0 0 20 115 24 5 5 5 16 107 115 8 5 6 53 112 98 115 44 0 0 6 71 38 4 0 1 0 0 0 0 0 0 0 5 7 0 0 0 0 0 26 53 24 0 0 1 1 5 30 60 3 0 0 8 24 28 3 9 
127.413 300.931 1.02261 0.709833 27 14 2 0 0 0 0 11 20 61 48 8 0 0 0 2 28 32 57 47 1 0 0 5 77 57 12 3 1 5 22 52 73 21 6 0 0 0 0 15 130 130 77 34 6 3 3 27 15 41 86 130 130 18 5 12 11 21 14 24 31 5 39 56 56 19 56 43 0 0 0 6 130 35 6 7 6 22 47 130 18 16 7 39 130 130 60 46 23 98 45 17 34 6 2 7 8 4 17 89 31 4 0 1 57 7 4 12 5 5 12 49 9 2 0 0 16 63 33 24 23 15 2 1 4 12 72 63 
148.351 314.7 0.954124 2.74819 7 7 5 2 0 0 1 1 2 47 71 5 0 0 0 0 0 16 102 32 0 0 0 0 0 1 30 26 0 0 0 0 59 35 7 0 0 0 0 1 132 132 119 26 7 4 2 20 10 39 132 132 132 21 2 4 0 5 26 47 35 9 4 0 53 15 23 6 1 2 1 15 132 29 5 5 8 29 93 132 11 5 5 28 132 132 100 39 0 0 0 6 57 57 7 0 2 1 2 5 11 16 3 5 2 0 0 0 2 13 60 82 0 0 0 0 2 60 65 29 0 0 0 0 6 39 14 0 
127.153 325.504 0.985055 2.93279 24 12 0 0 0 0 0 8 20 100 38 0 0 0 0 1 17 130 74 0 0 0 0 4 45 70 16 1 1 0 4 22 92 39 0 0 0 0 0 3 134 134 90 4 1 3 3 22 12 100 134 58 49 41 6 6 15 48 33 9 14 17 4 2 85 15 14 2 0 0 0 17 134 31 4 1 1 12 49 134 17 8 7 11 50 134 86 65 65 22 3 1 10 38 49 68 14 12 31 3 0 0 3 3 89 10 3 0 0 0 9 72 16 1 0 0 20 51 31 36 1 0 0 0 19 33 81 34 
383.201 351.161 1.11167 1.79306 4 6 2 1 5 9 10 7 2 23 47 8 15 8 2 0 0 2 44 32 1 0 0 0 0 0 1 4 0 0 0 0 42 15 0 0 3 13 10 5 137 137 134 41 10 8 9 36 10 40 137 137 137 39 7 7 0 1 7 29 39 3 0 0 39 1 0 0 0 1 0 21 137 34 6 6 9 42 137 137 10 8 6 32 137 137 137 38 7 1 2 5 34 25 1 8 1 0 0 0 0 0 0 3 1 0 0 0 0 5 40 28 1 0 0 0 0 30 39 3 24 33 7 0 0 3 0 1 
383.201 351.161 1.11167 5.22195 0 3 0 4 20 3 0 0 0 33 38 4 0 0 0 0 0 4 35 31 1 0 0 0 0 0 0 3 0 0 0 0 34 26 1 8 8 3 0 3 138 138 138 43 10 7 6 35 10 38 130 138 138 29 6 7 3 5 1 26 34 1 0 0 35 3 0 5 1 3 7 28 138 35 7 8 10 35 138 138 11 7 8 42 138 138 138 42 6 14 10 7 41 15 1 1 0 0 0 0 0 0 3 5 0 0 0 0 0 2 46 29 8 0 0 0 0 25 53 8 21 8 7 5 1 3 1 8 
112.542 354.648 1.05752 1.39155 0 2 7 11 19 9 2 0 2 37 41 4 11 2 1 5 4 13 54 30 2 1 0 2 10 10 2 4 0 0 0 3 37 17 0 0 6 19 18 8 139 139 130 26 10 9 5 30 12 48 139 139 139 42 5 7 20 3 0 24 45 6 0 10 43 3 3 3 0 0 3 28 139 35 6 5 8 41 117 139 12 7 6 27 139 139 121 40 9 0 0 2 37 35 6 15 2 0 3 7 4 4 2 4 4 3 0 0 0 6 50 46 1 3 1 1 3 42 44 5 1 0 0 0 2 8 5 1 
112.542 354.648 1.05752 4.95972 8 5 0 0 2 2 2 2 2 40 54 11 4 2 0 0 1 4 38 46 1 0 4 3 0 0 2 5 1 4 10 1 52 30 3 3 0 0 0 2 140 140 135 53 10 7 5 30 9 30 116 140 140 28 5 5 6 14 15 26 33 1 0 0 47 7 10 21 6 0 0 21 140 32 7 9 10 44 126 140 10 5 6 42 140 140 117 36 24 7 2 4 37 22 4 13 0 0 2 16 18 3 0 3 1 0 1 9 7 9 44 34 2 1 4 3 4 47 40 5 6 1 5 5 1 4 1 10 
106.425 378.082 0.956374 4.7979 24 7 0 0 0 0 3 42 124 59 5 0 0 1 6 65 48 24 16 36 80 96 34 38 1 1 1 17 74 54 11 2 90 39 0 0 0 0 0 4 124 124 34 15 3 2 6 31 14 32 39 124 111 52 16 12 0 0 0 90 71 22 2 0 97 39 0 0 0 0 0 11 124 19 2 2 3 17 88 124 6 3 2 24 60 124 124 27 0 0 0 28 44 66 39 0 33 10 0 0 0 1 13 12 9 1 0 0 0 7 79 44 9 4 5 6 3 37 64 9 1 0 3 17 13 18 24 1 
24.4565 50.3769 1.24485 1.24316 9 18 11 2 4 2 2 4 2 15 37 9 9 18 3 0 2 2 33 27 2 6 7 4 1 0 0 4 4 10 13 4 39 17 3 1 3 2 17 25 124 124 124 36 8 4 4 23 7 27 124 124 106 14 4 5 0 0 1 40 47 4 1 0 82 45 0 0 0 0 2 13 124 86 27 17 9 21 51 121 8 6 12 66 124 124 66 30 0 0 13 36 75 16 0 0 107 35 0 0 0 0 0 31 87 72 42 38 30 28 32 59 0 5 14 52 107 65 17 4 0 8 31 30 19 9 2 1 
24.4565 50.3769 1.24485 3.52449 5 8 1 0 0 0 1 2 32 70 29 0 0 0 0 14 33 88 55 6 2 0 6 21 15 46 93 77 23 4 1 2 46 30 4 5 1 0 0 4 127 127 83 20 7 6 6 32 43 79 114 98 81 51 26 28 32 23 17 23 56 108 88 43 39 3 5 8 6 2 0 22 127 22 5 4 5 30 111 127 9 5 3 14 72 127 127 36 0 0 0 0 9 98 92 4 11 8 9 2 1 1 0 4 5 11 13 4 0 5 25 30 1 4 3 14 22 30 27 7 0 0 0 5 17 10 2 0 
41.9518 78.2718 1.38198 0.953578 1 2 0 0 0 0 0 0 0 30 34 4 0 0 0 0 0 4 37 31 0 0 0 0 0 0 0 4 0 0 1 1 32 21 0 0 0 0 0 1 143 143 125 43 10 4 3 23 14 45 134 143 143 21 3 6 0 0 2 39 33 1 0 0 45 10 1 0 0 0 0 13 143 40 8 8 12 37 92 143 17 8 7 47 143 143 108 49 0 0 1 10 50 32 2 0 20 25 7 0 0 0 1 6 9 10 12 7 15 18 42 41 0 0 0 0 10 67 55 7 2 1 0 0 2 12 1 1 
41.9518 78.2718 1.38198 3.82727 1 8 4 0 2 4 1 0 2 65 55 4 0 0 0 0 11 30 60 36 4 1 3 3 4 7 8 11 15 17 13 4 47 23 2 0 0 0 0 13 142 142 101 34 15 10 7 40 13 48 109 142 142 52 9 8 0 0 0 11 52 22 14 1 37 1 0 0 0 0 0 32 142 26 3 4 12 53 135 142 11 6 3 15 142 142 122 36 0 0 0 0 30 24 0 0 0 0 0 0 1 0 0 4 0 0 0 0 0 5 37 29 0 0 0 0 0 28 31 3 0 0 0 0 0 2 0 0 
346.585 139.374 1.31409 1.17075 0 7 0 0 0 0 1 0 1 35 44 4 0 0 0 0 27 4 43 26 0 0 0 14 65 7 0 2 0 0 16 89 53 34 0 0 0 0 0 0 133 133 133 39 6 2 2 18 10 30 129 133 115 7 2 7 5 1 1 39 28 0 14 34 81 7 0 0 0 0 0 20 133 34 7 8 9 16 72 133 11 6 7 64 133 133 92 54 1 1 2 25 74 16 0 0 11 4 0 0 0 0 0 13 11 8 0 0 0 1 47 95 2 7 7 0 9 53 73 26 0 0 11 6 11 15 1 0 
346.585 139.374 1.31409 3.81189 9 6 0 0 2 2 1 3 17 81 48 8 0 0 1 4 0 14 54 84 16 5 10 2 0 0 0 13 12 12 24 0 60 11 0 18 12 3 1 7 138 138 58 28 10 7 6 38 15 44 68 138 138 55 7 7 0 0 0 36 85 21 0 0 34 0 0 21 63 14 1 29 138 16 2 2 7 35 130 138 10 3 2 12 126 138 135 37 0 0 0 0 41 62 0 0 0 0 0 0 37 26 1 4 0 0 0 0 1 5 47 33 0 0 0 0 0 37 50 3 0 0 0 0 1 7 0 0 
357.592 146.422 1.33508 2.34884 45 5 0 0 0 2 46 41 80 119 12 2 2 4 8 8 3 62 30 27 77 9 0 0 0 0 1 10 93 12 0 0 133 19 1 0 0 0 1 8 133 122 16 14 10 7 5 26 15 32 20 59 133 82 5 5 0 0 0 0 89 68 5 0 80 38 2 0 0 0 2 23 133 13 0 1 5 43 91 133 7 2 0 3 94 133 73 22 0 0 0 0 16 70 19 2 8 0 0 0 0 0 27 38 4 2 0 0 0 18 109 47 0 5 11 0 2 83 45 3 1 2 9 1 0 7 6 4 
357.592 146.422 1.33508 6.02141 8 19 2 0 17 75 19 0 11 88 71 6 3 2 0 0 0 16 73 51 22 0 0 0 0 0 6 12 25 9 3 0 65 36 5 0 0 2 0 0 130 130 79 34 4 0 1 12 8 26 74 130 118 3 1 3 0 0 1 84 67 4 0 0 74 36 6 0 0 0 0 4 130 35 5 7 6 7 18 130 17 5 6 94 130 44 30 51 0 7 20 101 109 2 0 0 31 8 8 1 0 0 0 9 89 1 0 0 0 0 5 108 20 0 0 1 65 63 18 48 28 20 12 8 52 30 1 9 
369.237 152.333 1.33489 5.71312 24 0 0 0 53 104 17 22 6 20 51 34 106 43 0 0 0 19 123 41 6 0 0 0 0 13 61 35 34 2 0 0 23 0 0 0 15 123 25 20 123 75 36 9 11 34 6 14 19 27 103 65 51 58 11 2 0 0 26 33 117 95 12 0 39 10 0 0 16 57 8 4 123 17 0 0 14 18 6 59 23 2 0 10 123 123 18 21 0 0 0 3 71 123 15 0 27 16 0 0 10 6 1 1 65 8 0 0 3 6 14 75 5 0 0 8 123 53 12 32 0 0 0 3 91 18 0 0 
292.482 159.383 1.13948 4.30019 4 13 0 0 0 0 0 0 43 119 1 0 0 0 0 0 127 127 11 0 0 0 7 86 71 76 80 42 38 50 69 85 47 19 0 0 0 0 0 0 127 127 9 3 3 1 1 9 62 42 11 9 25 21 51 127 8 0 0 0 6 100 127 127 59 16 0 0 0 0 0 3 127 10 0 0 2 13 28 77 8 1 0 2 26 127 60 20 0 0 0 0 1 66 94 5 29 28 0 0 0 0 0 0 23 11 0 1 2 7 14 18 0 0 0 6 9 40 18 3 0 0 0 4 8 15 4 0 
353.489 160.576 1.24345 3.76272 6 4 0 2 3 3 30 36 9 30 40 29 21 7 11 6 0 1 54 86 23 0 0 0 0 2 29 21 1 0 0 0 40 41 26 18 2 0 3 7 130 130 116 34 4 4 5 30 8 30 130 130 113 26 5 6 0 1 28 91 38 2 0 0 29 7 21 40 13 0 0 19 130 33 14 6 5 22 77 130 9 6 6 36 130 130 96 41 0 0 13 35 53 24 0 0 8 14 70 28 1 0 0 4 8 12 124 21 0 2 13 25 0 1 55 48 7 29 20 6 0 0 6 30 22 16 0 0 
353.489 160.576 1.24345 5.80102 26 9 0 0 0 0 0 16 44 52 32 1 0 0 0 3 18 17 51 18 0 0 0 0 124 12 2 1 0 0 0 35 109 36 0 0 0 0 0 11 124 124 108 22 6 6 7 27 9 28 122 124 114 46 9 7 77 1 2 10 23 11 3 67 82 48 3 0 0 0 1 18 124 24 5 4 5 35 124 124 7 6 5 16 95 124 124 24 58 8 0 0 17 30 5 43 16 36 10 7 9 1 1 3 3 1 2 9 29 16 62 20 32 11 0 0 1 17 43 22 37 32 0 0 0 1 0 2 
139.26 185.738 1.11816 2.56725 23 16 0 0 0 0 20 35 31 74 24 8 0 1 24 16 0 10 23 63 56 8 3 0 0 0 0 13 39 3 0 0 102 56 0 0 0 0 0 0 128 128 60 29 4 1 1 12 6 24 56 128 128 7 1 2 0 0 0 71 81 0 0 0 128 9 0 0 0 0 0 10 128 19 3 4 6 16 25 128 8 3 3 32 128 119 30 29 0 0 0 19 128 16 0 0 91 17 0 0 0 0 0 3 96 2 0 0 1 8 10 54 2 0 0 0 91 70 13 14 0 0 0 6 67 13 0 0 
139.26 185.738 1.11816 5.35584 38 22 0 0 0 0 0 3 53 127 9 1 0 0 0 0 8 57 22 26 40 5 0 0 0 0 0 2 62 51 0 0 122 32 0 0 0 0 0 7 127 127 28 13 7 4 3 21 7 37 35 76 127 44 3 3 0 0 0 2 127 73 0 0 117 12 0 0 0 0 0 27 127 14 1 1 5 35 74 127 6 2 1 5 122 127 70 18 0 0 0 0 71 91 0 0 43 42 3 0 0 0 0 3 23 9 12 13 6 30 42 29 0 0 3 18 19 115 30 1 0 0 0 2 7 34 0 0 
369.865 189.343 1.34933 2.67752 21 15 0 0 0 0 0 0 82 113 8 2 0 0 0 0 13 40 19 26 75 13 0 0 0 0 0 4 57 29 0 0 80 28 0 0 0 0 0 7 136 136 48 26 11 6 6 37 11 46 51 129 136 43 6 6 0 0 0 4 82 35 1 0 53 2 0 0 0 0 0 36 136 22 3 3 8 32 123 136 7 5 3 17 136 136 129 35 0 0 0 1 59 35 1 0 3 4 1 0 0 0 1 7 1 3 5 3 0 3 49 44 0 0 1 2 1 38 60 5 1 0 1 0 1 11 1 0 
369.865 189.343 1.34933 5.86908 1 11 1 0 1 1 1 0 1 38 60 5 0 0 1 2 0 3 48 44 1 4 5 2 0 0 1 7 3 3 0 0 60 34 1 0 0 0 0 1 136 136 130 35 7 4 3 19 8 32 123 136 136 21 3 4 0 0 0 37 52 1 0 0 81 28 0 0 0 0 0 6 136 39 6 6 11 42 48 136 12 6 6 38 136 136 47 28 0 0 0 8 82 27 0 0 55 26 0 0 0 0 0 3 85 12 0 0 11 31 17 29 1 0 0 0 91 104 8 4 0 0 0 0 26 14 0 0 
63.4031 192.724 1.2612 0.706698 11 7 11 7 6 21 11 2 75 92 14 10 2 1 1 1 6 27 21 82 77 2 0 0 0 0 0 14 49 3 0 0 65 8 0 0 0 22 20 7 132 110 11 17 10 1 1 12 24 31 14 127 132 3 0 3 0 0 0 43 89 2 0 0 73 6 0 0 0 1 1 15 132 14 0 2 7 5 9 132 32 7 3 62 132 24 15 47 0 0 0 79 107 0 0 0 21 10 14 3 0 0 0 7 132 74 1 0 0 0 0 45 63 50 10 53 93 6 1 11 0 0 0 50 126 5 0 0 
318.513 192.613 1.2307 1.16462 18 12 15 9 1 2 2 1 132 93 9 3 0 0 0 0 15 25 31 75 28 28 0 0 0 0 3 92 63 35 0 0 72 7 2 1 0 15 25 18 132 93 9 14 11 0 0 12 21 22 10 67 132 67 0 2 0 0 0 24 88 93 6 0 132 8 0 0 0 4 6 11 132 11 0 3 9 7 19 93 19 2 0 46 132 63 31 30 0 0 0 55 132 9 0 0 67 10 2 3 1 0 0 20 76 8 1 0 0 6 33 92 1 0 0 2 26 93 68 13 0 0 0 4 58 64 5 0 
156.325 207.227 1.09874 5.33624 40 13 0 0 0 0 0 0 136 51 0 0 0 0 0 21 136 34 8 1 0 0 4 73 37 37 30 16 50 87 38 39 80 20 0 0 0 0 0 8 136 136 6 1 1 1 0 13 67 59 16 6 21 43 33 35 5 0 0 0 34 136 94 23 90 14 0 0 0 0 0 9 136 13 0 0 1 10 11 98 29 3 1 2 68 136 29 34 0 0 1 1 25 115 51 0 34 56 1 0 0 0 0 0 114 24 0 0 0 4 10 46 8 2 7 3 37 63 19 21 0 18 26 9 22 15 1 0 
175.843 231.955 1.23484 2.55851 4 7 1 0 0 4 16 19 3 49 42 4 1 9 20 12 5 9 55 40 1 12 11 3 17 2 4 7 0 4 10 20 51 57 1 0 0 0 2 5 132 132 121 26 4 2 4 22 9 40 132 132 97 10 4 6 3 15 27 77 30 1 0 0 93 22 0 0 0 0 0 19 132 41 6 6 6 13 61 132 11 6 6 54 132 132 117 44 2 14 19 28 59 18 3 0 71 13 2 0 0 0 0 12 101 24 1 2 21 21 19 39 6 1 0 1 38 66 53 11 15 3 0 0 6 13 7 10 
175.843 231.955 1.23484 5.00453 7 3 1 2 7 19 30 19 14 48 34 14 4 4 8 7 1 42 68 44 8 6 1 0 2 33 31 13 29 21 2 0 81 15 1 0 0 4 14 31 130 130 63 32 9 7 8 39 9 40 77 130 130 74 13 6 1 6 3 6 49 130 17 0 53 2 6 2 2 8 3 48 130 16 2 3 7 40 130 130 5 3 1 11 100 130 130 24 0 0 0 0 33 88 12 0 4 14 35 39 16 2 1 5 1 1 10 19 10 8 61 26 0 0 2 9 8 41 60 2 0 0 0 0 1 12 16 0 
159.781 256.67 1.25003 0.405769 82 71 3 0 0 0 1 10 37 51 11 1 1 4 8 25 5 12 17 9 13 22 11 10 0 2 11 28 11 12 16 6 84 13 0 0 0 0 10 82 136 124 39 11 8 3 4 38 9 37 49 63 136 58 4 1 1 0 0 2 34 56 45 40 99 0 0 0 0 0 18 72 136 18 2 2 28 31 6 80 21 5 3 7 136 136 5 11 13 7 0 0 40 53 11 21 74 21 1 0 0 0 1 16 136 5 0 0 12 31 32 104 4 0 0 18 136 90 20 13 11 9 1 10 23 4 1 8 
159.781 256.67 1.25003 3.80895 46 3 1 4 4 3 4 54 117 57 45 57 18 0 0 17 2 5 18 140 140 3 0 0 0 1 14 26 19 3 0 0 100 16 3 10 9 5 0 5 140 50 7 37 31 3 2 14 20 9 9 140 140 13 2 3 0 0 44 96 36 0 0 0 55 47 41 34 2 0 0 2 140 36 3 3 9 29 36 85 10 1 8 42 125 117 33 18 0 0 22 76 88 14 0 0 6 19 35 15 0 0 12 23 20 28 9 1 1 12 14 16 8 12 18 30 27 24 6 3 0 0 1 13 89 52 1 0 
59.7484 271.47 1.27347 5.5231 71 0 0 0 1 1 2 36 124 20 9 2 0 0 6 106 39 15 61 104 19 40 79 50 0 0 13 124 119 56 15 0 66 12 6 8 0 0 0 15 124 61 2 3 5 4 8 67 29 16 3 9 89 124 79 28 0 0 1 6 68 124 25 0 48 8 3 7 5 3 4 14 124 14 0 0 3 13 53 124 8 2 0 2 89 124 71 27 2 8 8 4 34 39 2 1 6 0 0 0 0 2 9 30 6 0 0 0 0 1 34 72 12 8 0 0 3 20 59 15 25 52 26 4 2 3 2 2 
28.734 295.309 1.10728 1.07044 64 4 0 0 0 0 0 18 69 36 15 17 11 0 0 1 0 3 23 96 53 0 0 0 0 0 26 52 6 0 0 0 125 9 0 0 0 0 0 15 126 126 61 23 2 1 2 21 7 25 101 126 61 15 3 4 0 4 85 79 17 5 4 2 87 1 0 0 0 0 0 50 126 22 4 3 2 9 45 126 9 5 6 29 123 123 60 62 0 1 7 9 53 61 55 6 11 0 0 0 0 0 0 25 20 0 0 0 0 0 14 126 7 0 0 0 35 61 69 89 0 0 0 0 37 69 18 0 
120.418 325.709 1.21789 0.640349 34 2 0 0 3 0 0 41 77 41 5 1 0 0 0 54 87 81 62 14 0 0 0 14 24 34 112 121 52 17 4 8 53 40 36 25 6 1 0 10 121 121 36 5 1 1 1 23 68 79 71 41 22 12 8 25 27 6 4 15 111 121 28 26 38 16 13 20 22 29 15 25 121 49 4 1 1 4 14 121 27 22 26 19 31 50 29 49 0 4 39 63 79 27 1 0 42 30 6 0 0 4 6 6 121 121 5 0 0 0 5 34 36 71 53 29 12 23 29 19 1 9 41 33 9 23 36 6 
117.368 331.407 1.21033 1.0367 120 39 7 2 0 1 14 108 21 19 21 23 41 29 35 49 1 22 63 48 44 8 1 0 0 14 120 51 20 6 1 0 75 14 0 1 5 4 19 120 120 75 24 3 4 12 38 102 17 52 69 27 38 60 25 6 1 6 21 9 40 92 54 1 89 20 5 0 0 1 1 34 120 19 3 0 0 18 89 120 9 4 2 4 24 120 120 21 1 0 0 0 10 73 61 4 44 9 7 0 0 2 14 38 16 2 2 0 0 11 90 50 0 0 0 0 0 19 88 35 2 0 0 0 2 16 62 10 
117.368 331.407 1.21033 5.46229 43 41 19 3 3 1 0 0 2 20 95 27 14 2 0 0 3 36 81 42 4 0 3 7 1 66 111 27 6 7 6 5 78 77 11 0 0 0 0 0 117 118 118 35 3 0 0 5 15 84 118 118 21 3 1 5 28 118 101 35 14 11 15 20 81 37 5 0 0 0 0 5 118 24 7 6 4 7 16 116 23 9 15 52 85 42 22 36 9 5 2 6 22 24 52 38 39 13 4 1 0 0 5 13 100 11 0 0 0 0 7 67 48 4 2 10 70 48 20 38 0 0 0 2 65 83 69 10 
208.277 59.5523 1.44245 2.76175 14 24 31 19 3 1 3 7 0 14 62 51 5 0 1 0 6 3 50 40 0 0 0 5 76 39 11 6 0 0 2 27 44 10 1 3 2 2 31 49 129 129 124 39 10 6 11 34 10 35 126 129 129 28 5 6 63 0 0 32 42 4 3 55 42 1 0 0 0 0 6 42 129 28 5 5 6 28 127 129 8 6 5 31 129 129 129 34 12 0 0 3 47 38 4 29 1 0 0 0 0 0 0 9 1 0 0 0 0 3 51 43 1 1 1 0 1 40 54 4 2 1 6 1 1 8 0 2 
208.277 59.5523 1.44245 5.60046 0 7 4 19 13 0 0 0 0 43 54 4 0 0 2 1 0 4 55 42 1 0 0 0 0 0 0 9 2 0 0 0 45 34 3 22 60 4 0 3 131 131 131 34 8 7 6 29 6 31 129 131 131 35 6 4 0 0 0 36 52 3 0 0 47 3 0 12 83 21 1 33 131 29 5 5 8 36 128 131 10 7 10 38 131 131 111 32 0 0 7 42 54 12 0 0 0 0 0 4 16 17 5 7 5 0 0 0 3 3 42 58 26 3 5 7 5 16 42 53 1 0 4 24 30 21 10 3 
285.86 156.788 1.64412 5.49825 15 8 4 9 5 9 20 13 57 37 24 42 4 0 1 15 1 4 13 128 38 1 0 0 1 0 0 13 10 0 6 15 62 7 0 0 0 14 22 17 135 135 50 34 6 5 8 41 13 36 59 135 135 32 7 6 0 0 0 59 74 2 0 1 44 1 0 0 0 10 3 35 135 21 3 3 4 22 80 135 12 5 3 32 135 135 92 56 0 0 1 25 103 17 0 0 2 0 0 0 1 1 0 8 20 0 0 0 0 0 13 115 9 0 0 8 22 19 57 83 0 0 2 15 38 12 10 2 
335.631 198.585 1.48992 2.70436 43 0 0 0 0 0 0 21 140 9 0 0 1 4 7 58 57 1 0 2 67 140 42 50 0 0 0 1 88 140 0 0 77 11 0 0 0 0 0 3 140 66 2 8 22 8 4 21 28 13 2 24 140 97 7 7 1 3 4 3 63 39 0 0 52 5 0 2 0 0 0 19 136 6 0 1 8 30 82 140 7 2 0 3 126 140 69 19 8 18 4 1 28 20 0 0 3 1 13 3 0 0 0 6 2 6 10 0 0 6 39 28 0 44 28 0 1 33 27 1 1 86 51 7 0 3 0 0 
335.631 198.585 1.48992 6.00831 0 3 0 0 7 122 23 0 1 33 28 2 1 42 12 0 0 5 37 31 3 4 7 0 0 0 0 6 3 2 8 3 29 19 0 0 11 28 5 1 128 136 68 22 6 2 0 9 9 27 75 136 132 1 0 1 0 0 0 19 54 1 1 2 52 10 0 0 3 5 4 9 136 55 4 7 18 6 2 64 29 10 4 45 136 19 3 16 0 0 0 17 93 0 0 0 68 51 0 0 0 0 1 1 136 136 21 27 10 0 0 4 8 26 17 136 136 1 0 1 0 0 1 49 62 0 0 0 
167.426 210.73 1.49344 3.18081 28 10 10 16 14 9 7 23 116 26 4 4 5 12 37 116 14 10 9 36 88 116 62 35 0 0 0 38 100 9 0 0 48 8 6 1 5 14 40 37 116 114 17 9 5 6 6 28 21 36 31 102 98 28 5 7 2 5 28 104 52 4 0 0 38 23 53 19 0 1 5 12 116 17 8 3 3 14 37 116 15 3 1 5 77 116 55 61 62 18 31 15 13 19 5 52 3 1 5 5 0 12 51 36 3 0 2 1 0 32 76 67 2 0 0 0 5 26 94 81 105 4 0 0 1 7 10 61 
56.9912 266.012 1.59527 1.47987 8 9 0 0 0 17 6 1 30 90 43 2 0 0 2 4 7 36 117 8 0 0 1 5 0 13 49 39 13 6 10 4 72 22 0 0 0 2 1 0 137 137 73 21 3 2 1 15 16 48 137 77 38 54 10 4 0 12 43 40 70 114 20 0 72 58 13 9 0 0 0 1 137 51 1 3 4 36 42 66 19 2 2 12 67 137 49 21 3 0 0 0 18 137 31 2 14 34 67 53 9 2 2 3 30 14 2 7 9 52 79 21 0 0 3 5 19 137 28 1 2 12 12 2 8 21 0 0 
86.9569 286.155 1.69131 5.15591 7 4 0 0 0 0 0 0 58 48 7 0 0 0 0 3 44 13 23 8 0 17 33 25 0 0 7 7 10 46 36 1 34 18 0 0 0 0 0 0 124 124 55 4 0 0 0 8 12 52 124 114 2 1 2 5 0 0 62 103 65 4 1 0 45 71 16 0 0 0 0 1 124 63 21 3 1 2 2 110 74 17 47 67 25 19 21 90 0 1 16 66 124 71 6 0 46 58 13 3 8 14 12 8 32 9 9 2 7 30 52 95 27 0 0 0 8 77 124 107 0 0 0 1 49 124 37 0 
342.063 110.593 1.78687 2.37046 3 11 0 0 0 0 11 7 1 51 58 5 3 3 3 1 0 5 71 57 4 0 0 0 0 0 7 18 1 0 0 0 67 56 0 0 0 0 0 3 130 130 116 27 7 3 1 15 6 32 124 130 130 13 1 3 0 9 38 56 39 0 0 0 104 5 0 0 0 0 0 40 130 32 4 5 9 30 59 130 9 6 8 36 130 130 60 31 2 28 51 18 38 5 0 1 20 0 0 0 0 0 0 27 15 0 0 0 0 5 69 123 1 0 0 0 5 37 86 51 5 6 3 0 1 3 31 26 
342.063 110.593 1.78687 5.43678 1 2 23 22 6 9 6 1 5 36 72 52 2 1 0 0 0 6 68 125 15 0 0 0 0 0 0 28 22 0 0 0 40 5 0 0 1 21 62 20 130 130 57 26 9 6 8 33 9 34 61 130 130 32 5 5 0 0 0 36 112 5 0 0 45 0 0 0 0 4 32 58 130 15 1 2 6 33 126 130 7 3 1 13 130 130 118 25 0 0 0 2 69 57 0 0 1 0 0 0 0 0 4 19 4 0 0 0 0 5 69 57 2 3 4 2 1 52 55 5 0 0 8 8 3 13 0 0 
305.416 126.476 2.02398 0.904821 3 7 4 0 0 16 6 13 7 37 36 3 0 8 42 42 0 8 51 26 1 37 36 1 3 13 7 3 0 5 2 2 40 40 14 6 0 0 0 0 128 128 127 28 3 2 2 20 8 32 128 128 87 9 3 5 0 3 6 59 38 1 1 2 38 26 115 37 5 0 0 4 128 39 17 14 8 13 47 128 10 5 8 54 128 128 75 54 0 0 0 24 116 32 0 0 2 15 41 41 54 64 12 1 7 0 2 9 22 31 51 58 0 0 0 0 10 72 81 21 0 0 0 2 43 30 6 0 
305.416 126.476 2.02398 3.02144 4 10 4 6 5 2 1 1 10 95 53 2 0 0 0 0 0 34 101 43 3 0 0 0 0 0 8 55 17 0 0 1 56 20 1 1 0 0 8 18 126 126 65 13 7 7 7 36 9 46 103 111 126 62 8 6 1 9 22 49 71 19 0 0 43 2 18 66 9 0 3 33 126 17 2 4 7 33 126 126 14 4 2 7 70 126 126 42 69 45 27 3 14 26 10 50 0 0 4 53 69 51 4 2 1 0 1 4 17 13 51 31 15 1 0 0 0 20 49 22 46 5 1 0 0 0 9 95 
338.283 208.712 2.00177 2.53199 40 18 4 0 0 0 4 21 122 46 10 24 23 0 1 11 5 9 7 78 145 1 0 0 0 0 0 6 35 0 0 0 75 1 0 0 0 0 8 52 145 52 6 33 35 4 2 19 18 12 5 127 145 20 1 2 0 0 0 14 66 2 0 0 114 19 0 0 0 0 0 12 145 25 0 3 21 70 34 47 10 1 0 17 145 145 25 10 0 0 0 3 46 27 0 0 94 29 0 0 0 0 2 16 72 27 0 0 67 84 23 21 0 0 2 3 58 103 3 0 0 0 2 10 3 5 0 0 
338.283 208.712 2.00177 5.5882 3 6 0 0 0 0 0 8 34 103 5 0 0 0 2 4 64 113 25 16 46 25 0 0 0 1 6 22 95 40 0 0 45 27 0 0 0 0 0 2 144 144 32 8 9 1 0 12 21 81 43 36 144 44 0 2 0 0 0 5 115 41 0 0 77 4 0 0 0 0 0 8 144 26 2 2 20 18 5 92 32 5 2 13 144 79 6 24 0 0 4 45 76 4 0 0 50 2 0 0 0 0 0 6 144 8 0 0 9 16 9 65 14 0 1 10 121 60 8 13 0 0 4 22 31 17 5 0 
356.336 222.207 1.86655 2.14653 9 18 1 0 0 0 0 4 4 69 50 0 0 0 2 1 1 29 88 36 1 0 0 0 0 0 8 59 14 0 0 0 55 61 3 0 0 0 0 1 118 123 88 3 0 0 0 6 8 44 123 123 45 4 0 1 0 0 10 123 72 1 0 0 95 16 0 0 0 0 0 18 123 30 4 1 1 5 8 122 25 8 10 29 109 114 19 37 0 0 0 25 123 82 0 0 32 43 6 0 0 0 0 3 121 29 2 0 0 3 6 59 15 5 2 10 74 87 15 25 0 0 0 1 78 78 0 0 
45.01 253.752 3.0501 0.0369573 14 12 0 0 0 0 0 2 68 77 8 3 0 0 1 13 11 33 21 71 54 16 3 5 20 15 5 14 20 5 0 1 51 9 0 0 0 0 0 12 136 136 20 10 11 2 0 14 19 67 36 95 136 19 0 2 27 2 1 14 71 6 1 23 65 0 0 0 0 0 0 7 136 14 0 1 13 19 27 127 31 15 45 37 136 77 35 40 8 11 136 77 40 4 0 10 34 4 0 0 0 0 0 1 100 2 0 0 1 3 22 60 31 15 22 5 6 10 52 132 15 15 69 64 35 16 43 83 
45.01 253.752 3.0501 3.24384 26 16 61 102 15 17 55 44 6 11 62 118 25 12 13 3 0 2 20 65 100 1 0 0 0 0 0 2 27 1 0 0 39 1 0 11 8 18 136 73 136 64 39 48 32 16 42 37 13 16 26 136 136 12 0 1 0 0 0 12 55 0 0 0 67 3 1 29 22 1 4 15 136 11 1 3 20 58 32 109 12 2 0 20 136 136 19 13 0 0 0 16 50 9 0 0 14 2 0 3 26 14 5 15 54 13 2 3 9 27 20 83 1 2 2 18 73 69 10 6 0 0 0 3 18 12 0 0 
90.7931 284.488 3.35931 2.2621 55 12 0 0 0 0 5 26 42 18 16 9 46 26 17 26 0 30 45 27 47 7 0 0 0 2 5 19 38 5 0 0 45 7 0 0 0 0 3 34 126 126 82 22 6 5 12 45 10 44 125 118 126 28 5 6 0 0 1 7 103 22 0 0 57 2 0 0 0 0 0 10 126 37 7 6 5 15 49 126 14 11 10 41 126 126 63 40 0 0 0 3 86 22 0 0 29 1 0 0 0 0 0 4 126 42 7 6 2 1 4 32 32 23 15 92 126 17 7 12 0 0 0 32 55 1 0 0 
90.7931 284.488 3.35931 5.45828 62 1 0 0 0 0 0 47 120 14 7 16 45 26 17 98 0 0 4 40 124 31 5 3 0 0 0 5 21 0 0 0 92 16 0 0 0 0 0 6 124 124 65 41 15 11 11 46 5 14 49 124 124 32 7 5 0 0 0 12 52 1 0 0 104 15 0 0 0 0 0 7 124 24 5 6 9 42 121 117 7 6 14 45 124 124 85 20 0 0 5 40 44 5 0 0 38 4 0 0 0 1 4 19 43 4 0 0 1 32 45 29 55 25 15 21 36 16 18 12 0 1 6 25 63 12 0 0 
